%!PS-Adobe-3.0 EPSF-3.0
%%Creator: MATLAB, The MathWorks, Inc. Version 8.3.0.532 (R2014a). Operating System: Linux 3.13.0-57-generic #95-Ubuntu SMP Fri Jun 19 09:28:15 UTC 2015 x86_64.
%%Title: /home/chris/Dropbox/DTU/mIT/work/suyash/CF4000SNR0.eps
%%CreationDate: 09/09/2015  18:31:55
%%DocumentNeededFonts: Helvetica
%%DocumentProcessColors: Cyan Magenta Yellow Black
%%LanguageLevel: 2
%%Pages: 1
%%BoundingBox:  -365     7   978   784
%%EndComments

%%BeginProlog
% MathWorks dictionary
/MathWorks 160 dict begin
% definition operators
/bdef {bind def} bind def
/ldef {load def} bind def
/xdef {exch def} bdef
/xstore {exch store} bdef
% operator abbreviations
/c  /clip ldef
/cc /concat ldef
/cp /closepath ldef
/gr /grestore ldef
/gs /gsave ldef
/mt /moveto ldef
/np /newpath ldef
/cm /currentmatrix ldef
/sm /setmatrix ldef
/rm /rmoveto ldef
/rl /rlineto ldef
/s {show newpath} bdef
/sc {setcmykcolor} bdef
/sr /setrgbcolor ldef
/sg /setgray ldef
/w /setlinewidth ldef
/j /setlinejoin ldef
/cap /setlinecap ldef
/rc {rectclip} bdef
/rf {rectfill} bdef
% page state control
/pgsv () def
/bpage {/pgsv save def} bdef
/epage {pgsv restore} bdef
/bplot /gsave ldef
/eplot {stroke grestore} bdef
% orientation switch
/portraitMode 0 def /landscapeMode 1 def /rotateMode 2 def
% coordinate system mappings
/dpi2point 0 def
% font control
/FontSize 0 def
/FMS {/FontSize xstore findfont [FontSize 0 0 FontSize neg 0 0]
  makefont setfont} bdef
/reencode {exch dup where {pop load} {pop StandardEncoding} ifelse
  exch dup 3 1 roll findfont dup length dict begin
  { 1 index /FID ne {def}{pop pop} ifelse } forall
  /Encoding exch def currentdict end definefont pop} bdef
/isroman {findfont /CharStrings get /Agrave known} bdef
/FMSR {3 1 roll 1 index dup isroman {reencode} {pop pop} ifelse
  exch FMS} bdef
/csm {1 dpi2point div -1 dpi2point div scale neg translate
 dup landscapeMode eq {pop -90 rotate}
  {rotateMode eq {90 rotate} if} ifelse} bdef
% line types: solid, dotted, dashed, dotdash
/SO { [] 0 setdash } bdef
/DO { [.5 dpi2point mul 4 dpi2point mul] 0 setdash } bdef
/DA { [6 dpi2point mul] 0 setdash } bdef
/DD { [.5 dpi2point mul 4 dpi2point mul 6 dpi2point mul 4
  dpi2point mul] 0 setdash } bdef
% macros for lines and objects
/L {lineto stroke} bdef
/MP {3 1 roll moveto 1 sub {rlineto} repeat} bdef
/AP {{rlineto} repeat} bdef
/PDlw -1 def
/W {/PDlw currentlinewidth def setlinewidth} def
/PP {closepath eofill} bdef
/DP {closepath stroke} bdef
/MR {4 -2 roll moveto dup  0 exch rlineto exch 0 rlineto
  neg 0 exch rlineto closepath} bdef
/FR {MR stroke} bdef
/PR {MR fill} bdef
/L1i {{currentfile picstr readhexstring pop} image} bdef
/tMatrix matrix def
/MakeOval {newpath tMatrix currentmatrix pop translate scale
0 0 1 0 360 arc tMatrix setmatrix} bdef
/FO {MakeOval stroke} bdef
/PO {MakeOval fill} bdef
/PD {currentlinewidth 2 div 0 360 arc fill
   PDlw -1 eq not {PDlw w /PDlw -1 def} if} def
/FA {newpath tMatrix currentmatrix pop translate scale
  0 0 1 5 -2 roll arc tMatrix setmatrix stroke} bdef
/PA {newpath tMatrix currentmatrix pop	translate 0 0 moveto scale
  0 0 1 5 -2 roll arc closepath tMatrix setmatrix fill} bdef
/FAn {newpath tMatrix currentmatrix pop translate scale
  0 0 1 5 -2 roll arcn tMatrix setmatrix stroke} bdef
/PAn {newpath tMatrix currentmatrix pop translate 0 0 moveto scale
  0 0 1 5 -2 roll arcn closepath tMatrix setmatrix fill} bdef
/vradius 0 def /hradius 0 def /lry 0 def
/lrx 0 def /uly 0 def /ulx 0 def /rad 0 def
/MRR {/vradius xdef /hradius xdef /lry xdef /lrx xdef /uly xdef
  /ulx xdef newpath tMatrix currentmatrix pop ulx hradius add uly
  vradius add translate hradius vradius scale 0 0 1 180 270 arc 
  tMatrix setmatrix lrx hradius sub uly vradius add translate
  hradius vradius scale 0 0 1 270 360 arc tMatrix setmatrix
  lrx hradius sub lry vradius sub translate hradius vradius scale
  0 0 1 0 90 arc tMatrix setmatrix ulx hradius add lry vradius sub
  translate hradius vradius scale 0 0 1 90 180 arc tMatrix setmatrix
  closepath} bdef
/FRR {MRR stroke } bdef
/PRR {MRR fill } bdef
/MlrRR {/lry xdef /lrx xdef /uly xdef /ulx xdef /rad lry uly sub 2 div def
  newpath tMatrix currentmatrix pop ulx rad add uly rad add translate
  rad rad scale 0 0 1 90 270 arc tMatrix setmatrix lrx rad sub lry rad
  sub translate rad rad scale 0 0 1 270 90 arc tMatrix setmatrix
  closepath} bdef
/FlrRR {MlrRR stroke } bdef
/PlrRR {MlrRR fill } bdef
/MtbRR {/lry xdef /lrx xdef /uly xdef /ulx xdef /rad lrx ulx sub 2 div def
  newpath tMatrix currentmatrix pop ulx rad add uly rad add translate
  rad rad scale 0 0 1 180 360 arc tMatrix setmatrix lrx rad sub lry rad
  sub translate rad rad scale 0 0 1 0 180 arc tMatrix setmatrix
  closepath} bdef
/FtbRR {MtbRR stroke } bdef
/PtbRR {MtbRR fill } bdef
/stri 6 array def /dtri 6 array def
/smat 6 array def /dmat 6 array def
/tmat1 6 array def /tmat2 6 array def /dif 3 array def
/asub {/ind2 exch def /ind1 exch def dup dup
  ind1 get exch ind2 get sub exch } bdef
/tri_to_matrix {
  2 0 asub 3 1 asub 4 0 asub 5 1 asub
  dup 0 get exch 1 get 7 -1 roll astore } bdef
/compute_transform {
  dmat dtri tri_to_matrix tmat1 invertmatrix 
  smat stri tri_to_matrix tmat2 concatmatrix } bdef
/ds {stri astore pop} bdef
/dt {dtri astore pop} bdef
/db {2 copy /cols xdef /rows xdef mul dup 3 mul string
  currentfile 
  3 index 0 eq {/ASCIIHexDecode filter}
  {/ASCII85Decode filter 3 index 2 eq {/RunLengthDecode filter} if }
  ifelse exch readstring pop
  dup 0 3 index getinterval /rbmap xdef
  dup 2 index dup getinterval /gbmap xdef
  1 index dup 2 mul exch getinterval /bbmap xdef pop pop}bdef
/it {gs np dtri aload pop moveto lineto lineto cp c
  cols rows 8 compute_transform 
  rbmap gbmap bbmap true 3 colorimage gr}bdef
/il {newpath moveto lineto stroke}bdef
currentdict end def
%%EndProlog

%%BeginSetup
MathWorks begin

0 cap

end
%%EndSetup

%%Page: 1 1
%%BeginPageSetup
%%PageBoundingBox:  -365     7   978   784
MathWorks begin
bpage
%%EndPageSetup

%%BeginObject: obj1
bplot

/dpi2point 12 def
portraitMode -4380 9408 csm

    0     0 16127  9322 rc
85 dict begin %Colortable dictionary
/c0 { 0.000000 0.000000 0.000000 sr} bdef
/c1 { 1.000000 1.000000 1.000000 sr} bdef
/c2 { 0.900000 0.000000 0.000000 sr} bdef
/c3 { 0.000000 0.820000 0.000000 sr} bdef
/c4 { 0.000000 0.000000 0.800000 sr} bdef
/c5 { 0.910000 0.820000 0.320000 sr} bdef
/c6 { 1.000000 0.260000 0.820000 sr} bdef
/c7 { 0.000000 0.820000 0.820000 sr} bdef
c0
1 j
1 sg
   0    0 16128 9323 rf
6 w
0 sg
%%IncludeResource: font Helvetica
/Helvetica /ISOLatin1Encoding 168 FMSR

6597  410 mt 
(Neural Correlations at 0dB SNR, CF = 4000Hz) s
1 sg
0 2011 3441 0 0 -2011 2097 2710 4 MP
PP
-3441 0 0 2011 3441 0 0 -2011 2097 2710 5 MP stroke
4 w
DO
SO
6 w
0 sg
2097 2710 mt 5538 2710 L
2097  699 mt 5538  699 L
2097 2710 mt 2097  699 L
5538 2710 mt 5538  699 L
2097 2710 mt 5538 2710 L
2097 2710 mt 2097  699 L
2097 2710 mt 2097 2675 L
2097  699 mt 2097  733 L
1953 2900 mt 
(-2) s
2957 2710 mt 2957 2675 L
2957  699 mt 2957  733 L
2813 2900 mt 
(-1) s
3817 2710 mt 3817 2675 L
3817  699 mt 3817  733 L
3771 2900 mt 
(0) s
4677 2710 mt 4677 2675 L
4677  699 mt 4677  733 L
4631 2900 mt 
(1) s
5538 2710 mt 5538 2675 L
5538  699 mt 5538  733 L
5492 2900 mt 
(2) s
5094 3162 mt 
(x 10) s
%%IncludeResource: font Helvetica
/Helvetica /ISOLatin1Encoding 112 FMSR

5411 3058 mt 
(-3) s
2097 2279 mt 2131 2279 L
5538 2279 mt 5503 2279 L
%%IncludeResource: font Helvetica
/Helvetica /ISOLatin1Encoding 168 FMSR

1829 2341 mt 
(0.5) s
2097 1560 mt 2131 1560 L
5538 1560 mt 5503 1560 L
1969 1622 mt 
(1) s
2097  842 mt 2131  842 L
5538  842 mt 5503  842 L
1829  904 mt 
(1.5) s
2097 2710 mt 5538 2710 L
2097  699 mt 5538  699 L
2097 2710 mt 2097  699 L
5538 2710 mt 5538  699 L
gs 2097 698 3442 2013 rc
24 w
43 117 43 -233 43 486 43 -408 43 291 43 -155 43 -214 43 214 
43 -214 43 39 43 155 43 -39 43 -39 43 0 43 -38 43 -59 
43 253 43 -39 43 97 43 -233 43 78 43 -20 43 136 43 -19 
43 -20 43 -77 43 -195 43 311 43 -19 43 155 43 -97 43 117 
43 -117 43 331 43 136 43 -292 43 466 43 -97 43 564 43 -428 
43 -136 43 97 43 -466 43 292 43 -136 43 -331 43 117 43 -117 
43 97 43 -155 43 19 43 -311 43 195 43 77 43 20 43 19 
43 -136 43 20 43 -78 43 233 43 -97 43 39 43 -253 43 59 
43 38 43 0 43 39 43 39 43 -155 43 -39 43 214 43 -214 
43 214 43 155 43 -291 43 408 43 -486 43 233 43 -117 2097 2492 80 MP stroke
6 w
/c8 { 1.000000 0.000000 0.000000 sr} bdef
c8
43 142 43 -142 43 39 43 -91 43 298 43 -246 43 90 43 -51 
43 64 43 -103 43 13 43 155 43 -13 43 -233 43 -78 43 13 
43 363 43 91 43 -285 43 77 43 -129 43 207 43 -52 43 39 
43 -78 43 -155 43 168 43 65 43 -78 43 195 43 -143 43 91 
43 -91 43 182 43 77 43 65 43 -116 43 181 43 -26 43 -65 
43 26 43 78 43 -272 43 142 43 -90 43 0 43 -104 43 -78 
43 -13 43 -51 43 194 43 -78 43 -142 43 -52 43 116 43 13 
43 -116 43 90 43 273 43 -104 43 -298 43 337 43 -13 43 -104 
43 -142 43 168 43 -155 43 64 43 -64 43 51 43 -64 43 26 
43 -104 43 116 43 -64 43 0 43 -65 43 91 43 -78 2097 2556 80 MP stroke
gr

c8
0 sg
3532  566 mt 
(Speech) s
%%IncludeResource: font Helvetica
/Helvetica /ISOLatin1Encoding 192 FMSR

2070 2779 mt 
( ) s
5512  766 mt 
( ) s
%%IncludeResource: font Helvetica
/Helvetica /ISOLatin1Encoding 168 FMSR

4653  944 mt 
(SAC\(A+\)) s
gs 4039 759 1441 445 rc
24 w
471 0 4133 883 2 MP stroke
gr

24 w
4653 1139 mt 
(SCC\(A+,A-\)) s
gs 4039 759 1441 445 rc
6 w
c8
471 0 4133 1078 2 MP stroke
gr

6 w
c8
1 sg
0 2011 3442 0 0 -2011 6625 2710 4 MP
PP
-3442 0 0 2011 3442 0 0 -2011 6625 2710 5 MP stroke
4 w
DO
SO
6 w
0 sg
6625 2710 mt 10067 2710 L
6625  699 mt 10067  699 L
6625 2710 mt 6625  699 L
10067 2710 mt 10067  699 L
6625 2710 mt 10067 2710 L
6625 2710 mt 6625  699 L
6625 2710 mt 6625 2675 L
6625  699 mt 6625  733 L
6481 2900 mt 
(-2) s
7485 2710 mt 7485 2675 L
7485  699 mt 7485  733 L
7341 2900 mt 
(-1) s
8346 2710 mt 8346 2675 L
8346  699 mt 8346  733 L
8300 2900 mt 
(0) s
9206 2710 mt 9206 2675 L
9206  699 mt 9206  733 L
9160 2900 mt 
(1) s
10067 2710 mt 10067 2675 L
10067  699 mt 10067  733 L
10021 2900 mt 
(2) s
9623 3162 mt 
(x 10) s
%%IncludeResource: font Helvetica
/Helvetica /ISOLatin1Encoding 112 FMSR

9940 3058 mt 
(-3) s
6625 2710 mt 6659 2710 L
10067 2710 mt 10032 2710 L
%%IncludeResource: font Helvetica
/Helvetica /ISOLatin1Encoding 168 FMSR

6357 2772 mt 
(0.2) s
6625 2135 mt 6659 2135 L
10067 2135 mt 10032 2135 L
6357 2197 mt 
(0.4) s
6625 1560 mt 6659 1560 L
10067 1560 mt 10032 1560 L
6357 1622 mt 
(0.6) s
6625  986 mt 6659  986 L
10067  986 mt 10032  986 L
6357 1048 mt 
(0.8) s
6625 2710 mt 10067 2710 L
6625  699 mt 10067  699 L
6625 2710 mt 6625  699 L
10067 2710 mt 10067  699 L
gs 6625 698 3443 2013 rc
24 w
43 -130 43 130 43 349 43 -610 43 -239 43 130 43 436 43 -283 
43 217 43 -217 43 43 43 -109 43 -87 43 -87 43 174 43 -152 
43 479 43 -261 43 43 43 -43 43 43 43 -43 43 -196 43 413 
43 -196 43 153 43 -457 43 217 43 0 43 414 43 -566 43 588 
43 -87 43 196 43 -479 43 740 43 218 43 -44 43 414 44 -349 
43 -65 43 44 43 -218 43 -740 43 479 43 -196 43 87 43 -588 
43 566 43 -414 43 0 43 -217 43 457 43 -153 43 196 43 -413 
43 196 43 43 43 -43 43 43 43 -43 43 261 43 -479 43 152 
43 -174 43 87 43 87 43 109 43 -43 43 217 43 -217 43 283 
43 -436 43 -130 43 239 43 610 43 -349 43 -130 43 130 6625 2109 80 MP stroke
6 w
c8
43 171 43 -31 43 -32 43 -233 43 233 43 125 43 -233 43 -78 
43 326 43 -233 43 31 43 -15 43 171 43 -202 43 -62 43 108 
43 -217 43 62 43 280 43 -125 43 -62 43 124 43 -279 43 248 
43 -155 43 0 43 0 43 62 43 -62 43 -31 43 124 43 47 
43 93 43 202 43 47 43 0 43 -218 43 233 43 -46 44 -109 
43 0 43 -124 43 264 43 -16 43 -280 43 140 43 16 43 -16 
43 -140 43 265 43 -311 43 -62 43 31 43 -78 43 435 43 -497 
43 109 43 15 43 47 43 0 43 -109 43 124 43 -62 43 0 
43 -15 43 248 43 -15 43 -140 43 -233 43 482 43 -482 43 31 
43 -31 43 264 43 -186 43 108 43 78 43 -62 43 -109 6625 2383 80 MP stroke
gr

c8
0 sg
7827  566 mt 
(Noisy Speech) s
%%IncludeResource: font Helvetica
/Helvetica /ISOLatin1Encoding 192 FMSR

6598 2779 mt 
( ) s
10041  766 mt 
( ) s
%%IncludeResource: font Helvetica
/Helvetica /ISOLatin1Encoding 168 FMSR

9182  944 mt 
(SAC\(B+\)) s
gs 8569 759 1440 445 rc
24 w
471 0 8663 883 2 MP stroke
gr

24 w
9182 1139 mt 
(SCC\(B+,B-\)) s
gs 8569 759 1440 445 rc
6 w
c8
471 0 8663 1078 2 MP stroke
gr

6 w
c8
1 sg
0 2011 3442 0 0 -2011 11153 2710 4 MP
PP
-3442 0 0 2011 3442 0 0 -2011 11153 2710 5 MP stroke
4 w
DO
SO
6 w
0 sg
11153 2710 mt 14595 2710 L
11153  699 mt 14595  699 L
11153 2710 mt 11153  699 L
14595 2710 mt 14595  699 L
11153 2710 mt 14595 2710 L
11153 2710 mt 11153  699 L
11153 2710 mt 11153 2675 L
11153  699 mt 11153  733 L
11009 2900 mt 
(-2) s
12013 2710 mt 12013 2675 L
12013  699 mt 12013  733 L
11869 2900 mt 
(-1) s
12874 2710 mt 12874 2675 L
12874  699 mt 12874  733 L
12828 2900 mt 
(0) s
13734 2710 mt 13734 2675 L
13734  699 mt 13734  733 L
13688 2900 mt 
(1) s
14595 2710 mt 14595 2675 L
14595  699 mt 14595  733 L
14549 2900 mt 
(2) s
14151 3162 mt 
(x 10) s
%%IncludeResource: font Helvetica
/Helvetica /ISOLatin1Encoding 112 FMSR

14468 3058 mt 
(-3) s
11153 2710 mt 11187 2710 L
14595 2710 mt 14560 2710 L
%%IncludeResource: font Helvetica
/Helvetica /ISOLatin1Encoding 168 FMSR

10885 2772 mt 
(0.2) s
11153 2135 mt 11187 2135 L
14595 2135 mt 14560 2135 L
10885 2197 mt 
(0.3) s
11153 1560 mt 11187 1560 L
14595 1560 mt 14560 1560 L
10885 1622 mt 
(0.4) s
11153  986 mt 11187  986 L
14595  986 mt 14560  986 L
10885 1048 mt 
(0.5) s
11153 2710 mt 14595 2710 L
11153  699 mt 14595  699 L
11153 2710 mt 11153  699 L
14595 2710 mt 14595  699 L
gs 11153 698 3443 2013 rc
24 w
43 342 43 -62 43 -63 43 -466 43 466 43 249 43 -466 43 -155 
43 652 43 -466 43 62 43 -31 43 342 43 -404 43 -124 43 217 
43 -435 43 124 43 560 43 -249 43 -124 43 248 43 -559 43 497 
43 -310 43 0 43 0 43 124 43 -124 43 -63 43 249 43 93 
43 187 43 404 43 93 43 0 43 -435 43 466 43 -93 44 -218 
43 0 43 -248 43 528 43 -31 43 -560 43 280 43 31 43 -31 
43 -280 43 529 43 -622 43 -124 43 62 43 -155 43 870 43 -995 
43 218 43 31 43 93 43 0 43 -217 43 248 43 -124 43 0 
43 -31 43 497 43 -31 43 -280 43 -466 43 964 43 -964 43 62 
43 -62 43 529 43 -373 43 217 43 156 43 -125 43 -217 11153 2056 80 MP stroke
6 w
c8
43 539 43 248 43 -83 43 -786 43 1407 43 -662 43 372 43 -496 
43 41 43 -373 43 704 43 -662 43 41 43 0 43 663 43 -456 
43 331 43 -41 43 83 43 83 43 -746 43 911 43 -1159 43 787 
43 -580 43 207 43 -207 43 290 43 207 43 -414 43 -414 43 1449 
43 -704 43 331 43 166 43 -745 43 414 43 82 43 42 44 -290 
43 -455 43 124 43 331 43 -41 43 248 43 -662 43 786 43 -290 
43 704 43 -579 43 -456 43 -331 43 662 43 -289 43 -125 43 580 
43 -455 43 455 43 -207 43 331 43 -41 43 290 43 -994 43 166 
43 289 43 953 43 -1077 43 -290 43 414 43 125 43 -663 43 538 
43 -414 43 414 43 -372 43 248 43 -83 43 42 43 -249 11153 2120 80 MP stroke
gr

c8
0 sg
12000  566 mt 
(Speech / Noisy Speech) s
%%IncludeResource: font Helvetica
/Helvetica /ISOLatin1Encoding 192 FMSR

11126 2779 mt 
( ) s
14569  766 mt 
( ) s
%%IncludeResource: font Helvetica
/Helvetica /ISOLatin1Encoding 168 FMSR

13709  944 mt 
(SCC\(A+,B+\)) s
gs 13096 759 1440 445 rc
24 w
471 0 13190 883 2 MP stroke
gr

24 w
13709 1139 mt 
(SCC\(A+,B-\)) s
gs 13096 759 1440 445 rc
6 w
c8
471 0 13190 1078 2 MP stroke
gr

6 w
c8
1 sg
0 2011 3441 0 0 -2011 2097 5503 4 MP
PP
-3441 0 0 2011 3441 0 0 -2011 2097 5503 5 MP stroke
4 w
DO
SO
6 w
0 sg
2097 5503 mt 5538 5503 L
2097 3492 mt 5538 3492 L
2097 5503 mt 2097 3492 L
5538 5503 mt 5538 3492 L
2097 5503 mt 5538 5503 L
2097 5503 mt 2097 3492 L
2097 5503 mt 2097 5468 L
2097 3492 mt 2097 3526 L
1953 5693 mt 
(-2) s
2957 5503 mt 2957 5468 L
2957 3492 mt 2957 3526 L
2813 5693 mt 
(-1) s
3817 5503 mt 3817 5468 L
3817 3492 mt 3817 3526 L
3771 5693 mt 
(0) s
4677 5503 mt 4677 5468 L
4677 3492 mt 4677 3526 L
4631 5693 mt 
(1) s
5538 5503 mt 5538 5468 L
5538 3492 mt 5538 3526 L
5492 5693 mt 
(2) s
5094 5955 mt 
(x 10) s
%%IncludeResource: font Helvetica
/Helvetica /ISOLatin1Encoding 112 FMSR

5411 5851 mt 
(-3) s
2097 5503 mt 2131 5503 L
5538 5503 mt 5503 5503 L
%%IncludeResource: font Helvetica
/Helvetica /ISOLatin1Encoding 168 FMSR

1731 5565 mt 
(-0.4) s
2097 5100 mt 2131 5100 L
5538 5100 mt 5503 5100 L
1731 5162 mt 
(-0.2) s
2097 4698 mt 2131 4698 L
5538 4698 mt 5503 4698 L
1969 4760 mt 
(0) s
2097 4296 mt 2131 4296 L
5538 4296 mt 5503 4296 L
1829 4358 mt 
(0.2) s
2097 3894 mt 2131 3894 L
5538 3894 mt 5503 3894 L
1829 3956 mt 
(0.4) s
2097 3492 mt 2131 3492 L
5538 3492 mt 5503 3492 L
1829 3554 mt 
(0.6) s
2097 5503 mt 5538 5503 L
2097 3492 mt 5538 3492 L
2097 5503 mt 2097 3492 L
5538 5503 mt 5538 3492 L
gs 2097 3492 3442 2012 rc
24 w
43 -36 43 -127 43 626 43 -445 43 -9 43 127 43 -426 43 372 
43 -390 43 199 43 200 43 -272 43 -37 43 327 43 54 43 -99 
43 -155 43 -181 43 535 43 -435 43 290 43 -318 43 263 43 -81 
43 82 43 108 43 -508 43 345 43 82 43 -55 43 64 43 36 
43 -36 43 208 43 82 43 -499 43 816 43 -390 43 825 43 -507 
43 -227 43 27 43 -272 43 209 43 -64 43 -462 43 308 43 -54 
43 154 43 -145 43 -245 43 -327 43 472 43 182 43 -137 43 9 
43 -27 43 -99 43 -490 43 471 43 282 43 -418 43 -335 43 227 
43 253 43 -235 43 272 43 -37 43 -126 43 -127 43 390 43 -336 
43 444 43 55 43 -318 43 572 43 -590 43 200 43 -55 2097 4608 80 MP stroke
gr

24 w
%%IncludeResource: font Helvetica
/Helvetica /ISOLatin1Encoding 192 FMSR

2070 5572 mt 
( ) s
5512 3560 mt 
( ) s
6 w
%%IncludeResource: font Helvetica
/Helvetica /ISOLatin1Encoding 168 FMSR

4948 3735 mt 
(DIFCOR) s
gs 4329 3553 1150 244 rc
24 w
476 0 4424 3674 2 MP stroke
6 w
gr

1 sg
0 2011 3442 0 0 -2011 6625 5503 4 MP
PP
-3442 0 0 2011 3442 0 0 -2011 6625 5503 5 MP stroke
4 w
DO
SO
6 w
0 sg
6625 5503 mt 10067 5503 L
6625 3492 mt 10067 3492 L
6625 5503 mt 6625 3492 L
10067 5503 mt 10067 3492 L
6625 5503 mt 10067 5503 L
6625 5503 mt 6625 3492 L
6625 5503 mt 6625 5468 L
6625 3492 mt 6625 3526 L
6481 5693 mt 
(-2) s
7485 5503 mt 7485 5468 L
7485 3492 mt 7485 3526 L
7341 5693 mt 
(-1) s
8346 5503 mt 8346 5468 L
8346 3492 mt 8346 3526 L
8300 5693 mt 
(0) s
9206 5503 mt 9206 5468 L
9206 3492 mt 9206 3526 L
9160 5693 mt 
(1) s
10067 5503 mt 10067 5468 L
10067 3492 mt 10067 3526 L
10021 5693 mt 
(2) s
9623 5955 mt 
(x 10) s
%%IncludeResource: font Helvetica
/Helvetica /ISOLatin1Encoding 112 FMSR

9940 5851 mt 
(-3) s
6625 5503 mt 6659 5503 L
10067 5503 mt 10032 5503 L
%%IncludeResource: font Helvetica
/Helvetica /ISOLatin1Encoding 168 FMSR

6259 5565 mt 
(-0.2) s
6625 4928 mt 6659 4928 L
10067 4928 mt 10032 4928 L
6497 4990 mt 
(0) s
6625 4353 mt 6659 4353 L
10067 4353 mt 10032 4353 L
6357 4415 mt 
(0.2) s
6625 3779 mt 6659 3779 L
10067 3779 mt 10032 3779 L
6357 3841 mt 
(0.4) s
6625 5503 mt 10067 5503 L
6625 3492 mt 10067 3492 L
6625 5503 mt 6625 3492 L
10067 5503 mt 10067 3492 L
gs 6625 3492 3443 2012 rc
24 w
43 -302 43 162 43 379 43 -376 43 -473 43 7 43 668 43 -205 
43 -109 43 16 43 12 43 -93 43 -258 43 115 43 236 43 -261 
43 696 43 -323 43 -236 43 80 43 106 43 -168 43 84 43 165 
43 -40 43 152 43 -457 43 155 43 62 43 445 43 -690 43 541 
43 -180 43 -6 43 -526 43 740 43 435 43 -276 43 460 44 -240 
43 -65 43 168 43 -482 43 -724 43 758 43 -336 43 72 43 -572 
43 706 43 -678 43 311 43 -156 43 426 43 -75 43 -239 43 84 
43 87 43 28 43 -90 43 43 43 66 43 137 43 -417 43 152 
43 -158 43 -162 43 103 43 248 43 190 43 -264 43 264 43 252 
43 -404 43 -395 43 426 43 500 43 -426 43 -68 43 239 6625 4654 80 MP stroke
gr

24 w
%%IncludeResource: font Helvetica
/Helvetica /ISOLatin1Encoding 192 FMSR

6598 5572 mt 
( ) s
10041 3560 mt 
( ) s
6 w
%%IncludeResource: font Helvetica
/Helvetica /ISOLatin1Encoding 168 FMSR

9478 3735 mt 
(DIFCOR) s
gs 8859 3553 1150 244 rc
24 w
476 0 8954 3674 2 MP stroke
6 w
gr

1 sg
0 2011 3442 0 0 -2011 11153 5503 4 MP
PP
-3442 0 0 2011 3442 0 0 -2011 11153 5503 5 MP stroke
4 w
DO
SO
6 w
0 sg
11153 5503 mt 14595 5503 L
11153 3492 mt 14595 3492 L
11153 5503 mt 11153 3492 L
14595 5503 mt 14595 3492 L
11153 5503 mt 14595 5503 L
11153 5503 mt 11153 3492 L
11153 5503 mt 11153 5468 L
11153 3492 mt 11153 3526 L
11009 5693 mt 
(-2) s
12013 5503 mt 12013 5468 L
12013 3492 mt 12013 3526 L
11869 5693 mt 
(-1) s
12874 5503 mt 12874 5468 L
12874 3492 mt 12874 3526 L
12828 5693 mt 
(0) s
13734 5503 mt 13734 5468 L
13734 3492 mt 13734 3526 L
13688 5693 mt 
(1) s
14595 5503 mt 14595 5468 L
14595 3492 mt 14595 3526 L
14549 5693 mt 
(2) s
14151 5955 mt 
(x 10) s
%%IncludeResource: font Helvetica
/Helvetica /ISOLatin1Encoding 112 FMSR

14468 5851 mt 
(-3) s
11153 5215 mt 11187 5215 L
14595 5215 mt 14560 5215 L
%%IncludeResource: font Helvetica
/Helvetica /ISOLatin1Encoding 168 FMSR

11025 5277 mt 
(0) s
11153 4497 mt 11187 4497 L
14595 4497 mt 14560 4497 L
10885 4559 mt 
(0.5) s
11153 3779 mt 11187 3779 L
14595 3779 mt 14560 3779 L
11025 3841 mt 
(1) s
11153 5503 mt 14595 5503 L
11153 3492 mt 14595 3492 L
11153 5503 mt 11153 3492 L
14595 5503 mt 14595 3492 L
gs 11153 3492 3443 2012 rc
24 w
43 -18 43 -295 43 506 43 -211 43 -61 43 11 43 -307 43 338 
43 -224 43 132 43 -21 43 127 43 -49 43 0 43 -205 43 56 
43 169 43 -28 43 76 43 -253 43 264 43 -248 43 426 43 -216 
43 126 43 -130 43 -142 43 238 43 -71 43 259 43 6 43 -246 
43 60 43 247 43 95 43 -105 43 363 43 -118 43 553 44 -355 
43 -22 43 66 43 -549 43 302 43 -199 43 -164 43 -80 43 -44 
43 -79 43 -11 43 133 43 -228 43 29 43 150 43 51 43 -126 
43 -22 43 -94 43 -26 43 150 43 -87 43 -33 43 -5 43 17 
43 -33 43 -238 43 308 43 111 43 -259 43 -70 43 379 43 -348 
43 317 43 52 43 -198 43 346 43 -465 43 223 43 -55 11153 5145 80 MP stroke
gr

24 w
%%IncludeResource: font Helvetica
/Helvetica /ISOLatin1Encoding 192 FMSR

11126 5572 mt 
( ) s
14569 3560 mt 
( ) s
6 w
%%IncludeResource: font Helvetica
/Helvetica /ISOLatin1Encoding 168 FMSR

14005 3735 mt 
(DIFCOR) s
gs 13386 3553 1150 244 rc
24 w
476 0 13481 3674 2 MP stroke
6 w
gr

1 sg
0 2012 3441 0 0 -2012 2097 8297 4 MP
PP
-3441 0 0 2012 3441 0 0 -2012 2097 8297 5 MP stroke
4 w
DO
SO
6 w
0 sg
2097 8297 mt 5538 8297 L
2097 6285 mt 5538 6285 L
2097 8297 mt 2097 6285 L
5538 8297 mt 5538 6285 L
2097 8297 mt 5538 8297 L
2097 8297 mt 2097 6285 L
2097 8297 mt 2097 8262 L
2097 6285 mt 2097 6319 L
1953 8487 mt 
(-2) s
2957 8297 mt 2957 8262 L
2957 6285 mt 2957 6319 L
2813 8487 mt 
(-1) s
3817 8297 mt 3817 8262 L
3817 6285 mt 3817 6319 L
3771 8487 mt 
(0) s
4677 8297 mt 4677 8262 L
4677 6285 mt 4677 6319 L
4631 8487 mt 
(1) s
5538 8297 mt 5538 8262 L
5538 6285 mt 5538 6319 L
5492 8487 mt 
(2) s
5094 8749 mt 
(x 10) s
%%IncludeResource: font Helvetica
/Helvetica /ISOLatin1Encoding 112 FMSR

5411 8645 mt 
(-3) s
2097 8297 mt 2131 8297 L
5538 8297 mt 5503 8297 L
%%IncludeResource: font Helvetica
/Helvetica /ISOLatin1Encoding 168 FMSR

1829 8359 mt 
(0.2) s
2097 7794 mt 2131 7794 L
5538 7794 mt 5503 7794 L
1829 7856 mt 
(0.4) s
2097 7291 mt 2131 7291 L
5538 7291 mt 5503 7291 L
1829 7353 mt 
(0.6) s
2097 6788 mt 2131 6788 L
5538 6788 mt 5503 6788 L
1829 6850 mt 
(0.8) s
2097 6285 mt 2131 6285 L
5538 6285 mt 5503 6285 L
1969 6347 mt 
(1) s
2097 8297 mt 5538 8297 L
2097 6285 mt 5538 6285 L
2097 8297 mt 2097 6285 L
5538 8297 mt 5538 6285 L
gs 2097 6285 3442 2013 rc
24 w
43 227 43 -329 43 459 43 -436 43 516 43 -352 43 -107 43 141 
43 -130 43 -57 43 148 43 102 43 -46 43 -204 43 -102 43 -40 
43 539 43 46 43 -165 43 -136 43 -45 43 164 43 74 43 17 
43 -85 43 -204 43 -23 43 329 43 -85 43 306 43 -210 43 182 
43 -182 43 448 43 187 43 -198 43 306 43 74 43 470 43 -431 
43 -96 43 153 43 -646 43 380 43 -199 43 -289 43 11 43 -170 
43 74 43 -182 43 188 43 -341 43 46 43 22 43 119 43 29 
43 -221 43 96 43 170 43 114 43 -346 43 329 43 -233 43 -40 
43 -90 43 147 43 -102 43 91 43 -193 43 11 43 131 43 -165 
43 97 43 238 43 -312 43 357 43 -482 43 284 43 -170 2097 7971 80 MP stroke
gr

24 w
%%IncludeResource: font Helvetica
/Helvetica /ISOLatin1Encoding 192 FMSR

2070 8366 mt 
( ) s
5512 6353 mt 
( ) s
6 w
%%IncludeResource: font Helvetica
/Helvetica /ISOLatin1Encoding 168 FMSR

4901 6528 mt 
(SUMCOR) s
gs 4226 6346 1253 244 rc
24 w
519 0 4329 6467 2 MP stroke
6 w
gr

1 sg
0 2012 3442 0 0 -2012 6625 8297 4 MP
PP
-3442 0 0 2012 3442 0 0 -2012 6625 8297 5 MP stroke
4 w
DO
SO
6 w
0 sg
6625 8297 mt 10067 8297 L
6625 6285 mt 10067 6285 L
6625 8297 mt 6625 6285 L
10067 8297 mt 10067 6285 L
6625 8297 mt 10067 8297 L
6625 8297 mt 6625 6285 L
6625 8297 mt 6625 8262 L
6625 6285 mt 6625 6319 L
6481 8487 mt 
(-2) s
7485 8297 mt 7485 8262 L
7485 6285 mt 7485 6319 L
7341 8487 mt 
(-1) s
8346 8297 mt 8346 8262 L
8346 6285 mt 8346 6319 L
8300 8487 mt 
(0) s
9206 8297 mt 9206 8262 L
9206 6285 mt 9206 6319 L
9160 8487 mt 
(1) s
10067 8297 mt 10067 8262 L
10067 6285 mt 10067 6319 L
10021 8487 mt 
(2) s
9623 8749 mt 
(x 10) s
%%IncludeResource: font Helvetica
/Helvetica /ISOLatin1Encoding 112 FMSR

9940 8645 mt 
(-3) s
6625 8297 mt 6659 8297 L
10067 8297 mt 10032 8297 L
%%IncludeResource: font Helvetica
/Helvetica /ISOLatin1Encoding 168 FMSR

6357 8359 mt 
(0.2) s
6625 7894 mt 6659 7894 L
10067 7894 mt 10032 7894 L
6357 7956 mt 
(0.3) s
6625 7492 mt 6659 7492 L
10067 7492 mt 10032 7492 L
6357 7554 mt 
(0.4) s
6625 7089 mt 6659 7089 L
10067 7089 mt 10032 7089 L
6357 7151 mt 
(0.5) s
6625 6687 mt 6659 6687 L
10067 6687 mt 10032 6687 L
6357 6749 mt 
(0.6) s
6625 6285 mt 6659 6285 L
10067 6285 mt 10032 6285 L
6357 6347 mt 
(0.7) s
6625 8297 mt 10067 8297 L
6625 6285 mt 10067 6285 L
6625 8297 mt 6625 6285 L
10067 8297 mt 10067 6285 L
gs 6625 6285 3443 2013 rc
24 w
43 28 43 70 43 222 43 -590 43 -5 43 179 43 141 43 -252 
43 381 43 -316 43 52 43 -87 43 59 43 -202 43 78 43 -31 
43 184 43 -140 43 226 43 -117 43 -13 43 56 43 -333 43 464 
43 -246 43 107 43 -320 43 196 43 -44 43 268 43 -309 43 444 
43 4 43 279 43 -303 43 519 43 0 43 132 43 257 44 -320 
43 -45 43 -57 43 33 43 -530 43 140 43 -39 43 71 43 -422 
43 298 43 -104 43 -218 43 -196 43 342 43 -161 43 442 43 -638 
43 213 43 42 43 2 43 30 43 -106 43 270 43 -379 43 106 
43 -132 43 235 43 50 43 -22 43 -194 43 490 43 -490 43 220 
43 -326 43 93 43 37 43 503 43 -189 43 -135 43 15 6625 7647 80 MP stroke
gr

24 w
7951 8665 mt 
(Delay [ms]) s
%%IncludeResource: font Helvetica
/Helvetica /ISOLatin1Encoding 192 FMSR

6598 8366 mt 
( ) s
10041 6353 mt 
( ) s
6 w
%%IncludeResource: font Helvetica
/Helvetica /ISOLatin1Encoding 168 FMSR

9430 6528 mt 
(SUMCOR) s
gs 8755 6346 1253 244 rc
24 w
519 0 8858 6467 2 MP stroke
6 w
gr

1 sg
0 2012 3442 0 0 -2012 11153 8297 4 MP
PP
-3442 0 0 2012 3442 0 0 -2012 11153 8297 5 MP stroke
4 w
DO
SO
6 w
0 sg
11153 8297 mt 14595 8297 L
11153 6285 mt 14595 6285 L
11153 8297 mt 11153 6285 L
14595 8297 mt 14595 6285 L
11153 8297 mt 14595 8297 L
11153 8297 mt 11153 6285 L
11153 8297 mt 11153 8262 L
11153 6285 mt 11153 6319 L
11009 8487 mt 
(-2) s
12013 8297 mt 12013 8262 L
12013 6285 mt 12013 6319 L
11869 8487 mt 
(-1) s
12874 8297 mt 12874 8262 L
12874 6285 mt 12874 6319 L
12828 8487 mt 
(0) s
13734 8297 mt 13734 8262 L
13734 6285 mt 13734 6319 L
13688 8487 mt 
(1) s
14595 8297 mt 14595 8262 L
14595 6285 mt 14595 6319 L
14549 8487 mt 
(2) s
14151 8749 mt 
(x 10) s
%%IncludeResource: font Helvetica
/Helvetica /ISOLatin1Encoding 112 FMSR

14468 8645 mt 
(-3) s
11153 8297 mt 11187 8297 L
14595 8297 mt 14560 8297 L
%%IncludeResource: font Helvetica
/Helvetica /ISOLatin1Encoding 168 FMSR

10885 8359 mt 
(0.2) s
11153 7794 mt 11187 7794 L
14595 7794 mt 14560 7794 L
10885 7856 mt 
(0.4) s
11153 7291 mt 11187 7291 L
14595 7291 mt 14560 7291 L
10885 7353 mt 
(0.6) s
11153 6788 mt 11187 6788 L
14595 6788 mt 14560 6788 L
10885 6850 mt 
(0.8) s
11153 6285 mt 11187 6285 L
14595 6285 mt 14560 6285 L
11025 6347 mt 
(1) s
11153 8297 mt 14595 8297 L
11153 6285 mt 14595 6285 L
11153 8297 mt 11153 6285 L
14595 8297 mt 14595 6285 L
gs 11153 6285 3443 2013 rc
24 w
43 220 43 -150 43 407 43 -529 43 563 43 -281 43 -105 43 78 
43 -178 43 -48 43 290 43 -179 43 -24 43 0 43 110 43 -150 
43 293 43 -43 43 104 43 -186 43 -96 43 183 43 -135 43 155 
43 -144 43 -22 43 -216 43 336 43 28 43 46 43 -176 43 419 
43 -256 43 362 43 155 43 -418 43 499 43 -67 43 502 44 -438 
43 -218 43 112 43 -336 43 246 43 -64 43 -435 43 275 43 -166 
43 239 43 -263 43 -82 43 -345 43 315 43 5 43 -11 43 144 
43 -218 43 116 43 -113 43 277 43 -95 43 98 43 -439 43 88 
43 97 43 208 43 -201 43 -30 43 -45 43 -7 43 42 43 -69 
43 96 43 227 43 -337 43 412 43 -443 43 213 43 -157 11153 7977 80 MP stroke
gr

24 w
%%IncludeResource: font Helvetica
/Helvetica /ISOLatin1Encoding 192 FMSR

11126 8366 mt 
( ) s
14569 6353 mt 
( ) s
6 w
%%IncludeResource: font Helvetica
/Helvetica /ISOLatin1Encoding 168 FMSR

13959 6528 mt 
(SUMCOR) s
gs 13284 6346 1253 244 rc
24 w
519 0 13387 6467 2 MP stroke
6 w
gr


end %%Color Dict

eplot
%%EndObject

epage
end

showpage

%%Trailer
%%EOF
