%!PS-Adobe-3.0 EPSF-3.0
%%Creator: MATLAB, The MathWorks, Inc. Version 8.3.0.532 (R2014a). Operating System: Linux 3.13.0-57-generic #95-Ubuntu SMP Fri Jun 19 09:28:15 UTC 2015 x86_64.
%%Title: ./CF539SNR0.eps
%%CreationDate: 10/09/2015  12:59:19
%%DocumentNeededFonts: Helvetica
%%DocumentProcessColors: Cyan Magenta Yellow Black
%%LanguageLevel: 2
%%Pages: 1
%%BoundingBox:    76   199   546   608
%%EndComments

%%BeginProlog
% MathWorks dictionary
/MathWorks 160 dict begin
% definition operators
/bdef {bind def} bind def
/ldef {load def} bind def
/xdef {exch def} bdef
/xstore {exch store} bdef
% operator abbreviations
/c  /clip ldef
/cc /concat ldef
/cp /closepath ldef
/gr /grestore ldef
/gs /gsave ldef
/mt /moveto ldef
/np /newpath ldef
/cm /currentmatrix ldef
/sm /setmatrix ldef
/rm /rmoveto ldef
/rl /rlineto ldef
/s {show newpath} bdef
/sc {setcmykcolor} bdef
/sr /setrgbcolor ldef
/sg /setgray ldef
/w /setlinewidth ldef
/j /setlinejoin ldef
/cap /setlinecap ldef
/rc {rectclip} bdef
/rf {rectfill} bdef
% page state control
/pgsv () def
/bpage {/pgsv save def} bdef
/epage {pgsv restore} bdef
/bplot /gsave ldef
/eplot {stroke grestore} bdef
% orientation switch
/portraitMode 0 def /landscapeMode 1 def /rotateMode 2 def
% coordinate system mappings
/dpi2point 0 def
% font control
/FontSize 0 def
/FMS {/FontSize xstore findfont [FontSize 0 0 FontSize neg 0 0]
  makefont setfont} bdef
/reencode {exch dup where {pop load} {pop StandardEncoding} ifelse
  exch dup 3 1 roll findfont dup length dict begin
  { 1 index /FID ne {def}{pop pop} ifelse } forall
  /Encoding exch def currentdict end definefont pop} bdef
/isroman {findfont /CharStrings get /Agrave known} bdef
/FMSR {3 1 roll 1 index dup isroman {reencode} {pop pop} ifelse
  exch FMS} bdef
/csm {1 dpi2point div -1 dpi2point div scale neg translate
 dup landscapeMode eq {pop -90 rotate}
  {rotateMode eq {90 rotate} if} ifelse} bdef
% line types: solid, dotted, dashed, dotdash
/SO { [] 0 setdash } bdef
/DO { [.5 dpi2point mul 4 dpi2point mul] 0 setdash } bdef
/DA { [6 dpi2point mul] 0 setdash } bdef
/DD { [.5 dpi2point mul 4 dpi2point mul 6 dpi2point mul 4
  dpi2point mul] 0 setdash } bdef
% macros for lines and objects
/L {lineto stroke} bdef
/MP {3 1 roll moveto 1 sub {rlineto} repeat} bdef
/AP {{rlineto} repeat} bdef
/PDlw -1 def
/W {/PDlw currentlinewidth def setlinewidth} def
/PP {closepath eofill} bdef
/DP {closepath stroke} bdef
/MR {4 -2 roll moveto dup  0 exch rlineto exch 0 rlineto
  neg 0 exch rlineto closepath} bdef
/FR {MR stroke} bdef
/PR {MR fill} bdef
/L1i {{currentfile picstr readhexstring pop} image} bdef
/tMatrix matrix def
/MakeOval {newpath tMatrix currentmatrix pop translate scale
0 0 1 0 360 arc tMatrix setmatrix} bdef
/FO {MakeOval stroke} bdef
/PO {MakeOval fill} bdef
/PD {currentlinewidth 2 div 0 360 arc fill
   PDlw -1 eq not {PDlw w /PDlw -1 def} if} def
/FA {newpath tMatrix currentmatrix pop translate scale
  0 0 1 5 -2 roll arc tMatrix setmatrix stroke} bdef
/PA {newpath tMatrix currentmatrix pop	translate 0 0 moveto scale
  0 0 1 5 -2 roll arc closepath tMatrix setmatrix fill} bdef
/FAn {newpath tMatrix currentmatrix pop translate scale
  0 0 1 5 -2 roll arcn tMatrix setmatrix stroke} bdef
/PAn {newpath tMatrix currentmatrix pop translate 0 0 moveto scale
  0 0 1 5 -2 roll arcn closepath tMatrix setmatrix fill} bdef
/vradius 0 def /hradius 0 def /lry 0 def
/lrx 0 def /uly 0 def /ulx 0 def /rad 0 def
/MRR {/vradius xdef /hradius xdef /lry xdef /lrx xdef /uly xdef
  /ulx xdef newpath tMatrix currentmatrix pop ulx hradius add uly
  vradius add translate hradius vradius scale 0 0 1 180 270 arc 
  tMatrix setmatrix lrx hradius sub uly vradius add translate
  hradius vradius scale 0 0 1 270 360 arc tMatrix setmatrix
  lrx hradius sub lry vradius sub translate hradius vradius scale
  0 0 1 0 90 arc tMatrix setmatrix ulx hradius add lry vradius sub
  translate hradius vradius scale 0 0 1 90 180 arc tMatrix setmatrix
  closepath} bdef
/FRR {MRR stroke } bdef
/PRR {MRR fill } bdef
/MlrRR {/lry xdef /lrx xdef /uly xdef /ulx xdef /rad lry uly sub 2 div def
  newpath tMatrix currentmatrix pop ulx rad add uly rad add translate
  rad rad scale 0 0 1 90 270 arc tMatrix setmatrix lrx rad sub lry rad
  sub translate rad rad scale 0 0 1 270 90 arc tMatrix setmatrix
  closepath} bdef
/FlrRR {MlrRR stroke } bdef
/PlrRR {MlrRR fill } bdef
/MtbRR {/lry xdef /lrx xdef /uly xdef /ulx xdef /rad lrx ulx sub 2 div def
  newpath tMatrix currentmatrix pop ulx rad add uly rad add translate
  rad rad scale 0 0 1 180 360 arc tMatrix setmatrix lrx rad sub lry rad
  sub translate rad rad scale 0 0 1 0 180 arc tMatrix setmatrix
  closepath} bdef
/FtbRR {MtbRR stroke } bdef
/PtbRR {MtbRR fill } bdef
/stri 6 array def /dtri 6 array def
/smat 6 array def /dmat 6 array def
/tmat1 6 array def /tmat2 6 array def /dif 3 array def
/asub {/ind2 exch def /ind1 exch def dup dup
  ind1 get exch ind2 get sub exch } bdef
/tri_to_matrix {
  2 0 asub 3 1 asub 4 0 asub 5 1 asub
  dup 0 get exch 1 get 7 -1 roll astore } bdef
/compute_transform {
  dmat dtri tri_to_matrix tmat1 invertmatrix 
  smat stri tri_to_matrix tmat2 concatmatrix } bdef
/ds {stri astore pop} bdef
/dt {dtri astore pop} bdef
/db {2 copy /cols xdef /rows xdef mul dup 3 mul string
  currentfile 
  3 index 0 eq {/ASCIIHexDecode filter}
  {/ASCII85Decode filter 3 index 2 eq {/RunLengthDecode filter} if }
  ifelse exch readstring pop
  dup 0 3 index getinterval /rbmap xdef
  dup 2 index dup getinterval /gbmap xdef
  1 index dup 2 mul exch getinterval /bbmap xdef pop pop}bdef
/it {gs np dtri aload pop moveto lineto lineto cp c
  cols rows 8 compute_transform 
  rbmap gbmap bbmap true 3 colorimage gr}bdef
/il {newpath moveto lineto stroke}bdef
currentdict end def
%%EndProlog

%%BeginSetup
MathWorks begin

0 cap

end
%%EndSetup

%%Page: 1 1
%%BeginPageSetup
%%PageBoundingBox:    76   199   546   608
MathWorks begin
bpage
%%EndPageSetup

%%BeginObject: obj1
bplot

/dpi2point 12 def
portraitMode 0216 7344 csm

  698    37  5647  4918 rc
85 dict begin %Colortable dictionary
/c0 { 0.000000 0.000000 0.000000 sr} bdef
/c1 { 1.000000 1.000000 1.000000 sr} bdef
/c2 { 0.900000 0.000000 0.000000 sr} bdef
/c3 { 0.000000 0.820000 0.000000 sr} bdef
/c4 { 0.000000 0.000000 0.800000 sr} bdef
/c5 { 0.910000 0.820000 0.320000 sr} bdef
/c6 { 1.000000 0.260000 0.820000 sr} bdef
/c7 { 0.000000 0.820000 0.820000 sr} bdef
c0
1 j
1 sg
   0    0 6913 5186 rf
6 w
0 sg
%%IncludeResource: font Helvetica
/Helvetica /ISOLatin1Encoding 120 FMSR

2368  221 mt 
(Neural Correlations at 0dB SNR, CF = 539Hz) s
1 sg
0 1118 1475 0 0 -1118 899 1507 4 MP
PP
-1475 0 0 1118 1475 0 0 -1118 899 1507 5 MP stroke
4 w
DO
SO
6 w
0 sg
 899 1507 mt 2374 1507 L
 899  389 mt 2374  389 L
 899 1507 mt  899  389 L
2374 1507 mt 2374  389 L
 899 1507 mt 2374 1507 L
 899 1507 mt  899  389 L
 899 1507 mt  899 1492 L
 899  389 mt  899  403 L
 796 1652 mt 
(-2) s
1636 1507 mt 1636 1492 L
1636  389 mt 1636  403 L
1603 1652 mt 
(0) s
2374 1507 mt 2374 1492 L
2374  389 mt 2374  403 L
2341 1652 mt 
(2) s
 899 1507 mt  913 1507 L
2374 1507 mt 2359 1507 L
 798 1551 mt 
(0) s
 899 1134 mt  913 1134 L
2374 1134 mt 2359 1134 L
 798 1178 mt 
(1) s
 899  761 mt  913  761 L
2374  761 mt 2359  761 L
 798  805 mt 
(2) s
 899  389 mt  913  389 L
2374  389 mt 2359  389 L
 798  433 mt 
(3) s
 899 1507 mt 2374 1507 L
 899  389 mt 2374  389 L
 899 1507 mt  899  389 L
2374 1507 mt 2374  389 L
gs 899 389 1476 1119 rc
24 w
18 1 19 0 18 1 19 1 18 2 19 1 18 3 18 1 
19 5 18 -1 19 5 18 2 19 9 18 0 18 7 19 3 
18 15 19 0 18 19 19 9 18 1 19 18 18 2 18 33 
19 -1 18 28 19 13 18 51 19 13 18 59 18 15 19 99 
18 -5 19 106 18 -3 19 140 18 -40 19 96 18 97 18 -146 
19 49 18 -96 19 40 18 -140 19 3 18 -106 18 5 19 -99 
18 -15 19 -59 18 -13 19 -51 18 -13 19 -28 18 1 18 -33 
19 -2 18 -18 19 -1 18 -9 19 -19 18 0 18 -15 19 -3 
18 -7 19 0 18 -9 19 -2 18 -5 19 1 18 -5 18 -1 
19 -3 18 -1 19 -2 18 -1 19 -1 18 0 18 -1 899 1502 80 MP stroke
6 w
/c8 { 1.000000 0.000000 0.000000 sr} bdef
c8
18 47 19 -77 18 16 19 -55 18 17 19 -79 18 3 18 -55 
19 14 18 -63 19 0 18 -36 19 3 18 -37 18 -4 19 -21 
18 0 19 -21 18 3 19 -11 18 -13 19 1 18 -10 18 0 
19 -8 18 -3 19 -3 18 -2 19 -4 18 -2 18 -1 19 -2 
18 -1 19 -1 18 0 19 -1 18 0 19 0 18 0 18 0 
19 0 18 -1 19 1 18 0 19 0 18 0 18 1 19 1 
18 2 19 4 18 4 19 3 18 7 19 2 18 14 18 1 
19 14 18 2 19 21 18 14 19 -2 18 28 18 -1 19 26 
18 11 19 32 18 4 19 29 18 4 19 66 18 -32 18 40 
19 -12 18 53 19 -18 18 20 19 -18 18 42 18 -44 899 1186 80 MP stroke
gr

c8
0 sg
1433  294 mt 
(Speech) s
 882 1550 mt 
( ) s
2358  431 mt 
( ) s
gs 899 389 1476 1119 rc
24 w
18 38 19 -41 18 8 19 -28 18 11 19 -55 18 -11 18 -40 
19 -3 18 -54 19 -18 18 -24 19 -15 18 -21 18 -10 19 -11 
18 -5 19 -6 18 0 19 -3 18 -1 19 1 18 2 18 4 
19 4 18 10 19 10 18 25 19 22 18 34 18 30 19 71 
18 17 19 84 18 14 19 102 18 -5 19 65 18 82 18 -103 
19 21 18 -65 19 5 18 -102 19 -14 18 -84 18 -17 19 -71 
18 -30 19 -34 18 -22 19 -25 18 -10 19 -10 18 -4 18 -4 
19 -2 18 -1 19 1 18 3 19 0 18 6 18 5 19 11 
18 10 19 21 18 15 19 24 18 18 19 54 18 3 18 40 
19 12 18 54 19 -11 18 28 19 -8 18 41 18 -38 899 1213 80 MP stroke
6 w
c8
18 2 19 -6 18 4 19 -1 18 13 19 -1 18 19 18 7 
19 36 18 5 19 41 18 13 19 66 18 14 18 57 19 8 
18 80 19 -22 18 76 19 -2 18 -52 19 10 18 -58 18 8 
19 -82 18 -30 19 -50 18 -25 19 -50 18 -32 18 -30 19 -16 
18 -18 19 -9 18 -7 19 -3 18 -2 19 0 18 0 18 0 
19 0 18 1 19 2 18 3 19 8 18 9 18 22 19 15 
18 33 19 30 18 50 19 27 18 58 19 20 18 96 18 -21 
19 63 18 -18 19 56 18 0 19 -74 18 27 18 -86 19 -3 
18 -59 19 -13 18 -65 19 -14 18 -45 19 -8 18 -41 18 -7 
19 -22 18 -4 19 -13 18 -1 19 -5 18 3 18 -2 899 1483 80 MP stroke
gr

c8
1 sg
0 1118 1475 0 0 -1118 2839 1507 4 MP
PP
-1475 0 0 1118 1475 0 0 -1118 2839 1507 5 MP stroke
4 w
DO
SO
6 w
0 sg
2839 1507 mt 4314 1507 L
2839  389 mt 4314  389 L
2839 1507 mt 2839  389 L
4314 1507 mt 4314  389 L
2839 1507 mt 4314 1507 L
2839 1507 mt 2839  389 L
2839 1507 mt 2839 1492 L
2839  389 mt 2839  403 L
2736 1652 mt 
(-2) s
3576 1507 mt 3576 1492 L
3576  389 mt 3576  403 L
3543 1652 mt 
(0) s
4314 1507 mt 4314 1492 L
4314  389 mt 4314  403 L
4281 1652 mt 
(2) s
2839 1507 mt 2853 1507 L
4314 1507 mt 4299 1507 L
2738 1551 mt 
(0) s
2839 1134 mt 2853 1134 L
4314 1134 mt 4299 1134 L
2738 1178 mt 
(1) s
2839  761 mt 2853  761 L
4314  761 mt 4299  761 L
2738  805 mt 
(2) s
2839  389 mt 2853  389 L
4314  389 mt 4299  389 L
2738  433 mt 
(3) s
2839 1507 mt 4314 1507 L
2839  389 mt 4314  389 L
2839 1507 mt 2839  389 L
4314 1507 mt 4314  389 L
gs 2839 389 1476 1119 rc
24 w
18 2 19 -2 18 3 19 -1 18 4 19 -2 18 2 18 2 
19 6 18 -2 19 5 18 2 19 6 18 0 18 6 19 3 
18 12 19 0 18 18 19 8 18 1 19 14 18 4 18 29 
19 1 18 27 19 10 18 44 19 12 18 41 18 24 19 82 
18 6 19 93 18 -1 19 127 18 -32 19 80 18 102 18 -134 
19 32 18 -80 19 32 18 -127 19 1 18 -93 18 -6 19 -82 
18 -24 19 -41 18 -12 19 -44 18 -10 19 -27 18 -1 18 -29 
19 -4 18 -14 19 -1 18 -8 19 -18 18 0 18 -12 19 -3 
18 -6 19 0 18 -6 19 -2 18 -5 19 2 18 -6 18 -2 
19 -2 18 2 19 -4 18 1 19 -3 18 2 18 -2 2839 1493 80 MP stroke
6 w
c8
18 25 19 -55 18 6 19 -32 18 10 19 -46 18 2 18 -36 
19 15 18 -40 19 2 18 -24 19 3 18 -24 18 1 19 -21 
18 2 19 -20 18 7 19 -12 18 -15 19 -2 18 -10 18 -1 
19 -10 18 -2 19 -5 18 -2 19 -5 18 -3 18 -2 19 -1 
18 -1 19 -1 18 -1 19 0 18 0 19 0 18 0 18 0 
19 0 18 0 19 0 18 0 19 1 18 0 18 1 19 1 
18 3 19 2 18 3 19 3 18 6 19 3 18 12 18 2 
19 11 18 5 19 13 18 12 19 -2 18 23 18 -1 19 17 
18 3 19 26 18 -8 19 25 18 -2 19 41 18 -15 18 29 
19 -1 18 44 19 -10 18 26 19 -7 18 48 18 -23 2839 1215 80 MP stroke
gr

c8
0 sg
3206  294 mt 
(Noisy Speech) s
2822 1550 mt 
( ) s
4298  431 mt 
( ) s
gs 2839 389 1476 1119 rc
24 w
18 49 19 -14 18 25 19 -10 18 25 19 -43 18 4 18 -40 
19 9 18 -62 19 -20 18 -34 19 -15 18 -35 18 -15 19 -17 
18 -10 19 -11 18 -3 19 -4 18 -2 19 0 18 -1 18 2 
19 2 18 6 19 7 18 19 19 17 18 30 18 24 19 60 
18 23 19 75 18 27 19 95 18 3 19 64 18 77 18 -96 
19 19 18 -64 19 -3 18 -95 19 -27 18 -75 18 -23 19 -60 
18 -24 19 -30 18 -17 19 -19 18 -7 19 -6 18 -2 18 -2 
19 1 18 0 19 2 18 4 19 3 18 11 18 10 19 17 
18 15 19 35 18 15 19 34 18 20 19 62 18 -9 18 40 
19 -4 18 43 19 -25 18 10 19 -25 18 14 18 -49 2839 1281 80 MP stroke
6 w
c8
18 -2 19 -11 18 -1 19 -2 18 0 19 -1 18 6 18 2 
19 18 18 4 19 23 18 13 19 41 18 16 18 47 19 22 
18 75 19 -5 18 84 19 24 18 -39 19 34 18 -45 18 28 
19 -83 18 -13 19 -59 18 -23 19 -52 18 -36 18 -35 19 -19 
18 -25 19 -12 18 -9 19 -4 18 -2 19 0 18 0 18 0 
19 0 18 0 19 3 18 4 19 10 18 12 18 25 19 18 
18 40 19 29 18 61 19 19 18 56 19 15 18 80 18 -28 
19 38 18 -33 19 33 18 -24 19 -79 18 0 18 -72 19 -16 
18 -44 19 -16 18 -39 19 -13 18 -23 19 -3 18 -18 18 -1 
19 -8 18 2 19 -4 18 3 19 2 18 10 18 3 2839 1464 80 MP stroke
gr

c8
1 sg
0 1118 1475 0 0 -1118 4780 1507 4 MP
PP
-1475 0 0 1118 1475 0 0 -1118 4780 1507 5 MP stroke
4 w
DO
SO
6 w
0 sg
4780 1507 mt 6255 1507 L
4780  389 mt 6255  389 L
4780 1507 mt 4780  389 L
6255 1507 mt 6255  389 L
4780 1507 mt 6255 1507 L
4780 1507 mt 4780  389 L
4780 1507 mt 4780 1492 L
4780  389 mt 4780  403 L
4677 1652 mt 
(-2) s
5517 1507 mt 5517 1492 L
5517  389 mt 5517  403 L
5484 1652 mt 
(0) s
6255 1507 mt 6255 1492 L
6255  389 mt 6255  403 L
6222 1652 mt 
(2) s
4780 1507 mt 4794 1507 L
6255 1507 mt 6240 1507 L
4679 1551 mt 
(0) s
4780 1134 mt 4794 1134 L
6255 1134 mt 6240 1134 L
4579 1178 mt 
(0.5) s
4780  761 mt 4794  761 L
6255  761 mt 6240  761 L
4679  805 mt 
(1) s
4780  389 mt 4794  389 L
6255  389 mt 6240  389 L
4579  433 mt 
(1.5) s
4780 1507 mt 6255 1507 L
4780  389 mt 6255  389 L
4780 1507 mt 4780  389 L
6255 1507 mt 6255  389 L
gs 4780 389 1476 1119 rc
24 w
18 51 19 -110 18 12 19 -65 18 21 19 -92 18 4 18 -73 
19 30 18 -79 19 4 18 -49 19 7 18 -48 18 1 19 -42 
18 4 19 -39 18 14 19 -24 18 -30 19 -4 18 -21 18 -1 
19 -20 18 -4 19 -11 18 -3 19 -10 18 -7 18 -4 19 -1 
18 -3 19 -1 18 -2 19 0 18 0 19 -1 18 1 18 -1 
19 0 18 1 19 0 18 0 19 1 18 1 18 2 19 2 
18 5 19 4 18 7 19 6 18 12 19 5 18 25 18 4 
19 21 18 11 19 25 18 25 19 -5 18 46 18 -2 19 35 
18 5 19 53 18 -16 19 50 18 -5 19 83 18 -30 18 58 
19 -3 18 89 19 -21 18 53 19 -14 18 96 18 -46 4780 923 80 MP stroke
6 w
c8
18 73 19 -77 18 41 19 -59 18 46 19 -87 18 30 18 -75 
19 57 18 -92 19 6 18 -53 19 24 18 -63 18 6 19 -43 
18 16 19 -44 18 10 19 -11 18 -39 19 6 18 -27 18 17 
19 -30 18 -3 19 -13 18 6 19 -22 18 -2 18 -14 19 7 
18 -15 19 3 18 -7 19 7 18 -7 19 5 18 10 18 -18 
19 10 18 -3 19 12 18 -9 19 10 18 -3 18 18 19 -8 
18 14 19 4 18 19 19 -3 18 21 19 -3 18 43 18 -14 
19 31 18 2 19 37 18 32 19 -23 18 58 18 -23 19 47 
18 -2 19 48 18 -25 19 37 18 -15 19 92 18 -66 18 46 
19 -26 18 65 19 -33 18 32 19 -45 18 60 18 -70 4780 1072 80 MP stroke
gr

c8
0 sg
4893  294 mt 
(Speech / Noisy Speech) s
4763 1550 mt 
( ) s
6239  431 mt 
( ) s
gs 4780 389 1476 1119 rc
24 w
18 -5 19 -22 18 -2 19 -4 18 1 19 -3 18 13 18 3 
19 36 18 9 19 45 18 26 19 82 18 32 18 95 19 43 
18 150 19 -10 18 168 19 48 18 -78 19 68 18 -89 18 55 
19 -166 18 -26 19 -117 18 -46 19 -105 18 -72 18 -70 19 -38 
18 -49 19 -24 18 -18 19 -8 18 -4 19 -1 18 0 18 0 
19 0 18 1 19 6 18 7 19 21 18 23 18 51 19 35 
18 80 19 59 18 121 19 38 18 113 19 29 18 161 18 -56 
19 75 18 -65 19 65 18 -48 19 -157 18 0 18 -144 19 -32 
18 -88 19 -33 18 -78 19 -26 18 -45 19 -6 18 -36 18 -2 
19 -17 18 4 19 -8 18 6 19 4 18 20 18 6 4780 1422 80 MP stroke
6 w
c8
18 14 19 -15 18 18 19 -11 18 34 19 -16 18 40 18 -10 
19 62 18 -16 19 52 18 9 19 79 18 3 18 65 19 -6 
18 108 19 -48 18 99 19 4 18 -86 19 35 18 -68 18 42 
19 -119 18 -12 19 -59 18 -23 19 -65 18 -35 18 -40 19 -12 
18 -39 19 -2 18 -22 19 1 18 -18 19 6 18 4 18 -10 
19 3 18 0 19 16 18 0 19 23 18 7 18 45 19 6 
18 52 19 35 18 74 19 9 18 64 19 14 18 112 18 -45 
19 66 18 -37 19 74 18 3 19 -106 18 48 18 -105 19 2 
18 -67 19 5 18 -84 19 1 18 -60 19 16 18 -62 18 0 
19 -35 18 5 19 -24 18 3 19 -16 18 17 18 -15 4780 1388 80 MP stroke
gr

c8
1 sg
0 1119 1475 0 0 -1119 899 3061 4 MP
PP
-1475 0 0 1119 1475 0 0 -1119 899 3061 5 MP stroke
4 w
DO
SO
6 w
0 sg
 899 3061 mt 2374 3061 L
 899 1942 mt 2374 1942 L
 899 3061 mt  899 1942 L
2374 3061 mt 2374 1942 L
 899 3061 mt 2374 3061 L
 899 3061 mt  899 1942 L
 899 3061 mt  899 3046 L
 899 1942 mt  899 1956 L
 796 3206 mt 
(-2) s
1636 3061 mt 1636 3046 L
1636 1942 mt 1636 1956 L
1603 3206 mt 
(0) s
2374 3061 mt 2374 3046 L
2374 1942 mt 2374 1956 L
2341 3206 mt 
(2) s
 899 3061 mt  913 3061 L
2374 3061 mt 2359 3061 L
 728 3105 mt 
(-2) s
 899 2781 mt  913 2781 L
2374 2781 mt 2359 2781 L
 728 2825 mt 
(-1) s
 899 2501 mt  913 2501 L
2374 2501 mt 2359 2501 L
 798 2545 mt 
(0) s
 899 2221 mt  913 2221 L
2374 2221 mt 2359 2221 L
 798 2265 mt 
(1) s
 899 1942 mt  913 1942 L
2374 1942 mt 2359 1942 L
 798 1986 mt 
(2) s
 899 3061 mt 2374 3061 L
 899 1942 mt 2374 1942 L
 899 3061 mt  899 1942 L
2374 3061 mt 2374 1942 L
gs 899 1942 1476 1120 rc
24 w
18 27 19 -26 18 2 19 -20 18 -1 19 -41 18 -22 18 -36 
19 -30 18 -43 19 -45 18 -27 19 -61 18 -26 18 -51 19 -14 
18 -64 19 12 18 -58 19 1 18 38 19 -7 18 45 18 -3 
19 64 18 31 19 45 18 37 19 54 18 49 18 46 19 65 
18 26 19 70 18 16 19 79 18 -3 19 49 18 62 18 -77 
19 15 18 -49 19 2 18 -79 19 -17 18 -69 18 -30 19 -64 
18 -47 19 -48 18 -54 19 -40 18 -50 19 -23 18 -75 18 12 
19 -48 18 13 19 -41 18 1 19 56 18 -16 18 68 19 10 
18 53 19 26 18 59 19 29 18 47 19 47 18 33 18 35 
19 25 18 45 19 1 18 22 19 -2 18 28 18 -27 899 2298 80 MP stroke
gr

24 w
 882 3104 mt 
( ) s
2358 1984 mt 
( ) s
6 w
1 sg
0 1119 1475 0 0 -1119 2839 3061 4 MP
PP
-1475 0 0 1119 1475 0 0 -1119 2839 3061 5 MP stroke
4 w
DO
SO
6 w
0 sg
2839 3061 mt 4314 3061 L
2839 1942 mt 4314 1942 L
2839 3061 mt 2839 1942 L
4314 3061 mt 4314 1942 L
2839 3061 mt 4314 3061 L
2839 3061 mt 2839 1942 L
2839 3061 mt 2839 3046 L
2839 1942 mt 2839 1956 L
2736 3206 mt 
(-2) s
3576 3061 mt 3576 3046 L
3576 1942 mt 3576 1956 L
3543 3206 mt 
(0) s
4314 3061 mt 4314 3046 L
4314 1942 mt 4314 1956 L
4281 3206 mt 
(2) s
2839 3061 mt 2853 3061 L
4314 3061 mt 4299 3061 L
2668 3105 mt 
(-2) s
2839 2781 mt 2853 2781 L
4314 2781 mt 4299 2781 L
2668 2825 mt 
(-1) s
2839 2501 mt 2853 2501 L
4314 2501 mt 4299 2501 L
2738 2545 mt 
(0) s
2839 2221 mt 2853 2221 L
4314 2221 mt 4299 2221 L
2738 2265 mt 
(1) s
2839 1942 mt 2853 1942 L
4314 1942 mt 4299 1942 L
2738 1986 mt 
(2) s
2839 3061 mt 4314 3061 L
2839 1942 mt 4314 1942 L
2839 3061 mt 2839 1942 L
4314 3061 mt 4314 1942 L
gs 2839 1942 1476 1120 rc
24 w
18 39 19 -3 18 20 19 -6 18 18 19 -31 18 -1 18 -32 
19 -7 18 -50 19 -32 18 -35 19 -42 18 -38 18 -47 19 -29 
18 -64 19 -4 18 -65 19 -22 18 28 19 -26 18 33 18 -19 
19 64 18 14 19 49 18 32 19 52 18 49 18 45 19 59 
18 36 19 65 18 27 19 74 18 4 19 49 18 58 18 -72 
19 14 18 -49 19 -5 18 -73 19 -28 18 -65 18 -36 19 -59 
18 -48 19 -45 18 -58 19 -28 18 -48 19 -16 18 -61 18 20 
19 -29 18 25 19 -22 18 21 19 61 18 8 18 61 19 25 
18 44 19 39 18 41 19 35 18 31 19 49 18 7 18 32 
19 3 18 30 19 -16 18 6 19 -20 18 3 18 -39 2839 2363 80 MP stroke
gr

24 w
2822 3104 mt 
( ) s
4298 1984 mt 
( ) s
6 w
1 sg
0 1119 1475 0 0 -1119 4780 3061 4 MP
PP
-1475 0 0 1119 1475 0 0 -1119 4780 3061 5 MP stroke
4 w
DO
SO
6 w
0 sg
4780 3061 mt 6255 3061 L
4780 1942 mt 6255 1942 L
4780 3061 mt 4780 1942 L
6255 3061 mt 6255 1942 L
4780 3061 mt 6255 3061 L
4780 3061 mt 4780 1942 L
4780 3061 mt 4780 3046 L
4780 1942 mt 4780 1956 L
4677 3206 mt 
(-2) s
5517 3061 mt 5517 3046 L
5517 1942 mt 5517 1956 L
5484 3206 mt 
(0) s
6255 3061 mt 6255 3046 L
6255 1942 mt 6255 1956 L
6222 3206 mt 
(2) s
4780 3061 mt 4794 3061 L
6255 3061 mt 6240 3061 L
4609 3105 mt 
(-1) s
4780 2688 mt 4794 2688 L
6255 2688 mt 6240 2688 L
4679 2732 mt 
(0) s
4780 2315 mt 4794 2315 L
6255 2315 mt 6240 2315 L
4679 2359 mt 
(1) s
4780 1942 mt 4794 1942 L
6255 1942 mt 6240 1942 L
4679 1986 mt 
(2) s
4780 3061 mt 6255 3061 L
4780 1942 mt 6255 1942 L
4780 3061 mt 4780 1942 L
6255 3061 mt 6255 1942 L
gs 4780 1942 1476 1120 rc
24 w
18 31 19 -34 18 -1 19 -22 18 -6 19 -47 18 -31 18 -35 
19 -35 18 -46 19 -44 18 -28 19 -55 18 -22 18 -43 19 -8 
18 -59 19 18 18 -50 19 -4 18 42 19 -16 18 35 18 -17 
19 64 18 16 19 39 18 37 19 54 18 52 18 50 19 77 
18 37 19 84 18 26 19 101 18 4 19 62 18 80 18 -97 
19 19 18 -65 19 -3 18 -102 19 -26 18 -87 18 -40 19 -74 
18 -56 19 -52 18 -58 19 -30 18 -43 19 -16 18 -61 18 19 
19 -34 18 17 19 -36 18 1 19 53 18 -18 18 57 19 10 
18 44 19 18 18 58 19 23 18 48 19 46 18 34 18 40 
19 29 18 53 19 1 18 26 19 0 18 33 18 -31 4780 2453 80 MP stroke
gr

24 w
%%IncludeResource: font Symbol
/Symbol /ISOLatin1Encoding 120 FMSR

4872 2141 mt 
(r) s
%%IncludeResource: font Helvetica
/Helvetica /ISOLatin1Encoding 96 FMSR

4937 2201 mt 
(Tanal.fs) s
%%IncludeResource: font Helvetica
/Helvetica /ISOLatin1Encoding 120 FMSR

5266 2141 mt 
( = 0.9653) s
4763 3104 mt 
( ) s
6239 1984 mt 
( ) s
6 w
1 sg
0 1119 1475 0 0 -1119 899 4615 4 MP
PP
-1475 0 0 1119 1475 0 0 -1119 899 4615 5 MP stroke
4 w
DO
SO
6 w
0 sg
 899 4615 mt 2374 4615 L
 899 3496 mt 2374 3496 L
 899 4615 mt  899 3496 L
2374 4615 mt 2374 3496 L
 899 4615 mt 2374 4615 L
 899 4615 mt  899 3496 L
 899 4615 mt  899 4600 L
 899 3496 mt  899 3510 L
 796 4760 mt 
(-2) s
1636 4615 mt 1636 4600 L
1636 3496 mt 1636 3510 L
1603 4760 mt 
(0) s
2374 4615 mt 2374 4600 L
2374 3496 mt 2374 3510 L
2341 4760 mt 
(2) s
 899 4615 mt  913 4615 L
2374 4615 mt 2359 4615 L
 698 4659 mt 
(0.2) s
 899 4335 mt  913 4335 L
2374 4335 mt 2359 4335 L
 698 4379 mt 
(0.4) s
 899 4055 mt  913 4055 L
2374 4055 mt 2359 4055 L
 698 4099 mt 
(0.6) s
 899 3775 mt  913 3775 L
2374 3775 mt 2359 3775 L
 698 3819 mt 
(0.8) s
 899 3496 mt  913 3496 L
2374 3496 mt 2359 3496 L
 798 3540 mt 
(1) s
 899 4615 mt 2374 4615 L
 899 3496 mt 2374 3496 L
 899 4615 mt  899 3496 L
2374 4615 mt 2374 3496 L
gs 899 3496 1476 1120 rc
24 w
18 75 19 -88 18 23 19 -55 18 46 19 -106 18 15 18 -62 
19 61 18 -91 19 43 18 -22 19 96 18 -13 18 89 19 -6 
18 141 19 -51 18 142 19 -10 18 -99 19 21 18 -107 18 24 
19 -146 18 -39 19 -75 18 1 19 -53 18 5 18 -1 19 103 
18 0 19 138 18 14 19 185 18 -12 19 121 18 155 18 -193 
19 39 18 -121 19 13 18 -185 19 -12 18 -139 18 10 19 -108 
18 7 19 -9 18 54 19 4 18 89 19 20 18 172 18 -47 
19 116 18 -36 19 106 18 5 19 -138 18 61 18 -151 19 15 
18 -93 19 15 18 -93 19 19 18 -51 19 85 18 -70 18 63 
19 -21 18 95 19 -45 18 50 19 -24 18 84 18 -75 899 4298 80 MP stroke
gr

24 w
 882 4658 mt 
( ) s
2358 3538 mt 
( ) s
6 w
1 sg
0 1119 1475 0 0 -1119 2839 4615 4 MP
PP
-1475 0 0 1119 1475 0 0 -1119 2839 4615 5 MP stroke
4 w
DO
SO
6 w
0 sg
2839 4615 mt 4314 4615 L
2839 3496 mt 4314 3496 L
2839 4615 mt 2839 3496 L
4314 4615 mt 4314 3496 L
2839 4615 mt 4314 4615 L
2839 4615 mt 2839 3496 L
2839 4615 mt 2839 4600 L
2839 3496 mt 2839 3510 L
2736 4760 mt 
(-2) s
3576 4615 mt 3576 4600 L
3576 3496 mt 3576 3510 L
3543 4760 mt 
(0) s
4314 4615 mt 4314 4600 L
4314 3496 mt 4314 3510 L
4281 4760 mt 
(2) s
2839 4615 mt 2853 4615 L
4314 4615 mt 4299 4615 L
2638 4659 mt 
(0.2) s
2839 4335 mt 2853 4335 L
4314 4335 mt 4299 4335 L
2638 4379 mt 
(0.4) s
2839 4055 mt 2853 4055 L
4314 4055 mt 4299 4055 L
2638 4099 mt 
(0.6) s
2839 3775 mt 2853 3775 L
4314 3775 mt 4299 3775 L
2638 3819 mt 
(0.8) s
2839 3496 mt 2853 3496 L
4314 3496 mt 4299 3496 L
2738 3540 mt 
(1) s
2839 4615 mt 4314 4615 L
2839 3496 mt 4314 3496 L
2839 4615 mt 2839 3496 L
4314 4615 mt 4314 3496 L
gs 2839 3496 1476 1120 rc
24 w
18 86 19 -46 18 45 19 -23 18 49 19 -84 18 20 18 -73 
19 50 18 -108 19 6 18 -40 19 48 18 -36 18 62 19 8 
18 122 19 -29 18 152 19 37 18 -77 19 63 18 -84 18 56 
19 -153 18 -13 19 -97 18 -8 19 -67 18 -10 18 -22 19 79 
18 -3 19 118 18 33 19 171 18 2 19 119 18 145 18 -180 
19 35 18 -119 19 0 18 -172 19 -31 18 -118 18 4 19 -80 
18 29 19 0 18 81 19 1 18 93 19 15 18 148 18 -56 
19 71 18 -61 19 65 18 -36 19 -142 18 20 18 -117 19 3 
18 -55 19 34 18 -45 19 41 18 -6 19 111 18 -50 18 73 
19 -23 18 83 19 -53 18 23 19 -42 18 45 18 -87 2839 4392 80 MP stroke
gr

24 w
3293 4903 mt 
(Delay [ms]) s
2822 4658 mt 
( ) s
4298 3538 mt 
( ) s
6 w
1 sg
0 1119 1475 0 0 -1119 4780 4615 4 MP
PP
-1475 0 0 1119 1475 0 0 -1119 4780 4615 5 MP stroke
4 w
DO
SO
6 w
0 sg
4780 4615 mt 6255 4615 L
4780 3496 mt 6255 3496 L
4780 4615 mt 4780 3496 L
6255 4615 mt 6255 3496 L
4780 4615 mt 6255 4615 L
4780 4615 mt 4780 3496 L
4780 4615 mt 4780 4600 L
4780 3496 mt 4780 3510 L
4677 4760 mt 
(-2) s
5517 4615 mt 5517 4600 L
5517 3496 mt 5517 3510 L
5484 4760 mt 
(0) s
6255 4615 mt 6255 4600 L
6255 3496 mt 6255 3510 L
6222 4760 mt 
(2) s
4780 4615 mt 4794 4615 L
6255 4615 mt 6240 4615 L
4579 4659 mt 
(0.2) s
4780 4335 mt 4794 4335 L
6255 4335 mt 6240 4335 L
4579 4379 mt 
(0.4) s
4780 4055 mt 4794 4055 L
6255 4055 mt 6240 4055 L
4579 4099 mt 
(0.6) s
4780 3775 mt 4794 3775 L
6255 3775 mt 6240 3775 L
4579 3819 mt 
(0.8) s
4780 3496 mt 4794 3496 L
6255 3496 mt 6240 3496 L
4679 3540 mt 
(1) s
4780 4615 mt 6255 4615 L
4780 3496 mt 6255 3496 L
4780 4615 mt 4780 3496 L
6255 4615 mt 6255 3496 L
gs 4780 3496 1476 1120 rc
24 w
18 84 19 -91 18 31 19 -63 18 54 19 -119 18 17 18 -85 
19 52 18 -116 19 15 18 -36 19 45 18 -36 18 42 19 -26 
18 92 19 -56 18 92 19 0 18 -83 19 35 18 -62 18 48 
19 -104 18 7 19 -37 18 27 19 -21 18 32 18 18 19 122 
18 -4 19 155 18 6 19 192 18 -27 19 128 18 159 18 -203 
19 42 18 -123 19 24 18 -190 19 -5 18 -150 18 10 19 -129 
18 -7 19 -31 18 28 19 -38 18 41 19 -5 18 97 18 -50 
19 59 18 -36 19 70 18 8 19 -98 18 55 18 -89 19 22 
18 -44 19 45 18 -51 19 45 18 -21 19 115 18 -52 18 76 
19 -12 18 108 19 -44 18 55 19 -28 18 92 18 -86 4780 4232 80 MP stroke
gr

24 w
%%IncludeResource: font Symbol
/Symbol /ISOLatin1Encoding 120 FMSR

4872 3720 mt 
(r) s
%%IncludeResource: font Helvetica
/Helvetica /ISOLatin1Encoding 96 FMSR

4937 3780 mt 
(ENV) s
%%IncludeResource: font Helvetica
/Helvetica /ISOLatin1Encoding 120 FMSR

5134 3720 mt 
( = -0.67005) s
4763 4658 mt 
( ) s
6239 3538 mt 
( ) s
6 w
1642  585 mt 
(SAC\(A+\)) s
gs 1142 449 1174 335 rc
24 w
385 0 1218 542 2 MP stroke
gr

24 w
1642  732 mt 
(SCC\(A+,A-\)) s
gs 1142 449 1174 335 rc
6 w
c8
385 0 1218 689 2 MP stroke
gr

6 w
c8
0 sg
3581  585 mt 
(SAC\(B+\)) s
gs 3082 449 1173 335 rc
24 w
384 0 3158 542 2 MP stroke
gr

24 w
3581  732 mt 
(SCC\(B+,B-\)) s
gs 3082 449 1173 335 rc
6 w
c8
384 0 3158 689 2 MP stroke
gr

6 w
c8
0 sg
5522  585 mt 
(SCC\(A+,B+\)) s
gs 5023 449 1173 335 rc
24 w
384 0 5099 542 2 MP stroke
gr

24 w
5522  732 mt 
(SCC\(A+,B-\)) s
gs 5023 449 1173 335 rc
6 w
c8
384 0 5099 689 2 MP stroke
gr

6 w
c8
0 sg
1870 2139 mt 
(DIFCOR) s
gs 1349 2002 967 189 rc
24 w
400 0 1429 2096 2 MP stroke
6 w
gr

3809 2139 mt 
(DIFCOR) s
gs 3289 2002 966 189 rc
24 w
400 0 3368 2096 2 MP stroke
6 w
gr

5750 2139 mt 
(DIFCOR) s
gs 5230 2002 966 189 rc
24 w
400 0 5309 2096 2 MP stroke
6 w
gr

1836 3693 mt 
(SUMCOR) s
gs 1276 3556 1040 189 rc
24 w
430 0 1362 3650 2 MP stroke
6 w
gr

3775 3693 mt 
(SUMCOR) s
gs 3215 3556 1040 189 rc
24 w
430 0 3301 3650 2 MP stroke
6 w
gr

5717 3693 mt 
(SUMCOR) s
gs 5157 3556 1040 189 rc
24 w
430 0 5243 3650 2 MP stroke
6 w
gr


end %%Color Dict

eplot
%%EndObject

epage
end

showpage

%%Trailer
%%EOF
