%!PS-Adobe-3.0 EPSF-3.0
%%Creator: MATLAB, The MathWorks, Inc. Version 8.3.0.532 (R2014a). Operating System: Linux 3.13.0-57-generic #95-Ubuntu SMP Fri Jun 19 09:28:15 UTC 2015 x86_64.
%%Title: ./CF827SNR-10.eps
%%CreationDate: 09/10/2015  09:52:51
%%DocumentNeededFonts: Helvetica
%%DocumentProcessColors: Cyan Magenta Yellow Black
%%LanguageLevel: 2
%%Pages: 1
%%BoundingBox:    76   199   546   608
%%EndComments

%%BeginProlog
% MathWorks dictionary
/MathWorks 160 dict begin
% definition operators
/bdef {bind def} bind def
/ldef {load def} bind def
/xdef {exch def} bdef
/xstore {exch store} bdef
% operator abbreviations
/c  /clip ldef
/cc /concat ldef
/cp /closepath ldef
/gr /grestore ldef
/gs /gsave ldef
/mt /moveto ldef
/np /newpath ldef
/cm /currentmatrix ldef
/sm /setmatrix ldef
/rm /rmoveto ldef
/rl /rlineto ldef
/s {show newpath} bdef
/sc {setcmykcolor} bdef
/sr /setrgbcolor ldef
/sg /setgray ldef
/w /setlinewidth ldef
/j /setlinejoin ldef
/cap /setlinecap ldef
/rc {rectclip} bdef
/rf {rectfill} bdef
% page state control
/pgsv () def
/bpage {/pgsv save def} bdef
/epage {pgsv restore} bdef
/bplot /gsave ldef
/eplot {stroke grestore} bdef
% orientation switch
/portraitMode 0 def /landscapeMode 1 def /rotateMode 2 def
% coordinate system mappings
/dpi2point 0 def
% font control
/FontSize 0 def
/FMS {/FontSize xstore findfont [FontSize 0 0 FontSize neg 0 0]
  makefont setfont} bdef
/reencode {exch dup where {pop load} {pop StandardEncoding} ifelse
  exch dup 3 1 roll findfont dup length dict begin
  { 1 index /FID ne {def}{pop pop} ifelse } forall
  /Encoding exch def currentdict end definefont pop} bdef
/isroman {findfont /CharStrings get /Agrave known} bdef
/FMSR {3 1 roll 1 index dup isroman {reencode} {pop pop} ifelse
  exch FMS} bdef
/csm {1 dpi2point div -1 dpi2point div scale neg translate
 dup landscapeMode eq {pop -90 rotate}
  {rotateMode eq {90 rotate} if} ifelse} bdef
% line types: solid, dotted, dashed, dotdash
/SO { [] 0 setdash } bdef
/DO { [.5 dpi2point mul 4 dpi2point mul] 0 setdash } bdef
/DA { [6 dpi2point mul] 0 setdash } bdef
/DD { [.5 dpi2point mul 4 dpi2point mul 6 dpi2point mul 4
  dpi2point mul] 0 setdash } bdef
% macros for lines and objects
/L {lineto stroke} bdef
/MP {3 1 roll moveto 1 sub {rlineto} repeat} bdef
/AP {{rlineto} repeat} bdef
/PDlw -1 def
/W {/PDlw currentlinewidth def setlinewidth} def
/PP {closepath eofill} bdef
/DP {closepath stroke} bdef
/MR {4 -2 roll moveto dup  0 exch rlineto exch 0 rlineto
  neg 0 exch rlineto closepath} bdef
/FR {MR stroke} bdef
/PR {MR fill} bdef
/L1i {{currentfile picstr readhexstring pop} image} bdef
/tMatrix matrix def
/MakeOval {newpath tMatrix currentmatrix pop translate scale
0 0 1 0 360 arc tMatrix setmatrix} bdef
/FO {MakeOval stroke} bdef
/PO {MakeOval fill} bdef
/PD {currentlinewidth 2 div 0 360 arc fill
   PDlw -1 eq not {PDlw w /PDlw -1 def} if} def
/FA {newpath tMatrix currentmatrix pop translate scale
  0 0 1 5 -2 roll arc tMatrix setmatrix stroke} bdef
/PA {newpath tMatrix currentmatrix pop	translate 0 0 moveto scale
  0 0 1 5 -2 roll arc closepath tMatrix setmatrix fill} bdef
/FAn {newpath tMatrix currentmatrix pop translate scale
  0 0 1 5 -2 roll arcn tMatrix setmatrix stroke} bdef
/PAn {newpath tMatrix currentmatrix pop translate 0 0 moveto scale
  0 0 1 5 -2 roll arcn closepath tMatrix setmatrix fill} bdef
/vradius 0 def /hradius 0 def /lry 0 def
/lrx 0 def /uly 0 def /ulx 0 def /rad 0 def
/MRR {/vradius xdef /hradius xdef /lry xdef /lrx xdef /uly xdef
  /ulx xdef newpath tMatrix currentmatrix pop ulx hradius add uly
  vradius add translate hradius vradius scale 0 0 1 180 270 arc 
  tMatrix setmatrix lrx hradius sub uly vradius add translate
  hradius vradius scale 0 0 1 270 360 arc tMatrix setmatrix
  lrx hradius sub lry vradius sub translate hradius vradius scale
  0 0 1 0 90 arc tMatrix setmatrix ulx hradius add lry vradius sub
  translate hradius vradius scale 0 0 1 90 180 arc tMatrix setmatrix
  closepath} bdef
/FRR {MRR stroke } bdef
/PRR {MRR fill } bdef
/MlrRR {/lry xdef /lrx xdef /uly xdef /ulx xdef /rad lry uly sub 2 div def
  newpath tMatrix currentmatrix pop ulx rad add uly rad add translate
  rad rad scale 0 0 1 90 270 arc tMatrix setmatrix lrx rad sub lry rad
  sub translate rad rad scale 0 0 1 270 90 arc tMatrix setmatrix
  closepath} bdef
/FlrRR {MlrRR stroke } bdef
/PlrRR {MlrRR fill } bdef
/MtbRR {/lry xdef /lrx xdef /uly xdef /ulx xdef /rad lrx ulx sub 2 div def
  newpath tMatrix currentmatrix pop ulx rad add uly rad add translate
  rad rad scale 0 0 1 180 360 arc tMatrix setmatrix lrx rad sub lry rad
  sub translate rad rad scale 0 0 1 0 180 arc tMatrix setmatrix
  closepath} bdef
/FtbRR {MtbRR stroke } bdef
/PtbRR {MtbRR fill } bdef
/stri 6 array def /dtri 6 array def
/smat 6 array def /dmat 6 array def
/tmat1 6 array def /tmat2 6 array def /dif 3 array def
/asub {/ind2 exch def /ind1 exch def dup dup
  ind1 get exch ind2 get sub exch } bdef
/tri_to_matrix {
  2 0 asub 3 1 asub 4 0 asub 5 1 asub
  dup 0 get exch 1 get 7 -1 roll astore } bdef
/compute_transform {
  dmat dtri tri_to_matrix tmat1 invertmatrix 
  smat stri tri_to_matrix tmat2 concatmatrix } bdef
/ds {stri astore pop} bdef
/dt {dtri astore pop} bdef
/db {2 copy /cols xdef /rows xdef mul dup 3 mul string
  currentfile 
  3 index 0 eq {/ASCIIHexDecode filter}
  {/ASCII85Decode filter 3 index 2 eq {/RunLengthDecode filter} if }
  ifelse exch readstring pop
  dup 0 3 index getinterval /rbmap xdef
  dup 2 index dup getinterval /gbmap xdef
  1 index dup 2 mul exch getinterval /bbmap xdef pop pop}bdef
/it {gs np dtri aload pop moveto lineto lineto cp c
  cols rows 8 compute_transform 
  rbmap gbmap bbmap true 3 colorimage gr}bdef
/il {newpath moveto lineto stroke}bdef
currentdict end def
%%EndProlog

%%BeginSetup
MathWorks begin

0 cap

end
%%EndSetup

%%Page: 1 1
%%BeginPageSetup
%%PageBoundingBox:    76   199   546   608
MathWorks begin
bpage
%%EndPageSetup

%%BeginObject: obj1
bplot

/dpi2point 12 def
portraitMode 0216 7344 csm

  698    37  5647  4918 rc
85 dict begin %Colortable dictionary
/c0 { 0.000000 0.000000 0.000000 sr} bdef
/c1 { 1.000000 1.000000 1.000000 sr} bdef
/c2 { 0.900000 0.000000 0.000000 sr} bdef
/c3 { 0.000000 0.820000 0.000000 sr} bdef
/c4 { 0.000000 0.000000 0.800000 sr} bdef
/c5 { 0.910000 0.820000 0.320000 sr} bdef
/c6 { 1.000000 0.260000 0.820000 sr} bdef
/c7 { 0.000000 0.820000 0.820000 sr} bdef
c0
1 j
1 sg
   0    0 6913 5186 rf
6 w
0 sg
%%IncludeResource: font Helvetica
/Helvetica /ISOLatin1Encoding 120 FMSR

2297  221 mt 
(Neural Correlations at -10dB SNR, CF = 827Hz) s
1 sg
0 1118 1475 0 0 -1118 899 1507 4 MP
PP
-1475 0 0 1118 1475 0 0 -1118 899 1507 5 MP stroke
4 w
DO
SO
6 w
0 sg
 899 1507 mt 2374 1507 L
 899  389 mt 2374  389 L
 899 1507 mt  899  389 L
2374 1507 mt 2374  389 L
 899 1507 mt 2374 1507 L
 899 1507 mt  899  389 L
 899 1507 mt  899 1492 L
 899  389 mt  899  403 L
 796 1652 mt 
(-2) s
1636 1507 mt 1636 1492 L
1636  389 mt 1636  403 L
1603 1652 mt 
(0) s
2374 1507 mt 2374 1492 L
2374  389 mt 2374  403 L
2341 1652 mt 
(2) s
 899 1507 mt  913 1507 L
2374 1507 mt 2359 1507 L
 798 1551 mt 
(0) s
 899 1227 mt  913 1227 L
2374 1227 mt 2359 1227 L
 698 1271 mt 
(0.5) s
 899  948 mt  913  948 L
2374  948 mt 2359  948 L
 798  992 mt 
(1) s
 899  668 mt  913  668 L
2374  668 mt 2359  668 L
 698  712 mt 
(1.5) s
 899  389 mt  913  389 L
2374  389 mt 2359  389 L
 798  433 mt 
(2) s
 899 1507 mt 2374 1507 L
 899  389 mt 2374  389 L
 899 1507 mt  899  389 L
2374 1507 mt 2374  389 L
gs 899 389 1476 1119 rc
24 w
18 19 19 -36 18 7 19 -7 18 18 19 -16 18 12 18 -7 
19 38 18 -33 19 24 18 -5 19 25 18 -25 18 0 19 -18 
18 14 19 -45 18 -10 19 -31 18 -41 19 -21 18 -20 18 -9 
19 -12 18 0 19 1 18 14 19 13 18 33 18 30 19 89 
18 46 19 130 18 57 19 192 18 29 19 137 18 145 18 -166 
19 21 18 -137 19 -29 18 -192 19 -57 18 -130 18 -46 19 -89 
18 -30 19 -33 18 -13 19 -14 18 -1 19 0 18 12 18 9 
19 20 18 21 19 41 18 31 19 10 18 45 18 -14 19 18 
18 0 19 25 18 -25 19 5 18 -24 19 33 18 -38 18 7 
19 -12 18 16 19 -18 18 7 19 -7 18 36 18 -19 899 1295 80 MP stroke
6 w
/c8 { 1.000000 0.000000 0.000000 sr} bdef
c8
18 32 19 -13 18 34 19 -1 18 32 19 -24 18 29 18 -23 
19 40 18 -50 19 26 18 -33 19 26 18 -31 18 31 19 -16 
18 52 19 -8 18 69 19 34 18 -4 19 66 18 2 18 98 
19 -57 18 27 19 -40 18 10 19 -90 18 -44 18 -84 19 -43 
18 -74 19 -38 18 -40 19 -16 18 -15 19 -5 18 -1 18 -1 
19 3 18 7 19 17 18 18 19 44 18 39 18 84 19 35 
18 84 19 50 18 92 19 -31 18 54 19 -60 18 50 18 -98 
19 -20 18 -66 19 -3 18 -30 19 -61 18 8 18 -42 19 16 
18 -18 19 25 18 -16 19 25 18 -19 19 56 18 -37 18 29 
19 -21 18 29 19 -40 18 11 19 -30 18 13 18 -29 899 1336 80 MP stroke
gr

c8
0 sg
1433  294 mt 
(Speech) s
 882 1550 mt 
( ) s
2358  431 mt 
( ) s
1642  585 mt 
(SAC\(A+\)) s
gs 1142 449 1174 335 rc
24 w
385 0 1218 542 2 MP stroke
gr

24 w
1642  732 mt 
(SCC\(A+,A-\)) s
gs 1142 449 1174 335 rc
6 w
c8
385 0 1218 689 2 MP stroke
gr

6 w
c8
1 sg
0 1118 1475 0 0 -1118 2839 1507 4 MP
PP
-1475 0 0 1118 1475 0 0 -1118 2839 1507 5 MP stroke
4 w
DO
SO
6 w
0 sg
2839 1507 mt 4314 1507 L
2839  389 mt 4314  389 L
2839 1507 mt 2839  389 L
4314 1507 mt 4314  389 L
2839 1507 mt 4314 1507 L
2839 1507 mt 2839  389 L
2839 1507 mt 2839 1492 L
2839  389 mt 2839  403 L
2736 1652 mt 
(-2) s
3576 1507 mt 3576 1492 L
3576  389 mt 3576  403 L
3543 1652 mt 
(0) s
4314 1507 mt 4314 1492 L
4314  389 mt 4314  403 L
4281 1652 mt 
(2) s
2839 1507 mt 2853 1507 L
4314 1507 mt 4299 1507 L
2738 1551 mt 
(0) s
2839 1134 mt 2853 1134 L
4314 1134 mt 4299 1134 L
2638 1178 mt 
(0.5) s
2839  761 mt 2853  761 L
4314  761 mt 4299  761 L
2738  805 mt 
(1) s
2839  389 mt 2853  389 L
4314  389 mt 4299  389 L
2638  433 mt 
(1.5) s
2839 1507 mt 4314 1507 L
2839  389 mt 4314  389 L
2839 1507 mt 2839  389 L
4314 1507 mt 4314  389 L
gs 2839 389 1476 1119 rc
24 w
18 63 19 5 18 57 19 15 18 73 19 -23 18 49 18 -22 
19 66 18 -92 19 13 18 -56 19 2 18 -63 18 -12 19 -42 
18 12 19 -57 18 15 19 -27 18 -37 19 -5 18 -30 18 -3 
19 -30 18 -7 19 -18 18 -3 19 -6 18 11 18 11 19 56 
18 46 19 124 18 86 19 214 18 83 19 197 18 189 18 -191 
19 2 18 -197 19 -83 18 -214 19 -86 18 -124 18 -46 19 -56 
18 -11 19 -11 18 6 19 3 18 18 19 7 18 30 18 3 
19 30 18 5 19 37 18 27 19 -15 18 57 18 -12 19 42 
18 12 19 63 18 -2 19 56 18 -13 19 92 18 -66 18 22 
19 -48 18 22 19 -73 18 -15 19 -57 18 -5 18 -63 2839 1295 80 MP stroke
6 w
c8
18 9 19 -60 18 -12 19 -41 18 6 19 -33 18 -3 18 -16 
19 22 18 -19 19 22 18 2 19 34 18 4 18 29 19 4 
18 51 19 -12 18 66 19 41 18 -17 19 74 18 -9 18 101 
19 -39 18 45 19 -48 18 50 19 -94 18 -37 18 -94 19 -40 
18 -92 19 -49 18 -52 19 -24 18 -26 19 -9 18 -4 18 -2 
19 7 18 10 19 25 18 30 19 56 18 50 18 98 19 31 
18 98 19 39 18 89 19 -45 18 39 19 -55 18 34 18 -103 
19 -4 18 -64 19 12 18 -33 19 -59 18 22 18 -58 19 -3 
18 -32 19 8 18 -39 19 -1 18 -21 19 21 18 -26 18 16 
19 -1 18 38 19 -4 18 36 19 8 18 58 18 -13 2839 1233 80 MP stroke
gr

c8
0 sg
3206  294 mt 
(Noisy Speech) s
2822 1550 mt 
( ) s
4298  431 mt 
( ) s
3581  585 mt 
(SAC\(B+\)) s
gs 3082 449 1173 335 rc
24 w
384 0 3158 542 2 MP stroke
gr

24 w
3581  732 mt 
(SCC\(B+,B-\)) s
gs 3082 449 1173 335 rc
6 w
c8
384 0 3158 689 2 MP stroke
gr

6 w
c8
1 sg
0 1118 1475 0 0 -1118 4780 1507 4 MP
PP
-1475 0 0 1118 1475 0 0 -1118 4780 1507 5 MP stroke
4 w
DO
SO
6 w
0 sg
4780 1507 mt 6255 1507 L
4780  389 mt 6255  389 L
4780 1507 mt 4780  389 L
6255 1507 mt 6255  389 L
4780 1507 mt 6255 1507 L
4780 1507 mt 4780  389 L
4780 1507 mt 4780 1492 L
4780  389 mt 4780  403 L
4677 1652 mt 
(-2) s
5517 1507 mt 5517 1492 L
5517  389 mt 5517  403 L
5484 1652 mt 
(0) s
6255 1507 mt 6255 1492 L
6255  389 mt 6255  403 L
6222 1652 mt 
(2) s
4780 1507 mt 4794 1507 L
6255 1507 mt 6240 1507 L
4679 1551 mt 
(0) s
4780 1227 mt 4794 1227 L
6255 1227 mt 6240 1227 L
4579 1271 mt 
(0.2) s
4780  948 mt 4794  948 L
6255  948 mt 6240  948 L
4579  992 mt 
(0.4) s
4780  668 mt 4794  668 L
6255  668 mt 6240  668 L
4579  712 mt 
(0.6) s
4780  389 mt 4794  389 L
6255  389 mt 6240  389 L
4579  433 mt 
(0.8) s
4780 1507 mt 6255 1507 L
4780  389 mt 6255  389 L
4780 1507 mt 4780  389 L
6255 1507 mt 6255  389 L
gs 4780 389 1476 1119 rc
24 w
18 18 19 -114 18 -23 19 -76 18 12 19 -63 18 -5 18 -29 
19 40 18 -35 19 40 18 5 19 64 18 8 18 53 19 9 
18 95 19 -24 18 124 19 77 18 -31 19 139 18 -18 18 189 
19 -72 18 83 19 -89 18 93 19 -175 18 -70 18 -176 19 -75 
18 -173 19 -91 18 -99 19 -43 18 -49 19 -18 18 -7 18 -4 
19 13 18 19 19 47 18 56 19 105 18 94 18 184 19 58 
18 184 19 72 18 167 19 -84 18 73 19 -103 18 64 18 -193 
19 -8 18 -120 19 22 18 -62 19 -109 18 41 18 -109 19 -5 
18 -60 19 15 18 -74 19 -1 18 -39 19 39 18 -49 18 29 
19 0 18 71 19 -9 18 67 19 15 18 110 18 -25 4780 994 80 MP stroke
6 w
c8
18 50 19 -54 18 42 19 -35 18 64 19 -63 18 44 18 -44 
19 81 18 -64 19 59 18 -61 19 90 18 -39 18 33 19 -27 
18 61 19 -72 18 80 19 -14 18 -69 19 18 18 -26 18 68 
19 -86 18 47 19 -50 18 44 19 -54 18 11 18 -42 19 62 
18 -64 19 44 18 -43 19 57 18 -63 19 43 18 53 18 -78 
19 37 18 -25 19 65 18 -58 19 54 18 -51 18 91 19 -64 
18 61 19 -23 18 45 19 -72 18 30 19 -41 18 70 18 -98 
19 40 18 -35 19 59 18 -4 19 -58 18 54 18 -70 19 45 
18 -36 19 74 18 -66 19 47 18 -40 19 86 18 -88 18 39 
19 -40 18 58 19 -42 18 24 19 -50 18 64 18 -81 4780 1045 80 MP stroke
gr

c8
0 sg
4893  294 mt 
(Speech / Noisy Speech) s
4763 1550 mt 
( ) s
6239  431 mt 
( ) s
5522  585 mt 
(SCC\(A+,B+\)) s
gs 5023 449 1173 335 rc
24 w
384 0 5099 542 2 MP stroke
gr

24 w
5522  732 mt 
(SCC\(A+,B-\)) s
gs 5023 449 1173 335 rc
6 w
c8
384 0 5099 689 2 MP stroke
gr

6 w
c8
1 sg
0 1119 1475 0 0 -1119 899 3061 4 MP
PP
-1475 0 0 1119 1475 0 0 -1119 899 3061 5 MP stroke
4 w
DO
SO
6 w
0 sg
 899 3061 mt 2374 3061 L
 899 1942 mt 2374 1942 L
 899 3061 mt  899 1942 L
2374 3061 mt 2374 1942 L
 899 3061 mt 2374 3061 L
 899 3061 mt  899 1942 L
 899 3061 mt  899 3046 L
 899 1942 mt  899 1956 L
 796 3206 mt 
(-2) s
1636 3061 mt 1636 3046 L
1636 1942 mt 1636 1956 L
1603 3206 mt 
(0) s
2374 3061 mt 2374 3046 L
2374 1942 mt 2374 1956 L
2341 3206 mt 
(2) s
 899 3061 mt  913 3061 L
2374 3061 mt 2359 3061 L
 728 3105 mt 
(-1) s
 899 2688 mt  913 2688 L
2374 2688 mt 2359 2688 L
 798 2732 mt 
(0) s
 899 2315 mt  913 2315 L
2374 2315 mt 2359 2315 L
 798 2359 mt 
(1) s
 899 1942 mt  913 1942 L
2374 1942 mt 2359 1942 L
 798 1986 mt 
(2) s
 899 3061 mt 2374 3061 L
 899 1942 mt 2374 1942 L
 899 3061 mt  899 1942 L
2374 3061 mt 2374 1942 L
gs 899 1942 1476 1120 rc
24 w
18 -9 19 -15 18 -18 19 -3 18 -9 19 5 18 -12 18 11 
19 -1 18 11 19 -2 18 19 19 0 18 4 18 -21 19 -1 
18 -26 19 -24 18 -53 19 -44 18 -24 19 -58 18 -15 18 -71 
19 29 18 -17 19 27 18 3 19 69 18 51 18 76 19 88 
18 80 19 112 18 65 19 138 18 30 19 95 18 97 18 -110 
19 12 18 -96 19 -31 18 -140 19 -67 18 -114 18 -86 19 -82 
18 -77 19 -55 18 -70 19 11 18 -36 19 39 18 -25 18 72 
19 26 18 59 19 29 18 40 19 48 18 25 18 18 19 2 
18 12 19 -1 18 -6 19 -13 18 -3 19 -15 18 -2 18 -14 
19 6 18 -9 19 15 18 -3 19 16 18 15 18 7 899 2660 80 MP stroke
gr

24 w
 882 3104 mt 
( ) s
2358 1984 mt 
( ) s
6 w
1870 2139 mt 
(DIFCOR) s
gs 1349 2002 967 189 rc
24 w
400 0 1429 2096 2 MP stroke
6 w
gr

1 sg
0 1119 1475 0 0 -1119 2839 3061 4 MP
PP
-1475 0 0 1119 1475 0 0 -1119 2839 3061 5 MP stroke
4 w
DO
SO
6 w
0 sg
2839 3061 mt 4314 3061 L
2839 1942 mt 4314 1942 L
2839 3061 mt 2839 1942 L
4314 3061 mt 4314 1942 L
2839 3061 mt 4314 3061 L
2839 3061 mt 2839 1942 L
2839 3061 mt 2839 3046 L
2839 1942 mt 2839 1956 L
2736 3206 mt 
(-2) s
3576 3061 mt 3576 3046 L
3576 1942 mt 3576 1956 L
3543 3206 mt 
(0) s
4314 3061 mt 4314 3046 L
4314 1942 mt 4314 1956 L
4281 3206 mt 
(2) s
2839 3061 mt 2853 3061 L
4314 3061 mt 4299 3061 L
2668 3105 mt 
(-1) s
2839 2688 mt 2853 2688 L
4314 2688 mt 4299 2688 L
2738 2732 mt 
(0) s
2839 2315 mt 2853 2315 L
4314 2315 mt 4299 2315 L
2738 2359 mt 
(1) s
2839 1942 mt 2853 1942 L
4314 1942 mt 4299 1942 L
2738 1986 mt 
(2) s
2839 3061 mt 4314 3061 L
2839 1942 mt 4314 1942 L
2839 3061 mt 2839 1942 L
4314 3061 mt 4314 1942 L
gs 2839 1942 1476 1120 rc
24 w
18 26 19 33 18 35 19 28 18 33 19 5 18 26 18 -3 
19 22 18 -36 19 -5 18 -29 19 -16 18 -34 18 -20 19 -23 
18 -20 19 -22 18 -25 19 -35 18 -10 19 -39 18 -11 18 -51 
19 4 18 -26 19 15 18 -26 19 43 18 24 18 53 19 48 
18 69 19 87 18 69 19 119 18 54 19 104 18 96 18 -94 
19 -3 18 -103 19 -55 18 -122 19 -71 18 -87 18 -72 19 -44 
18 -54 19 -25 18 -41 19 23 18 -10 19 31 18 -2 18 53 
19 17 18 35 19 12 18 30 19 22 18 17 18 23 19 23 
18 22 19 28 18 18 19 29 18 3 19 36 18 -20 18 3 
19 -24 18 -8 19 -34 18 -25 19 -33 18 -32 18 -24 2839 2718 80 MP stroke
gr

24 w
2822 3104 mt 
( ) s
4298 1984 mt 
( ) s
6 w
3809 2139 mt 
(DIFCOR) s
gs 3289 2002 966 189 rc
24 w
400 0 3368 2096 2 MP stroke
6 w
gr

1 sg
0 1119 1475 0 0 -1119 4780 3061 4 MP
PP
-1475 0 0 1119 1475 0 0 -1119 4780 3061 5 MP stroke
4 w
DO
SO
6 w
0 sg
4780 3061 mt 6255 3061 L
4780 1942 mt 6255 1942 L
4780 3061 mt 4780 1942 L
6255 3061 mt 6255 1942 L
4780 3061 mt 6255 3061 L
4780 3061 mt 4780 1942 L
4780 3061 mt 4780 3046 L
4780 1942 mt 4780 1956 L
4677 3206 mt 
(-2) s
5517 3061 mt 5517 3046 L
5517 1942 mt 5517 1956 L
5484 3206 mt 
(0) s
6255 3061 mt 6255 3046 L
6255 1942 mt 6255 1956 L
6222 3206 mt 
(2) s
4780 3061 mt 4794 3061 L
6255 3061 mt 6240 3061 L
4509 3105 mt 
(-0.5) s
4780 2781 mt 4794 2781 L
6255 2781 mt 6240 2781 L
4679 2825 mt 
(0) s
4780 2501 mt 4794 2501 L
6255 2501 mt 6240 2501 L
4579 2545 mt 
(0.5) s
4780 2221 mt 4794 2221 L
6255 2221 mt 6240 2221 L
4679 2265 mt 
(1) s
4780 1942 mt 4794 1942 L
6255 1942 mt 6240 1942 L
4579 1986 mt 
(1.5) s
4780 3061 mt 6255 3061 L
4780 1942 mt 6255 1942 L
4780 3061 mt 4780 1942 L
6255 3061 mt 6255 1942 L
gs 4780 1942 1476 1120 rc
24 w
18 -2 19 -13 18 -11 19 8 18 -8 19 9 18 -6 18 11 
19 6 18 -7 19 0 18 19 19 -11 18 -9 18 -13 19 -8 
18 -10 19 -16 18 -42 19 -26 18 -13 19 -28 18 -10 18 -36 
19 22 18 -18 19 20 18 -3 19 35 18 28 18 47 19 64 
18 72 19 112 18 75 19 169 18 55 19 119 18 124 18 -135 
19 6 18 -126 19 -56 18 -169 19 -79 18 -109 18 -83 19 -63 
18 -54 19 -24 18 -31 19 14 18 -12 19 16 18 -16 18 48 
19 4 18 35 19 17 18 33 19 34 18 23 18 14 19 0 
18 14 19 -4 18 1 19 -14 18 -8 19 -1 18 -3 18 -9 
19 4 18 -7 19 -1 18 -3 19 14 18 9 18 14 4780 2754 80 MP stroke
gr

24 w
%%IncludeResource: font Symbol
/Symbol /ISOLatin1Encoding 120 FMSR

4872 2035 mt 
(r) s
%%IncludeResource: font Helvetica
/Helvetica /ISOLatin1Encoding 96 FMSR

4937 2095 mt 
(TFS) s
%%IncludeResource: font Helvetica
/Helvetica /ISOLatin1Encoding 120 FMSR

5118 2035 mt 
( = 0.84819) s
4763 3104 mt 
( ) s
6239 1984 mt 
( ) s
6 w
5750 2139 mt 
(DIFCOR) s
gs 5230 2002 966 189 rc
24 w
400 0 5309 2096 2 MP stroke
6 w
gr

1 sg
0 1119 1475 0 0 -1119 899 4615 4 MP
PP
-1475 0 0 1119 1475 0 0 -1119 899 4615 5 MP stroke
4 w
DO
SO
6 w
0 sg
 899 4615 mt 2374 4615 L
 899 3496 mt 2374 3496 L
 899 4615 mt  899 3496 L
2374 4615 mt 2374 3496 L
 899 4615 mt 2374 4615 L
 899 4615 mt  899 3496 L
 899 4615 mt  899 4600 L
 899 3496 mt  899 3510 L
 796 4760 mt 
(-2) s
1636 4615 mt 1636 4600 L
1636 3496 mt 1636 3510 L
1603 4760 mt 
(0) s
2374 4615 mt 2374 4600 L
2374 3496 mt 2374 3510 L
2341 4760 mt 
(2) s
 899 4615 mt  913 4615 L
2374 4615 mt 2359 4615 L
 698 4659 mt 
(0.2) s
 899 4335 mt  913 4335 L
2374 4335 mt 2359 4335 L
 698 4379 mt 
(0.4) s
 899 4055 mt  913 4055 L
2374 4055 mt 2359 4055 L
 698 4099 mt 
(0.6) s
 899 3775 mt  913 3775 L
2374 3775 mt 2359 3775 L
 698 3819 mt 
(0.8) s
 899 3496 mt  913 3496 L
2374 3496 mt 2359 3496 L
 798 3540 mt 
(1) s
 899 4615 mt 2374 4615 L
 899 3496 mt 2374 3496 L
 899 4615 mt  899 3496 L
2374 4615 mt 2374 3496 L
gs 899 3496 1476 1120 rc
24 w
18 64 19 -60 18 49 19 -8 18 62 19 -51 18 51 18 -37 
19 98 18 -103 19 62 18 -48 19 64 18 -70 18 39 19 -43 
18 84 19 -67 18 73 19 4 18 -56 19 57 18 -24 18 112 
19 -86 18 33 19 -49 18 31 19 -97 18 -13 18 -67 19 56 
18 -35 19 116 18 22 19 219 18 18 19 164 18 180 18 -209 
19 31 18 -162 19 -15 18 -219 19 -16 18 -113 18 47 19 -67 
18 68 19 20 18 100 19 -58 18 67 19 -74 18 77 18 -113 
19 2 18 -56 19 46 18 2 19 -64 18 67 18 -71 19 42 
18 -22 19 63 18 -52 19 38 18 -53 19 111 18 -94 18 45 
19 -42 18 58 19 -74 18 22 19 -45 18 61 18 -60 899 4416 80 MP stroke
gr

24 w
 882 4658 mt 
( ) s
2358 3538 mt 
( ) s
6 w
1836 3693 mt 
(SUMCOR) s
gs 1276 3556 1040 189 rc
24 w
430 0 1362 3650 2 MP stroke
6 w
gr

1 sg
0 1119 1475 0 0 -1119 2839 4615 4 MP
PP
-1475 0 0 1119 1475 0 0 -1119 2839 4615 5 MP stroke
4 w
DO
SO
6 w
0 sg
2839 4615 mt 4314 4615 L
2839 3496 mt 4314 3496 L
2839 4615 mt 2839 3496 L
4314 4615 mt 4314 3496 L
2839 4615 mt 4314 4615 L
2839 4615 mt 2839 3496 L
2839 4615 mt 2839 4600 L
2839 3496 mt 2839 3510 L
2736 4760 mt 
(-2) s
3576 4615 mt 3576 4600 L
3576 3496 mt 3576 3510 L
3543 4760 mt 
(0) s
4314 4615 mt 4314 4600 L
4314 3496 mt 4314 3510 L
4281 4760 mt 
(2) s
2839 4615 mt 2853 4615 L
4314 4615 mt 4299 4615 L
2638 4659 mt 
(0.2) s
2839 4335 mt 2853 4335 L
4314 4335 mt 4299 4335 L
2638 4379 mt 
(0.4) s
2839 4055 mt 2853 4055 L
4314 4055 mt 4299 4055 L
2638 4099 mt 
(0.6) s
2839 3775 mt 2853 3775 L
4314 3775 mt 4299 3775 L
2638 3819 mt 
(0.8) s
2839 3496 mt 2853 3496 L
4314 3496 mt 4299 3496 L
2738 3540 mt 
(1) s
2839 4615 mt 4314 4615 L
2839 3496 mt 4314 3496 L
2839 4615 mt 2839 3496 L
4314 4615 mt 4314 3496 L
gs 2839 3496 1476 1120 rc
24 w
18 67 19 -52 18 42 19 -24 18 74 19 -52 18 43 18 -36 
19 83 18 -104 19 32 18 -50 19 34 18 -56 18 16 19 -35 
18 59 19 -66 18 77 19 12 18 -49 19 64 18 -37 18 93 
19 -65 18 35 19 -62 18 45 19 -94 18 -25 18 -78 19 16 
18 -44 19 71 18 32 19 178 18 54 19 176 18 173 18 -181 
19 9 18 -176 19 -54 18 -173 19 -28 18 -69 18 49 19 -24 
18 81 19 27 18 89 19 -40 18 54 19 -45 18 61 18 -95 
19 24 18 -55 19 46 18 -5 19 -70 18 74 18 -66 19 38 
18 -20 19 68 18 -40 19 53 18 -33 19 106 18 -86 18 36 
19 -46 18 56 19 -72 18 19 19 -46 18 50 18 -71 2839 4439 80 MP stroke
gr

24 w
3293 4903 mt 
(Delay [ms]) s
2822 4658 mt 
( ) s
4298 3538 mt 
( ) s
6 w
3775 3693 mt 
(SUMCOR) s
gs 3215 3556 1040 189 rc
24 w
430 0 3301 3650 2 MP stroke
6 w
gr

1 sg
0 1119 1475 0 0 -1119 4780 4615 4 MP
PP
-1475 0 0 1119 1475 0 0 -1119 4780 4615 5 MP stroke
4 w
DO
SO
6 w
0 sg
4780 4615 mt 6255 4615 L
4780 3496 mt 6255 3496 L
4780 4615 mt 4780 3496 L
6255 4615 mt 6255 3496 L
4780 4615 mt 6255 4615 L
4780 4615 mt 4780 3496 L
4780 4615 mt 4780 4600 L
4780 3496 mt 4780 3510 L
4677 4760 mt 
(-2) s
5517 4615 mt 5517 4600 L
5517 3496 mt 5517 3510 L
5484 4760 mt 
(0) s
6255 4615 mt 6255 4600 L
6255 3496 mt 6255 3510 L
6222 4760 mt 
(2) s
4780 4615 mt 4794 4615 L
6255 4615 mt 6240 4615 L
4679 4659 mt 
(0) s
4780 4242 mt 4794 4242 L
6255 4242 mt 6240 4242 L
4579 4286 mt 
(0.5) s
4780 3869 mt 4794 3869 L
6255 3869 mt 6240 3869 L
4679 3913 mt 
(1) s
4780 3496 mt 4794 3496 L
6255 3496 mt 6240 3496 L
4579 3540 mt 
(1.5) s
4780 4615 mt 6255 4615 L
4780 3496 mt 6255 3496 L
4780 4615 mt 4780 3496 L
6255 4615 mt 6255 3496 L
gs 4780 3496 1476 1120 rc
24 w
18 25 19 -38 18 16 19 -14 18 30 19 -28 18 19 18 -16 
19 47 18 -39 19 32 18 -20 19 41 18 -27 18 9 19 -20 
18 26 19 -49 18 14 19 -24 18 -45 19 -10 18 -20 18 12 
19 -31 18 13 19 -13 18 21 19 -6 18 25 18 9 19 76 
18 13 19 99 18 27 19 143 18 3 19 102 18 111 18 -132 
19 24 18 -97 19 -3 18 -143 19 -24 18 -100 18 -7 19 -76 
18 -4 19 -28 18 4 19 -29 18 7 19 -11 18 27 18 -20 
19 24 18 5 19 42 18 20 19 -9 18 45 18 -28 19 24 
18 -10 19 37 18 -35 19 16 18 -26 19 45 18 -50 18 16 
19 -19 18 26 19 -23 18 11 19 -18 18 41 18 -34 4780 4350 80 MP stroke
gr

24 w
%%IncludeResource: font Symbol
/Symbol /ISOLatin1Encoding 120 FMSR

4872 3826 mt 
(r) s
%%IncludeResource: font Helvetica
/Helvetica /ISOLatin1Encoding 96 FMSR

4937 3886 mt 
(ENV) s
%%IncludeResource: font Helvetica
/Helvetica /ISOLatin1Encoding 120 FMSR

5134 3826 mt 
( = 0.20118) s
4763 4658 mt 
( ) s
6239 3538 mt 
( ) s
6 w
5717 3693 mt 
(SUMCOR) s
gs 5157 3556 1040 189 rc
24 w
430 0 5243 3650 2 MP stroke
6 w
gr


end %%Color Dict

eplot
%%EndObject

epage
end

showpage

%%Trailer
%%EOF
