%!PS-Adobe-3.0 EPSF-3.0
%%Creator: MATLAB, The MathWorks, Inc. Version 8.3.0.532 (R2014a). Operating System: Linux 3.13.0-57-generic #95-Ubuntu SMP Fri Jun 19 09:28:15 UTC 2015 x86_64.
%%Title: ./cf_827and4000_boradband_noise_10trails.eps
%%CreationDate: 09/22/2015  19:32:35
%%DocumentNeededFonts: Helvetica
%%DocumentProcessColors: Cyan Magenta Yellow Black
%%LanguageLevel: 2
%%Pages: 1
%%BoundingBox:    47   191   551   606
%%EndComments

%%BeginProlog
% MathWorks dictionary
/MathWorks 160 dict begin
% definition operators
/bdef {bind def} bind def
/ldef {load def} bind def
/xdef {exch def} bdef
/xstore {exch store} bdef
% operator abbreviations
/c  /clip ldef
/cc /concat ldef
/cp /closepath ldef
/gr /grestore ldef
/gs /gsave ldef
/mt /moveto ldef
/np /newpath ldef
/cm /currentmatrix ldef
/sm /setmatrix ldef
/rm /rmoveto ldef
/rl /rlineto ldef
/s {show newpath} bdef
/sc {setcmykcolor} bdef
/sr /setrgbcolor ldef
/sg /setgray ldef
/w /setlinewidth ldef
/j /setlinejoin ldef
/cap /setlinecap ldef
/rc {rectclip} bdef
/rf {rectfill} bdef
% page state control
/pgsv () def
/bpage {/pgsv save def} bdef
/epage {pgsv restore} bdef
/bplot /gsave ldef
/eplot {stroke grestore} bdef
% orientation switch
/portraitMode 0 def /landscapeMode 1 def /rotateMode 2 def
% coordinate system mappings
/dpi2point 0 def
% font control
/FontSize 0 def
/FMS {/FontSize xstore findfont [FontSize 0 0 FontSize neg 0 0]
  makefont setfont} bdef
/reencode {exch dup where {pop load} {pop StandardEncoding} ifelse
  exch dup 3 1 roll findfont dup length dict begin
  { 1 index /FID ne {def}{pop pop} ifelse } forall
  /Encoding exch def currentdict end definefont pop} bdef
/isroman {findfont /CharStrings get /Agrave known} bdef
/FMSR {3 1 roll 1 index dup isroman {reencode} {pop pop} ifelse
  exch FMS} bdef
/csm {1 dpi2point div -1 dpi2point div scale neg translate
 dup landscapeMode eq {pop -90 rotate}
  {rotateMode eq {90 rotate} if} ifelse} bdef
% line types: solid, dotted, dashed, dotdash
/SO { [] 0 setdash } bdef
/DO { [.5 dpi2point mul 4 dpi2point mul] 0 setdash } bdef
/DA { [6 dpi2point mul] 0 setdash } bdef
/DD { [.5 dpi2point mul 4 dpi2point mul 6 dpi2point mul 4
  dpi2point mul] 0 setdash } bdef
% macros for lines and objects
/L {lineto stroke} bdef
/MP {3 1 roll moveto 1 sub {rlineto} repeat} bdef
/AP {{rlineto} repeat} bdef
/PDlw -1 def
/W {/PDlw currentlinewidth def setlinewidth} def
/PP {closepath eofill} bdef
/DP {closepath stroke} bdef
/MR {4 -2 roll moveto dup  0 exch rlineto exch 0 rlineto
  neg 0 exch rlineto closepath} bdef
/FR {MR stroke} bdef
/PR {MR fill} bdef
/L1i {{currentfile picstr readhexstring pop} image} bdef
/tMatrix matrix def
/MakeOval {newpath tMatrix currentmatrix pop translate scale
0 0 1 0 360 arc tMatrix setmatrix} bdef
/FO {MakeOval stroke} bdef
/PO {MakeOval fill} bdef
/PD {currentlinewidth 2 div 0 360 arc fill
   PDlw -1 eq not {PDlw w /PDlw -1 def} if} def
/FA {newpath tMatrix currentmatrix pop translate scale
  0 0 1 5 -2 roll arc tMatrix setmatrix stroke} bdef
/PA {newpath tMatrix currentmatrix pop	translate 0 0 moveto scale
  0 0 1 5 -2 roll arc closepath tMatrix setmatrix fill} bdef
/FAn {newpath tMatrix currentmatrix pop translate scale
  0 0 1 5 -2 roll arcn tMatrix setmatrix stroke} bdef
/PAn {newpath tMatrix currentmatrix pop translate 0 0 moveto scale
  0 0 1 5 -2 roll arcn closepath tMatrix setmatrix fill} bdef
/vradius 0 def /hradius 0 def /lry 0 def
/lrx 0 def /uly 0 def /ulx 0 def /rad 0 def
/MRR {/vradius xdef /hradius xdef /lry xdef /lrx xdef /uly xdef
  /ulx xdef newpath tMatrix currentmatrix pop ulx hradius add uly
  vradius add translate hradius vradius scale 0 0 1 180 270 arc 
  tMatrix setmatrix lrx hradius sub uly vradius add translate
  hradius vradius scale 0 0 1 270 360 arc tMatrix setmatrix
  lrx hradius sub lry vradius sub translate hradius vradius scale
  0 0 1 0 90 arc tMatrix setmatrix ulx hradius add lry vradius sub
  translate hradius vradius scale 0 0 1 90 180 arc tMatrix setmatrix
  closepath} bdef
/FRR {MRR stroke } bdef
/PRR {MRR fill } bdef
/MlrRR {/lry xdef /lrx xdef /uly xdef /ulx xdef /rad lry uly sub 2 div def
  newpath tMatrix currentmatrix pop ulx rad add uly rad add translate
  rad rad scale 0 0 1 90 270 arc tMatrix setmatrix lrx rad sub lry rad
  sub translate rad rad scale 0 0 1 270 90 arc tMatrix setmatrix
  closepath} bdef
/FlrRR {MlrRR stroke } bdef
/PlrRR {MlrRR fill } bdef
/MtbRR {/lry xdef /lrx xdef /uly xdef /ulx xdef /rad lrx ulx sub 2 div def
  newpath tMatrix currentmatrix pop ulx rad add uly rad add translate
  rad rad scale 0 0 1 180 360 arc tMatrix setmatrix lrx rad sub lry rad
  sub translate rad rad scale 0 0 1 0 180 arc tMatrix setmatrix
  closepath} bdef
/FtbRR {MtbRR stroke } bdef
/PtbRR {MtbRR fill } bdef
/stri 6 array def /dtri 6 array def
/smat 6 array def /dmat 6 array def
/tmat1 6 array def /tmat2 6 array def /dif 3 array def
/asub {/ind2 exch def /ind1 exch def dup dup
  ind1 get exch ind2 get sub exch } bdef
/tri_to_matrix {
  2 0 asub 3 1 asub 4 0 asub 5 1 asub
  dup 0 get exch 1 get 7 -1 roll astore } bdef
/compute_transform {
  dmat dtri tri_to_matrix tmat1 invertmatrix 
  smat stri tri_to_matrix tmat2 concatmatrix } bdef
/ds {stri astore pop} bdef
/dt {dtri astore pop} bdef
/db {2 copy /cols xdef /rows xdef mul dup 3 mul string
  currentfile 
  3 index 0 eq {/ASCIIHexDecode filter}
  {/ASCII85Decode filter 3 index 2 eq {/RunLengthDecode filter} if }
  ifelse exch readstring pop
  dup 0 3 index getinterval /rbmap xdef
  dup 2 index dup getinterval /gbmap xdef
  1 index dup 2 mul exch getinterval /bbmap xdef pop pop}bdef
/it {gs np dtri aload pop moveto lineto lineto cp c
  cols rows 8 compute_transform 
  rbmap gbmap bbmap true 3 colorimage gr}bdef
/il {newpath moveto lineto stroke}bdef
currentdict end def
%%EndProlog

%%BeginSetup
MathWorks begin

0 cap

end
%%EndSetup

%%Page: 1 1
%%BeginPageSetup
%%PageBoundingBox:    47   191   551   606
MathWorks begin
bpage
%%EndPageSetup

%%BeginObject: obj1
bplot

/dpi2point 12 def
portraitMode 0216 7344 csm

  358    70  6039  4975 rc
86 dict begin %Colortable dictionary
/c0 { 0.000000 0.000000 0.000000 sr} bdef
/c1 { 1.000000 1.000000 1.000000 sr} bdef
/c2 { 0.900000 0.000000 0.000000 sr} bdef
/c3 { 0.000000 0.820000 0.000000 sr} bdef
/c4 { 0.000000 0.000000 0.800000 sr} bdef
/c5 { 0.910000 0.820000 0.320000 sr} bdef
/c6 { 1.000000 0.260000 0.820000 sr} bdef
/c7 { 0.000000 0.820000 0.820000 sr} bdef
c0
1 j
1 sg
   0    0 6913 5186 rf
6 w
0 1728 5356 0 0 -1728 899 2158 4 MP
PP
-5356 0 0 1728 5356 0 0 -1728 899 2158 5 MP stroke
4 w
DO
SO
6 w
0 sg
 899 2158 mt 6255 2158 L
 899  430 mt 6255  430 L
 899 2158 mt  899  430 L
6255 2158 mt 6255  430 L
 899 2158 mt 6255 2158 L
 899 2158 mt  899  430 L
 899 2158 mt  899 2104 L
 899  431 mt  899  484 L
%%IncludeResource: font Helvetica
/Helvetica /ISOLatin1Encoding 168 FMSR

 708 2348 mt 
(-20) s
1970 2158 mt 1970 2104 L
1970  431 mt 1970  484 L
1924 2348 mt 
(0) s
3041 2158 mt 3041 2104 L
3041  431 mt 3041  484 L
2948 2348 mt 
(20) s
4112 2158 mt 4112 2104 L
4112  431 mt 4112  484 L
4019 2348 mt 
(40) s
5183 2158 mt 5183 2104 L
5183  431 mt 5183  484 L
5090 2348 mt 
(60) s
6255 2158 mt 6255 2104 L
6255  431 mt 6255  484 L
6162 2348 mt 
(80) s
 899 2158 mt  952 2158 L
6255 2158 mt 6201 2158 L
 771 2220 mt 
(1) s
 899 1812 mt  952 1812 L
6255 1812 mt 6201 1812 L
 631 1874 mt 
(1.5) s
 899 1467 mt  952 1467 L
6255 1467 mt 6201 1467 L
 771 1529 mt 
(2) s
 899 1121 mt  952 1121 L
6255 1121 mt 6201 1121 L
 631 1183 mt 
(2.5) s
 899  776 mt  952  776 L
6255  776 mt 6201  776 L
 771  838 mt 
(3) s
 899  431 mt  952  431 L
6255  431 mt 6201  431 L
 631  493 mt 
(3.5) s
 899 2158 mt 6255 2158 L
 899  430 mt 6255  430 L
 899 2158 mt  899  430 L
6255 2158 mt 6255  430 L
gs 899 431 5357 1728 rc
215 -94 214 -144 214 -84 214 51 215 41 214 93 214 31 214 -50 
215 97 214 -101 214 74 214 20 215 -38 214 149 214 -93 214 46 
215 136 214 159 214 -55 214 -147 215 -151 214 -213 214 -37 214 -71 
214 -42 899 1726 26 MP stroke
gr

gs 826 937 5503 863 rc
/c8 { 1.000000 0.000000 0.000000 sr} bdef
c8
  36   36  899 1726 PO
  36   36 1113 1684 PO
  36   36 1327 1613 PO
  36   36 1541 1576 PO
  36   36 1755 1363 PO
  36   36 1970 1212 PO
  36   36 2184 1065 PO
  36   36 2398 1010 PO
  36   36 2612 1169 PO
  36   36 2827 1305 PO
  36   36 3041 1351 PO
  36   36 3255 1258 PO
  36   36 3469 1407 PO
  36   36 3684 1369 PO
  36   36 3898 1389 PO
  36   36 4112 1463 PO
  36   36 4326 1362 PO
  36   36 4541 1459 PO
  36   36 4755 1409 PO
  36   36 4969 1440 PO
  36   36 5183 1533 PO
  36   36 5398 1574 PO
  36   36 5612 1625 PO
  36   36 5826 1541 PO
  36   36 6040 1397 PO
  36   36 6255 1303 PO
0 sg
  36   36  899 1726 FO
  36   36 1113 1684 FO
  36   36 1327 1613 FO
  36   36 1541 1576 FO
  36   36 1755 1363 FO
  36   36 1970 1212 FO
  36   36 2184 1065 FO
  36   36 2398 1010 FO
  36   36 2612 1169 FO
  36   36 2827 1305 FO
  36   36 3041 1351 FO
  36   36 3255 1258 FO
  36   36 3469 1407 FO
  36   36 3684 1369 FO
  36   36 3898 1389 FO
  36   36 4112 1463 FO
  36   36 4326 1362 FO
  36   36 4541 1459 FO
  36   36 4755 1409 FO
  36   36 4969 1440 FO
  36   36 5183 1533 FO
  36   36 5398 1574 FO
  36   36 5612 1625 FO
  36   36 5826 1541 FO
  36   36 6040 1397 FO
  36   36 6255 1303 FO
gr

gs 899 431 5357 1728 rc
gr

3207 2526 mt 
(Level [dB]) s
 539 1766 mt  -90 rotate
(Max Sumcor) s
90 rotate
2339  299 mt 
(Level vs Firing-Rate, CF=827 Hz) s
 876 2219 mt 
( ) s
6233  491 mt 
( ) s
gs 899 431 5357 1728 rc
215 -182 214 -104 214 -76 214 18 215 24 214 51 214 122 214 -158 
215 42 214 10 214 149 214 12 215 -112 214 93 214 100 214 55 
215 -131 214 22 214 137 214 -182 215 116 214 -16 214 -442 214 84 
214 -332 899 1939 26 MP stroke
gr

gs 826 1094 5503 919 rc
0 j
-41 71 -41 -71 82 0 858 1963 4 MP
/c9 { 0.000000 0.000000 1.000000 sr} bdef
c9
gs
PP
gr
0 sg
DP
-41 71 -41 -71 82 0 1072 1631 4 MP
c9
gs
PP
gr
0 sg
DP
-41 71 -41 -71 82 0 1286 1715 4 MP
c9
gs
PP
gr
0 sg
DP
-41 71 -41 -71 82 0 1500 1273 4 MP
c9
gs
PP
gr
0 sg
DP
-41 71 -41 -71 82 0 1714 1257 4 MP
c9
gs
PP
gr
0 sg
DP
-41 71 -41 -71 82 0 1929 1373 4 MP
c9
gs
PP
gr
0 sg
DP
-41 71 -41 -71 82 0 2143 1191 4 MP
c9
gs
PP
gr
0 sg
DP
-41 71 -41 -71 82 0 2357 1328 4 MP
c9
gs
PP
gr
0 sg
DP
-41 71 -41 -71 82 0 2571 1350 4 MP
c9
gs
PP
gr
0 sg
DP
-41 71 -41 -71 82 0 2786 1219 4 MP
c9
gs
PP
gr
0 sg
DP
-41 71 -41 -71 82 0 3000 1274 4 MP
c9
gs
PP
gr
0 sg
DP
-41 71 -41 -71 82 0 3214 1374 4 MP
c9
gs
PP
gr
0 sg
DP
-41 71 -41 -71 82 0 3428 1467 4 MP
c9
gs
PP
gr
0 sg
DP
-41 71 -41 -71 82 0 3643 1355 4 MP
c9
gs
PP
gr
0 sg
DP
-41 71 -41 -71 82 0 3857 1367 4 MP
c9
gs
PP
gr
0 sg
DP
-41 71 -41 -71 82 0 4071 1516 4 MP
c9
gs
PP
gr
0 sg
DP
-41 71 -41 -71 82 0 4285 1526 4 MP
c9
gs
PP
gr
0 sg
DP
-41 71 -41 -71 82 0 4500 1568 4 MP
c9
gs
PP
gr
0 sg
DP
-41 71 -41 -71 82 0 4714 1410 4 MP
c9
gs
PP
gr
0 sg
DP
-41 71 -41 -71 82 0 4928 1532 4 MP
c9
gs
PP
gr
0 sg
DP
-41 71 -41 -71 82 0 5142 1583 4 MP
c9
gs
PP
gr
0 sg
DP
-41 71 -41 -71 82 0 5357 1607 4 MP
c9
gs
PP
gr
0 sg
DP
-41 71 -41 -71 82 0 5571 1625 4 MP
c9
gs
PP
gr
0 sg
DP
-41 71 -41 -71 82 0 5785 1549 4 MP
c9
gs
PP
gr
0 sg
DP
-41 71 -41 -71 82 0 5999 1445 4 MP
c9
gs
PP
gr
0 sg
DP
-41 71 -41 -71 82 0 6214 1263 4 MP
c9
gs
PP
gr
0 sg
DP
gr

gs 899 431 5357 1728 rc
215 69 214 -137 214 -95 214 -2 215 -58 214 70 214 121 214 -139 
215 118 214 -46 214 27 214 101 215 -181 214 170 214 -52 214 -38 
215 88 214 33 214 -6 214 92 215 -101 214 -101 214 -122 214 -49 
214 -336 899 1911 26 MP stroke
gr

gs 826 1129 5503 856 rc
0 j
0 -58 -58 0 0 58 58 0 870 1882 5 MP
/c10 { 0.000000 1.000000 0.000000 sr} bdef
c10
gs
PP
gr
0 sg
DP
0 -58 -58 0 0 58 58 0 1084 1546 5 MP
c10
gs
PP
gr
0 sg
DP
0 -58 -58 0 0 58 58 0 1298 1497 5 MP
c10
gs
PP
gr
0 sg
DP
0 -58 -58 0 0 58 58 0 1512 1375 5 MP
c10
gs
PP
gr
0 sg
DP
0 -58 -58 0 0 58 58 0 1726 1274 5 MP
c10
gs
PP
gr
0 sg
DP
0 -58 -58 0 0 58 58 0 1941 1173 5 MP
c10
gs
PP
gr
0 sg
DP
0 -58 -58 0 0 58 58 0 2155 1265 5 MP
c10
gs
PP
gr
0 sg
DP
0 -58 -58 0 0 58 58 0 2369 1259 5 MP
c10
gs
PP
gr
0 sg
DP
0 -58 -58 0 0 58 58 0 2583 1292 5 MP
c10
gs
PP
gr
0 sg
DP
0 -58 -58 0 0 58 58 0 2798 1380 5 MP
c10
gs
PP
gr
0 sg
DP
0 -58 -58 0 0 58 58 0 3012 1342 5 MP
c10
gs
PP
gr
0 sg
DP
0 -58 -58 0 0 58 58 0 3226 1290 5 MP
c10
gs
PP
gr
0 sg
DP
0 -58 -58 0 0 58 58 0 3440 1460 5 MP
c10
gs
PP
gr
0 sg
DP
0 -58 -58 0 0 58 58 0 3655 1279 5 MP
c10
gs
PP
gr
0 sg
DP
0 -58 -58 0 0 58 58 0 3869 1380 5 MP
c10
gs
PP
gr
0 sg
DP
0 -58 -58 0 0 58 58 0 4083 1407 5 MP
c10
gs
PP
gr
0 sg
DP
0 -58 -58 0 0 58 58 0 4297 1361 5 MP
c10
gs
PP
gr
0 sg
DP
0 -58 -58 0 0 58 58 0 4512 1479 5 MP
c10
gs
PP
gr
0 sg
DP
0 -58 -58 0 0 58 58 0 4726 1340 5 MP
c10
gs
PP
gr
0 sg
DP
0 -58 -58 0 0 58 58 0 4940 1461 5 MP
c10
gs
PP
gr
0 sg
DP
0 -58 -58 0 0 58 58 0 5154 1531 5 MP
c10
gs
PP
gr
0 sg
DP
0 -58 -58 0 0 58 58 0 5369 1473 5 MP
c10
gs
PP
gr
0 sg
DP
0 -58 -58 0 0 58 58 0 5583 1471 5 MP
c10
gs
PP
gr
0 sg
DP
0 -58 -58 0 0 58 58 0 5797 1376 5 MP
c10
gs
PP
gr
0 sg
DP
0 -58 -58 0 0 58 58 0 6011 1239 5 MP
c10
gs
PP
gr
0 sg
DP
0 -58 -58 0 0 58 58 0 6226 1308 5 MP
c10
gs
PP
gr
0 sg
DP
gr

gs 899 431 5357 1728 rc
215 -65 214 -50 214 -142 214 -51 215 60 214 112 214 28 214 -37 
215 -70 214 14 214 9 214 -55 215 26 214 61 214 6 214 -25 
215 0 214 48 214 -17 214 68 215 -42 214 -247 214 71 214 -258 
214 -58 899 1872 26 MP stroke
gr

gs 826 1185 5503 761 rc
0 j
41 71 -82 0 41 -71 899 1919 4 MP
gs
PP
gr
DP
41 71 -82 0 41 -71 1113 1861 4 MP
gs
PP
gr
DP
41 71 -82 0 41 -71 1327 1603 4 MP
gs
PP
gr
DP
41 71 -82 0 41 -71 1541 1674 4 MP
gs
PP
gr
DP
41 71 -82 0 41 -71 1755 1427 4 MP
gs
PP
gr
DP
41 71 -82 0 41 -71 1970 1385 4 MP
gs
PP
gr
DP
41 71 -82 0 41 -71 2184 1453 4 MP
gs
PP
gr
DP
41 71 -82 0 41 -71 2398 1436 4 MP
gs
PP
gr
DP
41 71 -82 0 41 -71 2612 1484 4 MP
gs
PP
gr
DP
41 71 -82 0 41 -71 2827 1484 4 MP
gs
PP
gr
DP
41 71 -82 0 41 -71 3041 1459 4 MP
gs
PP
gr
DP
41 71 -82 0 41 -71 3255 1465 4 MP
gs
PP
gr
DP
41 71 -82 0 41 -71 3469 1526 4 MP
gs
PP
gr
DP
41 71 -82 0 41 -71 3684 1552 4 MP
gs
PP
gr
DP
41 71 -82 0 41 -71 3898 1497 4 MP
gs
PP
gr
DP
41 71 -82 0 41 -71 4112 1506 4 MP
gs
PP
gr
DP
41 71 -82 0 41 -71 4326 1520 4 MP
gs
PP
gr
DP
41 71 -82 0 41 -71 4541 1450 4 MP
gs
PP
gr
DP
41 71 -82 0 41 -71 4755 1413 4 MP
gs
PP
gr
DP
41 71 -82 0 41 -71 4969 1441 4 MP
gs
PP
gr
DP
41 71 -82 0 41 -71 5183 1553 4 MP
gs
PP
gr
DP
41 71 -82 0 41 -71 5398 1613 4 MP
gs
PP
gr
DP
41 71 -82 0 41 -71 5612 1562 4 MP
gs
PP
gr
DP
41 71 -82 0 41 -71 5826 1420 4 MP
gs
PP
gr
DP
41 71 -82 0 41 -71 6040 1370 4 MP
gs
PP
gr
DP
41 71 -82 0 41 -71 6255 1305 4 MP
gs
PP
gr
DP
gr

gs 899 431 5357 1728 rc
gr

1 sg
0 1150 1038 0 0 -1150 5158 1642 4 MP
PP
-1038 0 0 1150 1038 0 0 -1150 5158 1642 5 MP stroke
4 w
DO
SO
6 w
0 sg
5158 1642 mt 6196 1642 L
5158  492 mt 6196  492 L
5158 1642 mt 5158  492 L
6196 1642 mt 6196  492 L
5158 1642 mt 6196 1642 L
5158 1642 mt 5158  492 L
5158 1642 mt 6196 1642 L
5158  492 mt 6196  492 L
5158 1642 mt 5158  492 L
6196 1642 mt 6196  492 L
5718  643 mt 
(f) s
%%IncludeResource: font Helvetica
/Helvetica /ISOLatin1Encoding 132 FMSR

5764  727 mt 
(M) s
%%IncludeResource: font Helvetica
/Helvetica /ISOLatin1Encoding 168 FMSR

5873  643 mt 
(=25) s
gs 5158 492 1039 1151 rc
430 0 5244 654 2 MP stroke
gs 5386 581 147 147 rc
c8
  36   36 5459  654 PO
0 sg
  36   36 5459  654 FO
gr

gr

5718  918 mt 
(f) s
%%IncludeResource: font Helvetica
/Helvetica /ISOLatin1Encoding 132 FMSR

5764 1002 mt 
(M) s
%%IncludeResource: font Helvetica
/Helvetica /ISOLatin1Encoding 168 FMSR

5873  918 mt 
(=50) s
gs 5158 492 1039 1151 rc
430 0 5244 929 2 MP stroke
gs 5386 856 147 147 rc
0 j
-41 71 -41 -71 82 0 5418 953 4 MP
c9
gs
PP
gr
0 sg
DP
gr

gr

5718 1193 mt 
(f) s
%%IncludeResource: font Helvetica
/Helvetica /ISOLatin1Encoding 132 FMSR

5764 1277 mt 
(M) s
%%IncludeResource: font Helvetica
/Helvetica /ISOLatin1Encoding 168 FMSR

5873 1193 mt 
(=100) s
gs 5158 492 1039 1151 rc
430 0 5244 1204 2 MP stroke
gs 5386 1131 147 147 rc
0 j
0 -58 -58 0 0 58 58 0 5430 1175 5 MP
c10
gs
PP
gr
0 sg
DP
gr

gr

5718 1468 mt 
(f) s
%%IncludeResource: font Helvetica
/Helvetica /ISOLatin1Encoding 132 FMSR

5764 1552 mt 
(M) s
%%IncludeResource: font Helvetica
/Helvetica /ISOLatin1Encoding 168 FMSR

5873 1468 mt 
(=200) s
gs 5158 492 1039 1151 rc
430 0 5244 1479 2 MP stroke
gs 5386 1406 147 147 rc
0 j
41 71 -82 0 41 -71 5459 1526 4 MP
gs
PP
gr
DP
gr

gr

1 sg
0 1727 5356 0 0 -1727 899 4615 4 MP
PP
-5356 0 0 1727 5356 0 0 -1727 899 4615 5 MP stroke
4 w
DO
SO
6 w
0 sg
 899 4615 mt 6255 4615 L
 899 2888 mt 6255 2888 L
 899 4615 mt  899 2888 L
6255 4615 mt 6255 2888 L
 899 4615 mt 6255 4615 L
 899 4615 mt  899 2888 L
 899 4615 mt  899 4561 L
 899 2888 mt  899 2941 L
 708 4805 mt 
(-20) s
1970 4615 mt 1970 4561 L
1970 2888 mt 1970 2941 L
1924 4805 mt 
(0) s
3041 4615 mt 3041 4561 L
3041 2888 mt 3041 2941 L
2948 4805 mt 
(20) s
4112 4615 mt 4112 4561 L
4112 2888 mt 4112 2941 L
4019 4805 mt 
(40) s
5183 4615 mt 5183 4561 L
5183 2888 mt 5183 2941 L
5090 4805 mt 
(60) s
6255 4615 mt 6255 4561 L
6255 2888 mt 6255 2941 L
6162 4805 mt 
(80) s
 899 4615 mt  952 4615 L
6255 4615 mt 6201 4615 L
 771 4677 mt 
(1) s
 899 4269 mt  952 4269 L
6255 4269 mt 6201 4269 L
 631 4331 mt 
(1.5) s
 899 3924 mt  952 3924 L
6255 3924 mt 6201 3924 L
 771 3986 mt 
(2) s
 899 3578 mt  952 3578 L
6255 3578 mt 6201 3578 L
 631 3640 mt 
(2.5) s
 899 3233 mt  952 3233 L
6255 3233 mt 6201 3233 L
 771 3295 mt 
(3) s
 899 2888 mt  952 2888 L
6255 2888 mt 6201 2888 L
 631 2950 mt 
(3.5) s
 899 4615 mt 6255 4615 L
 899 2888 mt 6255 2888 L
 899 4615 mt  899 2888 L
6255 4615 mt 6255 2888 L
gs 899 2888 5357 1728 rc
215 115 214 -119 214 -12 214 -10 215 -129 214 42 214 -119 214 175 
215 31 214 4 214 82 214 9 215 21 214 136 214 132 214 68 
215 85 214 142 214 -65 214 155 215 240 214 -6 214 -288 214 -547 
214 -335 899 4358 26 MP stroke
gr

gs 826 3109 5503 1362 rc
c8
  36   36  899 4358 PO
  36   36 1113 4023 PO
  36   36 1327 3476 PO
  36   36 1541 3188 PO
  36   36 1755 3182 PO
  36   36 1970 3422 PO
  36   36 2184 3577 PO
  36   36 2398 3512 PO
  36   36 2612 3654 PO
  36   36 2827 3739 PO
  36   36 3041 3807 PO
  36   36 3255 3939 PO
  36   36 3469 4075 PO
  36   36 3684 4096 PO
  36   36 3898 4105 PO
  36   36 4112 4187 PO
  36   36 4326 4191 PO
  36   36 4541 4222 PO
  36   36 4755 4397 PO
  36   36 4969 4278 PO
  36   36 5183 4320 PO
  36   36 5398 4191 PO
  36   36 5612 4181 PO
  36   36 5826 4169 PO
  36   36 6040 4050 PO
  36   36 6255 4165 PO
0 sg
  36   36  899 4358 FO
  36   36 1113 4023 FO
  36   36 1327 3476 FO
  36   36 1541 3188 FO
  36   36 1755 3182 FO
  36   36 1970 3422 FO
  36   36 2184 3577 FO
  36   36 2398 3512 FO
  36   36 2612 3654 FO
  36   36 2827 3739 FO
  36   36 3041 3807 FO
  36   36 3255 3939 FO
  36   36 3469 4075 FO
  36   36 3684 4096 FO
  36   36 3898 4105 FO
  36   36 4112 4187 FO
  36   36 4326 4191 FO
  36   36 4541 4222 FO
  36   36 4755 4397 FO
  36   36 4969 4278 FO
  36   36 5183 4320 FO
  36   36 5398 4191 FO
  36   36 5612 4181 FO
  36   36 5826 4169 FO
  36   36 6040 4050 FO
  36   36 6255 4165 FO
gr

gs 899 2888 5357 1728 rc
gr

3207 4983 mt 
(Level [dB]) s
 539 4223 mt  -90 rotate
(Max Sumcor) s
90 rotate
2292 2756 mt 
(Level vs Firing-Rate, CF=4000 Hz) s
 876 4676 mt 
( ) s
6233 2948 mt 
( ) s
gs 899 2888 5357 1728 rc
213 -808 214 -337 214 -384 899 4417 4 MP stroke
gr

gs 826 2815 5503 1676 rc
0 j
-41 71 -41 -71 82 0 858 4441 4 MP
c9
gs
PP
gr
0 sg
DP
-41 71 -41 -71 82 0 1072 4057 4 MP
c9
gs
PP
gr
0 sg
DP
-41 71 -41 -71 82 0 1286 3720 4 MP
c9
gs
PP
gr
0 sg
DP
gr

gs 899 2888 5357 1728 rc
215 20 214 -45 214 2 214 -79 215 -9 214 -41 214 -6 214 97 
215 -5 214 130 214 -8 214 37 215 228 214 6 214 145 214 -34 
215 176 214 211 214 255 214 -64 166 263 1804 2888 22 MP stroke
gr

gs 826 2815 5503 1676 rc
0 j
-41 71 -41 -71 82 0 1929 3175 4 MP
c9
gs
PP
gr
0 sg
DP
-41 71 -41 -71 82 0 2143 3111 4 MP
c9
gs
PP
gr
0 sg
DP
-41 71 -41 -71 82 0 2357 3366 4 MP
c9
gs
PP
gr
0 sg
DP
-41 71 -41 -71 82 0 2571 3577 4 MP
c9
gs
PP
gr
0 sg
DP
-41 71 -41 -71 82 0 2786 3753 4 MP
c9
gs
PP
gr
0 sg
DP
-41 71 -41 -71 82 0 3000 3719 4 MP
c9
gs
PP
gr
0 sg
DP
-41 71 -41 -71 82 0 3214 3864 4 MP
c9
gs
PP
gr
0 sg
DP
-41 71 -41 -71 82 0 3428 3870 4 MP
c9
gs
PP
gr
0 sg
DP
-41 71 -41 -71 82 0 3643 4098 4 MP
c9
gs
PP
gr
0 sg
DP
-41 71 -41 -71 82 0 3857 4135 4 MP
c9
gs
PP
gr
0 sg
DP
-41 71 -41 -71 82 0 4071 4127 4 MP
c9
gs
PP
gr
0 sg
DP
-41 71 -41 -71 82 0 4285 4257 4 MP
c9
gs
PP
gr
0 sg
DP
-41 71 -41 -71 82 0 4500 4252 4 MP
c9
gs
PP
gr
0 sg
DP
-41 71 -41 -71 82 0 4714 4349 4 MP
c9
gs
PP
gr
0 sg
DP
-41 71 -41 -71 82 0 4928 4343 4 MP
c9
gs
PP
gr
0 sg
DP
-41 71 -41 -71 82 0 5142 4302 4 MP
c9
gs
PP
gr
0 sg
DP
-41 71 -41 -71 82 0 5357 4293 4 MP
c9
gs
PP
gr
0 sg
DP
-41 71 -41 -71 82 0 5571 4214 4 MP
c9
gs
PP
gr
0 sg
DP
-41 71 -41 -71 82 0 5785 4216 4 MP
c9
gs
PP
gr
0 sg
DP
-41 71 -41 -71 82 0 5999 4171 4 MP
c9
gs
PP
gr
0 sg
DP
-41 71 -41 -71 82 0 6214 4191 4 MP
c9
gs
PP
gr
0 sg
DP
gr

gs 899 2888 5357 1728 rc
209 -138 214 -1094 214 -167 899 4287 4 MP stroke
gr

gs 826 2815 5503 1616 rc
0 j
0 -58 -58 0 0 58 58 0 870 4258 5 MP
c10
gs
PP
gr
0 sg
DP
0 -58 -58 0 0 58 58 0 1084 4091 5 MP
c10
gs
PP
gr
0 sg
DP
0 -58 -58 0 0 58 58 0 1298 2997 5 MP
c10
gs
PP
gr
0 sg
DP
gr

gs 899 2888 5357 1728 rc
215 -84 214 -21 214 -119 214 56 215 -64 214 -29 214 -25 214 38 
215 39 214 130 214 -20 214 151 215 142 214 150 214 11 214 94 
215 279 214 96 214 -67 214 247 215 121 203 58 1552 2888 23 MP stroke
gr

gs 826 2815 5503 1616 rc
0 j
0 -58 -58 0 0 58 58 0 1726 2917 5 MP
c10
gs
PP
gr
0 sg
DP
0 -58 -58 0 0 58 58 0 1941 3038 5 MP
c10
gs
PP
gr
0 sg
DP
0 -58 -58 0 0 58 58 0 2155 3285 5 MP
c10
gs
PP
gr
0 sg
DP
0 -58 -58 0 0 58 58 0 2369 3218 5 MP
c10
gs
PP
gr
0 sg
DP
0 -58 -58 0 0 58 58 0 2583 3314 5 MP
c10
gs
PP
gr
0 sg
DP
0 -58 -58 0 0 58 58 0 2798 3593 5 MP
c10
gs
PP
gr
0 sg
DP
0 -58 -58 0 0 58 58 0 3012 3687 5 MP
c10
gs
PP
gr
0 sg
DP
0 -58 -58 0 0 58 58 0 3226 3698 5 MP
c10
gs
PP
gr
0 sg
DP
0 -58 -58 0 0 58 58 0 3440 3848 5 MP
c10
gs
PP
gr
0 sg
DP
0 -58 -58 0 0 58 58 0 3655 3990 5 MP
c10
gs
PP
gr
0 sg
DP
0 -58 -58 0 0 58 58 0 3869 4141 5 MP
c10
gs
PP
gr
0 sg
DP
0 -58 -58 0 0 58 58 0 4083 4121 5 MP
c10
gs
PP
gr
0 sg
DP
0 -58 -58 0 0 58 58 0 4297 4251 5 MP
c10
gs
PP
gr
0 sg
DP
0 -58 -58 0 0 58 58 0 4512 4290 5 MP
c10
gs
PP
gr
0 sg
DP
0 -58 -58 0 0 58 58 0 4726 4328 5 MP
c10
gs
PP
gr
0 sg
DP
0 -58 -58 0 0 58 58 0 4940 4303 5 MP
c10
gs
PP
gr
0 sg
DP
0 -58 -58 0 0 58 58 0 5154 4274 5 MP
c10
gs
PP
gr
0 sg
DP
0 -58 -58 0 0 58 58 0 5369 4210 5 MP
c10
gs
PP
gr
0 sg
DP
0 -58 -58 0 0 58 58 0 5583 4266 5 MP
c10
gs
PP
gr
0 sg
DP
0 -58 -58 0 0 58 58 0 5797 4147 5 MP
c10
gs
PP
gr
0 sg
DP
0 -58 -58 0 0 58 58 0 6011 4126 5 MP
c10
gs
PP
gr
0 sg
DP
0 -58 -58 0 0 58 58 0 6226 4042 5 MP
c10
gs
PP
gr
0 sg
DP
gr

gs 899 2888 5357 1728 rc
192 -402 214 -582 214 -531 899 4403 4 MP stroke
gr

gs 826 2815 5503 1662 rc
0 j
41 71 -82 0 41 -71 899 4450 4 MP
gs
PP
gr
DP
41 71 -82 0 41 -71 1113 3919 4 MP
gs
PP
gr
DP
41 71 -82 0 41 -71 1327 3337 4 MP
gs
PP
gr
DP
gr

gs 899 2888 5357 1728 rc
215 22 214 -74 214 27 214 -48 215 -42 214 -87 214 22 214 7 
215 74 214 9 214 155 214 -34 215 78 214 180 214 111 214 330 
215 -40 214 206 214 171 214 -104 215 182 154 118 1601 2888 23 MP stroke
gr

gs 826 2815 5503 1662 rc
0 j
41 71 -82 0 41 -71 1755 3053 4 MP
gs
PP
gr
DP
41 71 -82 0 41 -71 1970 3235 4 MP
gs
PP
gr
DP
41 71 -82 0 41 -71 2184 3131 4 MP
gs
PP
gr
DP
41 71 -82 0 41 -71 2398 3302 4 MP
gs
PP
gr
DP
41 71 -82 0 41 -71 2612 3508 4 MP
gs
PP
gr
DP
41 71 -82 0 41 -71 2827 3468 4 MP
gs
PP
gr
DP
41 71 -82 0 41 -71 3041 3798 4 MP
gs
PP
gr
DP
41 71 -82 0 41 -71 3255 3909 4 MP
gs
PP
gr
DP
41 71 -82 0 41 -71 3469 4089 4 MP
gs
PP
gr
DP
41 71 -82 0 41 -71 3684 4167 4 MP
gs
PP
gr
DP
41 71 -82 0 41 -71 3898 4133 4 MP
gs
PP
gr
DP
41 71 -82 0 41 -71 4112 4288 4 MP
gs
PP
gr
DP
41 71 -82 0 41 -71 4326 4297 4 MP
gs
PP
gr
DP
41 71 -82 0 41 -71 4541 4371 4 MP
gs
PP
gr
DP
41 71 -82 0 41 -71 4755 4378 4 MP
gs
PP
gr
DP
41 71 -82 0 41 -71 4969 4400 4 MP
gs
PP
gr
DP
41 71 -82 0 41 -71 5183 4313 4 MP
gs
PP
gr
DP
41 71 -82 0 41 -71 5398 4271 4 MP
gs
PP
gr
DP
41 71 -82 0 41 -71 5612 4223 4 MP
gs
PP
gr
DP
41 71 -82 0 41 -71 5826 4250 4 MP
gs
PP
gr
DP
41 71 -82 0 41 -71 6040 4176 4 MP
gs
PP
gr
DP
41 71 -82 0 41 -71 6255 4198 4 MP
gs
PP
gr
DP
gr

gs 899 2888 5357 1728 rc
gr

1 sg
0 1150 1038 0 0 -1150 5158 4099 4 MP
PP
-1038 0 0 1150 1038 0 0 -1150 5158 4099 5 MP stroke
4 w
DO
SO
6 w
0 sg
5158 4099 mt 6196 4099 L
5158 2949 mt 6196 2949 L
5158 4099 mt 5158 2949 L
6196 4099 mt 6196 2949 L
5158 4099 mt 6196 4099 L
5158 4099 mt 5158 2949 L
5158 4099 mt 6196 4099 L
5158 2949 mt 6196 2949 L
5158 4099 mt 5158 2949 L
6196 4099 mt 6196 2949 L
5718 3100 mt 
(f) s
%%IncludeResource: font Helvetica
/Helvetica /ISOLatin1Encoding 132 FMSR

5764 3184 mt 
(M) s
%%IncludeResource: font Helvetica
/Helvetica /ISOLatin1Encoding 168 FMSR

5873 3100 mt 
(=25) s
gs 5158 2949 1039 1151 rc
430 0 5244 3111 2 MP stroke
gs 5386 3038 147 147 rc
c8
  36   36 5459 3111 PO
0 sg
  36   36 5459 3111 FO
gr

gr

5718 3375 mt 
(f) s
%%IncludeResource: font Helvetica
/Helvetica /ISOLatin1Encoding 132 FMSR

5764 3459 mt 
(M) s
%%IncludeResource: font Helvetica
/Helvetica /ISOLatin1Encoding 168 FMSR

5873 3375 mt 
(=50) s
gs 5158 2949 1039 1151 rc
430 0 5244 3386 2 MP stroke
gs 5386 3313 147 147 rc
0 j
-41 71 -41 -71 82 0 5418 3410 4 MP
c9
gs
PP
gr
0 sg
DP
gr

gr

5718 3650 mt 
(f) s
%%IncludeResource: font Helvetica
/Helvetica /ISOLatin1Encoding 132 FMSR

5764 3734 mt 
(M) s
%%IncludeResource: font Helvetica
/Helvetica /ISOLatin1Encoding 168 FMSR

5873 3650 mt 
(=100) s
gs 5158 2949 1039 1151 rc
430 0 5244 3661 2 MP stroke
gs 5386 3588 147 147 rc
0 j
0 -58 -58 0 0 58 58 0 5430 3632 5 MP
c10
gs
PP
gr
0 sg
DP
gr

gr

5718 3925 mt 
(f) s
%%IncludeResource: font Helvetica
/Helvetica /ISOLatin1Encoding 132 FMSR

5764 4009 mt 
(M) s
%%IncludeResource: font Helvetica
/Helvetica /ISOLatin1Encoding 168 FMSR

5873 3925 mt 
(=200) s
gs 5158 2949 1039 1151 rc
430 0 5244 3936 2 MP stroke
gs 5386 3863 147 147 rc
0 j
41 71 -82 0 41 -71 5459 3983 4 MP
gs
PP
gr
DP
gr

gr


end %%Color Dict

eplot
%%EndObject

epage
end

showpage

%%Trailer
%%EOF
