%!PS-Adobe-3.0 EPSF-3.0
%%Creator: MATLAB, The MathWorks, Inc. Version 8.3.0.532 (R2014a). Operating System: Linux 3.13.0-57-generic #95-Ubuntu SMP Fri Jun 19 09:28:15 UTC 2015 x86_64.
%%Title: ./modulatedPT1kHz_fm10SacScc_CF1100.eps
%%CreationDate: 10/09/2015  14:39:34
%%DocumentNeededFonts: Helvetica
%%DocumentProcessColors: Cyan Magenta Yellow Black
%%LanguageLevel: 2
%%Pages: 1
%%BoundingBox:    58   199   546   608
%%EndComments

%%BeginProlog
% MathWorks dictionary
/MathWorks 160 dict begin
% definition operators
/bdef {bind def} bind def
/ldef {load def} bind def
/xdef {exch def} bdef
/xstore {exch store} bdef
% operator abbreviations
/c  /clip ldef
/cc /concat ldef
/cp /closepath ldef
/gr /grestore ldef
/gs /gsave ldef
/mt /moveto ldef
/np /newpath ldef
/cm /currentmatrix ldef
/sm /setmatrix ldef
/rm /rmoveto ldef
/rl /rlineto ldef
/s {show newpath} bdef
/sc {setcmykcolor} bdef
/sr /setrgbcolor ldef
/sg /setgray ldef
/w /setlinewidth ldef
/j /setlinejoin ldef
/cap /setlinecap ldef
/rc {rectclip} bdef
/rf {rectfill} bdef
% page state control
/pgsv () def
/bpage {/pgsv save def} bdef
/epage {pgsv restore} bdef
/bplot /gsave ldef
/eplot {stroke grestore} bdef
% orientation switch
/portraitMode 0 def /landscapeMode 1 def /rotateMode 2 def
% coordinate system mappings
/dpi2point 0 def
% font control
/FontSize 0 def
/FMS {/FontSize xstore findfont [FontSize 0 0 FontSize neg 0 0]
  makefont setfont} bdef
/reencode {exch dup where {pop load} {pop StandardEncoding} ifelse
  exch dup 3 1 roll findfont dup length dict begin
  { 1 index /FID ne {def}{pop pop} ifelse } forall
  /Encoding exch def currentdict end definefont pop} bdef
/isroman {findfont /CharStrings get /Agrave known} bdef
/FMSR {3 1 roll 1 index dup isroman {reencode} {pop pop} ifelse
  exch FMS} bdef
/csm {1 dpi2point div -1 dpi2point div scale neg translate
 dup landscapeMode eq {pop -90 rotate}
  {rotateMode eq {90 rotate} if} ifelse} bdef
% line types: solid, dotted, dashed, dotdash
/SO { [] 0 setdash } bdef
/DO { [.5 dpi2point mul 4 dpi2point mul] 0 setdash } bdef
/DA { [6 dpi2point mul] 0 setdash } bdef
/DD { [.5 dpi2point mul 4 dpi2point mul 6 dpi2point mul 4
  dpi2point mul] 0 setdash } bdef
% macros for lines and objects
/L {lineto stroke} bdef
/MP {3 1 roll moveto 1 sub {rlineto} repeat} bdef
/AP {{rlineto} repeat} bdef
/PDlw -1 def
/W {/PDlw currentlinewidth def setlinewidth} def
/PP {closepath eofill} bdef
/DP {closepath stroke} bdef
/MR {4 -2 roll moveto dup  0 exch rlineto exch 0 rlineto
  neg 0 exch rlineto closepath} bdef
/FR {MR stroke} bdef
/PR {MR fill} bdef
/L1i {{currentfile picstr readhexstring pop} image} bdef
/tMatrix matrix def
/MakeOval {newpath tMatrix currentmatrix pop translate scale
0 0 1 0 360 arc tMatrix setmatrix} bdef
/FO {MakeOval stroke} bdef
/PO {MakeOval fill} bdef
/PD {currentlinewidth 2 div 0 360 arc fill
   PDlw -1 eq not {PDlw w /PDlw -1 def} if} def
/FA {newpath tMatrix currentmatrix pop translate scale
  0 0 1 5 -2 roll arc tMatrix setmatrix stroke} bdef
/PA {newpath tMatrix currentmatrix pop	translate 0 0 moveto scale
  0 0 1 5 -2 roll arc closepath tMatrix setmatrix fill} bdef
/FAn {newpath tMatrix currentmatrix pop translate scale
  0 0 1 5 -2 roll arcn tMatrix setmatrix stroke} bdef
/PAn {newpath tMatrix currentmatrix pop translate 0 0 moveto scale
  0 0 1 5 -2 roll arcn closepath tMatrix setmatrix fill} bdef
/vradius 0 def /hradius 0 def /lry 0 def
/lrx 0 def /uly 0 def /ulx 0 def /rad 0 def
/MRR {/vradius xdef /hradius xdef /lry xdef /lrx xdef /uly xdef
  /ulx xdef newpath tMatrix currentmatrix pop ulx hradius add uly
  vradius add translate hradius vradius scale 0 0 1 180 270 arc 
  tMatrix setmatrix lrx hradius sub uly vradius add translate
  hradius vradius scale 0 0 1 270 360 arc tMatrix setmatrix
  lrx hradius sub lry vradius sub translate hradius vradius scale
  0 0 1 0 90 arc tMatrix setmatrix ulx hradius add lry vradius sub
  translate hradius vradius scale 0 0 1 90 180 arc tMatrix setmatrix
  closepath} bdef
/FRR {MRR stroke } bdef
/PRR {MRR fill } bdef
/MlrRR {/lry xdef /lrx xdef /uly xdef /ulx xdef /rad lry uly sub 2 div def
  newpath tMatrix currentmatrix pop ulx rad add uly rad add translate
  rad rad scale 0 0 1 90 270 arc tMatrix setmatrix lrx rad sub lry rad
  sub translate rad rad scale 0 0 1 270 90 arc tMatrix setmatrix
  closepath} bdef
/FlrRR {MlrRR stroke } bdef
/PlrRR {MlrRR fill } bdef
/MtbRR {/lry xdef /lrx xdef /uly xdef /ulx xdef /rad lrx ulx sub 2 div def
  newpath tMatrix currentmatrix pop ulx rad add uly rad add translate
  rad rad scale 0 0 1 180 360 arc tMatrix setmatrix lrx rad sub lry rad
  sub translate rad rad scale 0 0 1 0 180 arc tMatrix setmatrix
  closepath} bdef
/FtbRR {MtbRR stroke } bdef
/PtbRR {MtbRR fill } bdef
/stri 6 array def /dtri 6 array def
/smat 6 array def /dmat 6 array def
/tmat1 6 array def /tmat2 6 array def /dif 3 array def
/asub {/ind2 exch def /ind1 exch def dup dup
  ind1 get exch ind2 get sub exch } bdef
/tri_to_matrix {
  2 0 asub 3 1 asub 4 0 asub 5 1 asub
  dup 0 get exch 1 get 7 -1 roll astore } bdef
/compute_transform {
  dmat dtri tri_to_matrix tmat1 invertmatrix 
  smat stri tri_to_matrix tmat2 concatmatrix } bdef
/ds {stri astore pop} bdef
/dt {dtri astore pop} bdef
/db {2 copy /cols xdef /rows xdef mul dup 3 mul string
  currentfile 
  3 index 0 eq {/ASCIIHexDecode filter}
  {/ASCII85Decode filter 3 index 2 eq {/RunLengthDecode filter} if }
  ifelse exch readstring pop
  dup 0 3 index getinterval /rbmap xdef
  dup 2 index dup getinterval /gbmap xdef
  1 index dup 2 mul exch getinterval /bbmap xdef pop pop}bdef
/it {gs np dtri aload pop moveto lineto lineto cp c
  cols rows 8 compute_transform 
  rbmap gbmap bbmap true 3 colorimage gr}bdef
/il {newpath moveto lineto stroke}bdef
currentdict end def
%%EndProlog

%%BeginSetup
MathWorks begin

0 cap

end
%%EndSetup

%%Page: 1 1
%%BeginPageSetup
%%PageBoundingBox:    58   199   546   608
MathWorks begin
bpage
%%EndPageSetup

%%BeginObject: obj1
bplot

/dpi2point 12 def
portraitMode 0216 7344 csm

  480    37  5865  4918 rc
85 dict begin %Colortable dictionary
/c0 { 0.000000 0.000000 0.000000 sr} bdef
/c1 { 1.000000 1.000000 1.000000 sr} bdef
/c2 { 0.900000 0.000000 0.000000 sr} bdef
/c3 { 0.000000 0.820000 0.000000 sr} bdef
/c4 { 0.000000 0.000000 0.800000 sr} bdef
/c5 { 0.910000 0.820000 0.320000 sr} bdef
/c6 { 1.000000 0.260000 0.820000 sr} bdef
/c7 { 0.000000 0.820000 0.820000 sr} bdef
c0
1 j
1 sg
   0    0 6913 5186 rf
6 w
0 sg
%%IncludeResource: font Helvetica
/Helvetica /ISOLatin1Encoding 120 FMSR

2682  221 mt 
(Neural Correlations CF = 1100Hz) s
1 sg
0 1118 1475 0 0 -1118 899 1507 4 MP
PP
-1475 0 0 1118 1475 0 0 -1118 899 1507 5 MP stroke
4 w
DO
SO
6 w
0 sg
 899 1507 mt 2374 1507 L
 899  389 mt 2374  389 L
 899 1507 mt  899  389 L
2374 1507 mt 2374  389 L
 899 1507 mt 2374 1507 L
 899 1507 mt  899  389 L
 899 1507 mt  899 1492 L
 899  389 mt  899  403 L
 796 1652 mt 
(-2) s
1636 1507 mt 1636 1492 L
1636  389 mt 1636  403 L
1603 1652 mt 
(0) s
2374 1507 mt 2374 1492 L
2374  389 mt 2374  403 L
2341 1652 mt 
(2) s
 899 1507 mt  913 1507 L
2374 1507 mt 2359 1507 L
 798 1551 mt 
(0) s
 899 1227 mt  913 1227 L
2374 1227 mt 2359 1227 L
 798 1271 mt 
(1) s
 899  948 mt  913  948 L
2374  948 mt 2359  948 L
 798  992 mt 
(2) s
 899  668 mt  913  668 L
2374  668 mt 2359  668 L
 798  712 mt 
(3) s
 899  389 mt  913  389 L
2374  389 mt 2359  389 L
 798  433 mt 
(4) s
 899 1507 mt 2374 1507 L
 899  389 mt 2374  389 L
 899 1507 mt  899  389 L
2374 1507 mt 2374  389 L
gs 899 389 1476 1119 rc
24 w
18 -70 19 -144 18 -178 19 -147 18 -131 19 -112 18 -60 18 -30 
19 -10 18 0 19 10 18 29 19 54 18 107 18 131 19 158 
18 174 19 149 18 270 19 -187 18 -80 19 -146 18 -169 18 -161 
19 -145 18 -90 19 -65 18 -27 19 -8 18 -4 18 14 19 29 
18 58 19 89 18 145 19 139 18 186 19 168 18 245 18 -187 
19 -58 18 -168 19 -186 18 -139 19 -145 18 -89 18 -58 19 -29 
18 -14 19 4 18 8 19 27 18 65 19 90 18 145 18 161 
19 169 18 146 19 80 18 187 19 -270 18 -149 18 -174 19 -158 
18 -131 19 -107 18 -54 19 -29 18 -10 19 0 18 10 18 30 
19 61 18 110 19 132 18 147 19 178 18 144 18 70 899 618 80 MP stroke
6 w
/c8 { 1.000000 0.000000 0.000000 sr} bdef
c8
18 10 19 31 18 49 19 102 18 97 19 159 18 135 18 116 
19 156 18 -60 19 -89 18 -106 19 -149 18 -137 18 -135 19 -85 
18 -52 19 -30 18 -9 19 -3 18 10 19 27 18 55 18 95 
19 103 18 152 19 152 18 114 19 143 18 -70 18 -69 19 -104 
18 -162 19 -125 18 -142 19 -79 18 -63 19 -28 18 -5 18 -3 
19 11 18 23 19 54 18 87 19 139 18 123 18 159 19 109 
18 68 19 102 18 -157 19 -107 18 -154 19 -143 18 -121 18 -111 
19 -42 18 -33 19 -6 18 1 19 8 18 30 18 53 19 89 
18 135 19 135 18 126 19 143 18 68 19 57 18 -141 18 -112 
19 -145 18 -145 19 -111 18 -104 19 -52 18 -26 18 -10 899 1500 80 MP stroke
gr

c8
0 sg
1169  294 mt 
(Mod PT C1k M10) s
 882 1550 mt 
( ) s
2358  431 mt 
( ) s
1642  585 mt 
(SAC\(A+\)) s
gs 1142 449 1174 335 rc
24 w
385 0 1218 542 2 MP stroke
gr

24 w
1642  732 mt 
(SCC\(A+,A-\)) s
gs 1142 449 1174 335 rc
6 w
c8
385 0 1218 689 2 MP stroke
gr

6 w
c8
1 sg
0 1118 1475 0 0 -1118 2839 1507 4 MP
PP
-1475 0 0 1118 1475 0 0 -1118 2839 1507 5 MP stroke
4 w
DO
SO
6 w
0 sg
2839 1507 mt 4314 1507 L
2839  389 mt 4314  389 L
2839 1507 mt 2839  389 L
4314 1507 mt 4314  389 L
2839 1507 mt 4314 1507 L
2839 1507 mt 2839  389 L
2839 1507 mt 2839 1492 L
2839  389 mt 2839  403 L
2736 1652 mt 
(-2) s
3576 1507 mt 3576 1492 L
3576  389 mt 3576  403 L
3543 1652 mt 
(0) s
4314 1507 mt 4314 1492 L
4314  389 mt 4314  403 L
4281 1652 mt 
(2) s
2839 1507 mt 2853 1507 L
4314 1507 mt 4299 1507 L
2738 1551 mt 
(0) s
2839 1134 mt 2853 1134 L
4314 1134 mt 4299 1134 L
2738 1178 mt 
(2) s
2839  761 mt 2853  761 L
4314  761 mt 4299  761 L
2738  805 mt 
(4) s
2839  389 mt 2853  389 L
4314  389 mt 4299  389 L
2738  433 mt 
(6) s
2839 1507 mt 4314 1507 L
2839  389 mt 4314  389 L
2839 1507 mt 2839  389 L
4314 1507 mt 4314  389 L
gs 2839 389 1476 1119 rc
24 w
18 15 19 -14 18 -81 19 -60 18 -123 19 -85 18 -61 18 -49 
19 -23 18 -14 19 1 18 9 19 23 18 49 18 60 19 93 
18 122 19 102 18 222 19 -67 18 -20 19 -55 18 -117 18 -83 
19 -138 18 -90 19 -57 18 -33 19 -18 18 -4 18 7 19 19 
18 44 19 76 18 91 19 123 18 139 19 86 18 200 18 -132 
19 -68 18 -86 19 -139 18 -123 19 -91 18 -76 18 -44 19 -19 
18 -7 19 4 18 18 19 33 18 57 19 90 18 138 18 83 
19 117 18 55 19 20 18 67 19 -222 18 -102 18 -122 19 -93 
18 -60 19 -49 18 -23 19 -9 18 -1 19 14 18 23 18 49 
19 62 18 83 19 124 18 60 19 81 18 14 18 -15 2839 1007 80 MP stroke
6 w
c8
18 -2 19 6 18 15 19 35 18 46 19 72 18 90 18 92 
19 143 18 11 19 14 18 -37 19 -86 18 -75 18 -112 19 -88 
18 -58 19 -40 18 -18 19 -10 18 2 19 13 18 33 18 55 
19 72 18 117 19 110 18 82 19 133 18 -28 18 -30 19 -67 
18 -110 19 -106 18 -115 19 -74 18 -48 19 -29 18 -9 18 0 
19 11 18 24 19 47 18 75 19 117 18 90 18 116 19 71 
18 36 19 39 18 -132 19 -95 18 -119 19 -92 18 -84 18 -61 
19 -26 18 -15 19 -4 18 10 19 16 18 42 18 53 19 80 
18 114 19 89 18 81 19 20 18 -7 19 13 18 -137 18 -92 
19 -101 18 -79 19 -45 18 -35 19 -14 18 -2 18 0 2839 1497 80 MP stroke
gr

c8
0 sg
3076  294 mt 
(Mod PT C1k M100) s
2822 1550 mt 
( ) s
4298  431 mt 
( ) s
3581  585 mt 
(SAC\(B+\)) s
gs 3082 449 1173 335 rc
24 w
384 0 3158 542 2 MP stroke
gr

24 w
3581  732 mt 
(SCC\(B+,B-\)) s
gs 3082 449 1173 335 rc
6 w
c8
384 0 3158 689 2 MP stroke
gr

6 w
c8
1 sg
0 1118 1475 0 0 -1118 4780 1507 4 MP
PP
-1475 0 0 1118 1475 0 0 -1118 4780 1507 5 MP stroke
4 w
DO
SO
6 w
0 sg
4780 1507 mt 6255 1507 L
4780  389 mt 6255  389 L
4780 1507 mt 4780  389 L
6255 1507 mt 6255  389 L
4780 1507 mt 6255 1507 L
4780 1507 mt 4780  389 L
4780 1507 mt 4780 1492 L
4780  389 mt 4780  403 L
4677 1652 mt 
(-2) s
5517 1507 mt 5517 1492 L
5517  389 mt 5517  403 L
5484 1652 mt 
(0) s
6255 1507 mt 6255 1492 L
6255  389 mt 6255  403 L
6222 1652 mt 
(2) s
4780 1507 mt 4794 1507 L
6255 1507 mt 6240 1507 L
4679 1551 mt 
(0) s
4780 1227 mt 4794 1227 L
6255 1227 mt 6240 1227 L
4679 1271 mt 
(1) s
4780  948 mt 4794  948 L
6255  948 mt 6240  948 L
4679  992 mt 
(2) s
4780  668 mt 4794  668 L
6255  668 mt 6240  668 L
4679  712 mt 
(3) s
4780  389 mt 4794  389 L
6255  389 mt 6240  389 L
4679  433 mt 
(4) s
4780 1507 mt 6255 1507 L
4780  389 mt 6255  389 L
4780 1507 mt 4780  389 L
6255 1507 mt 6255  389 L
gs 4780 389 1476 1119 rc
24 w
18 -4 19 9 18 22 19 53 18 70 19 107 18 135 18 139 
19 214 18 17 19 20 18 -55 19 -129 18 -113 18 -167 19 -133 
18 -87 19 -60 18 -27 19 -15 18 4 19 19 18 49 18 83 
19 108 18 176 19 164 18 124 19 199 18 -42 18 -46 19 -100 
18 -165 19 -159 18 -172 19 -111 18 -72 19 -44 18 -13 18 -1 
19 17 18 36 19 71 18 112 19 176 18 134 18 175 19 106 
18 54 19 59 18 -198 19 -143 18 -178 19 -138 18 -126 18 -92 
19 -39 18 -22 19 -7 18 15 19 24 18 63 18 81 19 119 
18 172 19 132 18 122 19 30 18 -11 19 20 18 -205 18 -138 
19 -152 18 -118 19 -68 18 -52 19 -21 18 -4 18 1 4780 1492 80 MP stroke
6 w
c8
18 20 19 37 18 53 19 97 18 74 19 89 18 94 18 55 
19 70 18 -63 19 -53 18 -68 19 -92 18 -80 18 -100 19 -52 
18 -47 19 -26 18 -5 19 0 18 18 19 37 18 50 18 94 
19 79 18 85 19 100 18 53 19 73 18 -53 18 -59 19 -75 
18 -93 19 -72 18 -94 19 -74 18 -39 19 -20 18 -9 18 0 
19 18 18 38 19 51 18 65 19 112 18 87 18 89 19 54 
18 22 19 48 18 -96 19 -92 18 -93 19 -85 18 -77 18 -71 
19 -38 18 -27 19 -13 18 12 19 12 18 39 18 53 19 76 
18 102 19 90 18 72 19 67 18 39 19 25 18 -87 18 -97 
19 -82 18 -101 19 -72 18 -69 19 -44 18 -23 18 -12 4780 1484 80 MP stroke
gr

c8
0 sg
4893  294 mt 
(Speech / Noisy Speech) s
4763 1550 mt 
( ) s
6239  431 mt 
( ) s
5522  585 mt 
(SCC\(A+,B+\)) s
gs 5023 449 1173 335 rc
24 w
384 0 5099 542 2 MP stroke
gr

24 w
5522  732 mt 
(SCC\(A+,B-\)) s
gs 5023 449 1173 335 rc
6 w
c8
384 0 5099 689 2 MP stroke
gr

6 w
c8
1 sg
0 1119 1475 0 0 -1119 899 3061 4 MP
PP
-1475 0 0 1119 1475 0 0 -1119 899 3061 5 MP stroke
4 w
DO
SO
6 w
0 sg
 899 3061 mt 2374 3061 L
 899 1942 mt 2374 1942 L
 899 3061 mt  899 1942 L
2374 3061 mt 2374 1942 L
 899 3061 mt 2374 3061 L
 899 3061 mt  899 1942 L
 899 3061 mt  899 3046 L
 899 1942 mt  899 1956 L
 796 3206 mt 
(-2) s
1636 3061 mt 1636 3046 L
1636 1942 mt 1636 1956 L
1603 3206 mt 
(0) s
2374 3061 mt 2374 3046 L
2374 1942 mt 2374 1956 L
2341 3206 mt 
(2) s
 899 3061 mt  913 3061 L
2374 3061 mt 2359 3061 L
 728 3105 mt 
(-4) s
 899 2781 mt  913 2781 L
2374 2781 mt 2359 2781 L
 728 2825 mt 
(-2) s
 899 2501 mt  913 2501 L
2374 2501 mt 2359 2501 L
 798 2545 mt 
(0) s
 899 2221 mt  913 2221 L
2374 2221 mt 2359 2221 L
 798 2265 mt 
(2) s
 899 1942 mt  913 1942 L
2374 1942 mt 2359 1942 L
 798 1986 mt 
(4) s
 899 3061 mt 2374 3061 L
 899 1942 mt 2374 1942 L
 899 3061 mt  899 1942 L
2374 3061 mt 2374 1942 L
gs 899 1942 1476 1120 rc
24 w
18 -40 19 -88 18 -113 19 -125 18 -114 19 -135 18 -98 18 -73 
19 -83 18 30 19 49 18 68 19 101 18 123 18 133 19 121 
18 113 19 90 18 140 19 -93 18 -45 19 -86 18 -113 18 -127 
19 -125 18 -121 19 -108 18 -71 19 -76 18 33 18 42 19 67 
18 110 19 107 18 144 19 109 18 124 19 99 18 124 18 -92 
19 -34 18 -95 19 -121 18 -113 19 -142 18 -106 18 -108 19 -69 
18 -42 19 -49 18 83 19 67 18 109 19 117 18 133 18 136 
19 106 18 89 19 43 18 94 19 -140 18 -89 18 -114 19 -123 
18 -133 19 -122 18 -90 19 -86 18 -39 19 -28 18 76 18 70 
19 103 18 128 19 121 18 126 19 115 18 86 18 40 899 2059 80 MP stroke
gr

24 w
 646 2732 mt  -90 rotate
(DIFCOR) s
90 rotate
6 w
1 sg
0 1119 1475 0 0 -1119 2839 3061 4 MP
PP
-1475 0 0 1119 1475 0 0 -1119 2839 3061 5 MP stroke
4 w
DO
SO
6 w
0 sg
2839 3061 mt 4314 3061 L
2839 1942 mt 4314 1942 L
2839 3061 mt 2839 1942 L
4314 3061 mt 4314 1942 L
2839 3061 mt 4314 3061 L
2839 3061 mt 2839 1942 L
2839 3061 mt 2839 3046 L
2839 1942 mt 2839 1956 L
2736 3206 mt 
(-2) s
3576 3061 mt 3576 3046 L
3576 1942 mt 3576 1956 L
3543 3206 mt 
(0) s
4314 3061 mt 4314 3046 L
4314 1942 mt 4314 1956 L
4281 3206 mt 
(2) s
2839 3061 mt 2853 3061 L
4314 3061 mt 4299 3061 L
2668 3105 mt 
(-5) s
2839 2501 mt 2853 2501 L
4314 2501 mt 4299 2501 L
2738 2545 mt 
(0) s
2839 1942 mt 2853 1942 L
4314 1942 mt 4299 1942 L
2738 1986 mt 
(5) s
2839 3061 mt 4314 3061 L
2839 1942 mt 4314 1942 L
2839 3061 mt 2839 1942 L
4314 3061 mt 4314 1942 L
gs 2839 1942 1476 1120 rc
24 w
18 10 19 -12 18 -57 19 -57 18 -102 19 -94 18 -91 18 -85 
19 -100 18 -14 19 -8 18 27 19 66 18 74 18 104 19 109 
18 108 19 85 18 144 19 -34 18 -14 19 -41 18 -89 18 -83 
19 -127 18 -124 19 -100 18 -69 19 -91 18 15 18 22 19 51 
18 93 19 110 18 123 19 118 18 113 19 69 18 125 18 -79 
19 -47 18 -66 19 -112 18 -119 19 -125 18 -100 18 -96 19 -54 
18 -26 19 -21 18 90 19 77 18 106 19 109 18 134 18 86 
19 86 18 42 19 15 18 34 19 -143 18 -87 18 -105 19 -104 
18 -105 19 -82 18 -63 19 -17 18 4 19 0 18 96 18 85 
19 98 18 97 19 102 18 56 19 58 18 9 18 -9 2839 2207 80 MP stroke
6 w
gr

1 sg
0 1119 1475 0 0 -1119 4780 3061 4 MP
PP
-1475 0 0 1119 1475 0 0 -1119 4780 3061 5 MP stroke
4 w
DO
SO
6 w
0 sg
4780 3061 mt 6255 3061 L
4780 1942 mt 6255 1942 L
4780 3061 mt 4780 1942 L
6255 3061 mt 6255 1942 L
4780 3061 mt 6255 3061 L
4780 3061 mt 4780 1942 L
4780 3061 mt 4780 3046 L
4780 1942 mt 4780 1956 L
4677 3206 mt 
(-2) s
5517 3061 mt 5517 3046 L
5517 1942 mt 5517 1956 L
5484 3206 mt 
(0) s
6255 3061 mt 6255 3046 L
6255 1942 mt 6255 1956 L
6222 3206 mt 
(2) s
4780 3061 mt 4794 3061 L
6255 3061 mt 6240 3061 L
4609 3105 mt 
(-4) s
4780 2781 mt 4794 2781 L
6255 2781 mt 6240 2781 L
4609 2825 mt 
(-2) s
4780 2501 mt 4794 2501 L
6255 2501 mt 6240 2501 L
4679 2545 mt 
(0) s
4780 2221 mt 4794 2221 L
6255 2221 mt 6240 2221 L
4679 2265 mt 
(2) s
4780 1942 mt 4794 1942 L
6255 1942 mt 6240 1942 L
4679 1986 mt 
(4) s
4780 3061 mt 6255 3061 L
4780 1942 mt 6255 1942 L
4780 3061 mt 4780 1942 L
6255 3061 mt 6255 1942 L
gs 4780 1942 1476 1120 rc
24 w
18 -45 19 -91 18 -116 19 -122 18 -103 19 -100 18 -77 18 -43 
19 -39 18 31 19 31 18 49 19 73 18 94 18 115 19 105 
18 110 19 88 18 138 19 -94 18 -49 19 -91 18 -110 18 -128 
19 -112 18 -87 19 -83 18 -40 19 -40 18 24 18 37 19 52 
18 75 19 81 18 120 19 106 18 113 19 94 18 127 18 -94 
19 -38 18 -102 19 -119 18 -102 19 -129 18 -88 18 -73 19 -42 
18 -18 19 -22 18 51 19 60 18 79 19 88 18 111 18 116 
19 104 18 87 19 46 18 88 19 -142 18 -94 18 -113 19 -117 
18 -117 19 -99 18 -63 19 -48 18 -24 19 -13 18 49 18 63 
19 72 18 106 19 101 18 108 19 112 18 84 18 41 4780 2067 80 MP stroke
gr

24 w
%%IncludeResource: font Symbol
/Symbol /ISOLatin1Encoding 120 FMSR

4872 1959 mt 
(r) s
%%IncludeResource: font Helvetica
/Helvetica /ISOLatin1Encoding 96 FMSR

4937 2019 mt 
(TFS) s
%%IncludeResource: font Helvetica
/Helvetica /ISOLatin1Encoding 120 FMSR

5118 1959 mt 
( = 0.93565) s
6 w
1 sg
0 1119 1475 0 0 -1119 899 4615 4 MP
PP
-1475 0 0 1119 1475 0 0 -1119 899 4615 5 MP stroke
4 w
DO
SO
6 w
0 sg
 899 4615 mt 2374 4615 L
 899 3496 mt 2374 3496 L
 899 4615 mt  899 3496 L
2374 4615 mt 2374 3496 L
 899 4615 mt 2374 4615 L
 899 4615 mt  899 3496 L
 899 4615 mt  899 4600 L
 899 3496 mt  899 3510 L
 796 4760 mt 
(-2) s
1636 4615 mt 1636 4600 L
1636 3496 mt 1636 3510 L
1603 4760 mt 
(0) s
2374 4615 mt 2374 4600 L
2374 3496 mt 2374 3510 L
2341 4760 mt 
(2) s
 899 4615 mt  913 4615 L
2374 4615 mt 2359 4615 L
 698 4659 mt 
(0.5) s
 899 4242 mt  913 4242 L
2374 4242 mt 2359 4242 L
 798 4286 mt 
(1) s
 899 3869 mt  913 3869 L
2374 3869 mt 2359 3869 L
 698 3913 mt 
(1.5) s
 899 3496 mt  913 3496 L
2374 3496 mt 2359 3496 L
 798 3540 mt 
(2) s
 899 4615 mt 2374 4615 L
 899 3496 mt 2374 3496 L
 899 4615 mt  899 3496 L
2374 4615 mt 2374 3496 L
gs 899 3496 1476 1120 rc
24 w
18 -81 19 -152 18 -172 19 -59 18 -46 19 63 18 99 18 116 
19 195 18 -81 19 -105 18 -104 19 -125 18 -40 18 -6 19 97 
18 162 19 160 18 349 19 -254 18 -93 19 -158 18 -154 18 -88 
19 -55 18 82 19 116 18 117 19 180 18 -99 18 -73 19 -100 
18 -140 19 -47 18 4 19 80 18 164 19 186 18 321 18 -254 
19 -62 18 -194 19 -175 18 -70 19 -9 18 46 18 135 19 107 
18 70 19 143 18 -199 19 -106 18 -120 19 -70 18 32 18 66 
19 171 18 150 19 99 18 250 19 -349 18 -160 18 -160 19 -93 
18 6 19 36 18 97 19 153 18 77 19 76 18 -175 18 -110 
19 -112 18 -46 19 27 18 58 19 168 18 159 18 79 899 3793 80 MP stroke
gr

24 w
 616 4323 mt  -90 rotate
(SUMCOR) s
90 rotate
6 w
1 sg
0 1119 1475 0 0 -1119 2839 4615 4 MP
PP
-1475 0 0 1119 1475 0 0 -1119 2839 4615 5 MP stroke
4 w
DO
SO
6 w
0 sg
2839 4615 mt 4314 4615 L
2839 3496 mt 4314 3496 L
2839 4615 mt 2839 3496 L
4314 4615 mt 4314 3496 L
2839 4615 mt 4314 4615 L
2839 4615 mt 2839 3496 L
2839 4615 mt 2839 4600 L
2839 3496 mt 2839 3510 L
2736 4760 mt 
(-2) s
3576 4615 mt 3576 4600 L
3576 3496 mt 3576 3510 L
3543 4760 mt 
(0) s
4314 4615 mt 4314 4600 L
4314 3496 mt 4314 3510 L
4281 4760 mt 
(2) s
2839 4615 mt 2853 4615 L
4314 4615 mt 4299 4615 L
2638 4659 mt 
(0.5) s
2839 4335 mt 2853 4335 L
4314 4335 mt 4299 4335 L
2738 4379 mt 
(1) s
2839 4055 mt 2853 4055 L
4314 4055 mt 4299 4055 L
2638 4099 mt 
(1.5) s
2839 3775 mt 2853 3775 L
4314 3775 mt 4299 3775 L
2738 3819 mt 
(2) s
2839 3496 mt 2853 3496 L
4314 3496 mt 4299 3496 L
2638 3540 mt 
(2.5) s
2839 4615 mt 4314 4615 L
2839 3496 mt 4314 3496 L
2839 4615 mt 2839 3496 L
4314 4615 mt 4314 3496 L
gs 2839 3496 1476 1120 rc
24 w
18 20 19 -11 18 -101 19 -37 18 -115 19 -20 18 44 18 65 
19 180 18 -5 19 21 18 -41 19 -94 18 -40 18 -77 19 7 
18 96 19 93 18 306 19 -115 18 -27 19 -63 18 -126 18 -41 
19 -101 18 42 19 79 18 74 19 171 18 -46 18 -36 19 -72 
18 -100 19 -44 18 -35 19 73 18 137 19 85 18 287 18 -199 
19 -84 18 -94 19 -138 18 -71 19 38 18 20 18 109 19 78 
18 44 19 64 18 -171 19 -93 18 -92 19 -4 18 81 18 33 
19 135 18 61 19 24 18 115 19 -308 18 -90 18 -103 19 -20 
18 81 19 59 18 87 19 17 18 -12 19 40 18 -170 18 -64 
19 -60 18 7 19 118 18 38 19 101 18 17 18 -22 2839 4130 80 MP stroke
gr

24 w
3293 4903 mt 
(Delay [ms]) s
6 w
1 sg
0 1119 1475 0 0 -1119 4780 4615 4 MP
PP
-1475 0 0 1119 1475 0 0 -1119 4780 4615 5 MP stroke
4 w
DO
SO
6 w
0 sg
4780 4615 mt 6255 4615 L
4780 3496 mt 6255 3496 L
4780 4615 mt 4780 3496 L
6255 4615 mt 6255 3496 L
4780 4615 mt 6255 4615 L
4780 4615 mt 4780 3496 L
4780 4615 mt 4780 4600 L
4780 3496 mt 4780 3510 L
4677 4760 mt 
(-2) s
5517 4615 mt 5517 4600 L
5517 3496 mt 5517 3510 L
5484 4760 mt 
(0) s
6255 4615 mt 6255 4600 L
6255 3496 mt 6255 3510 L
6222 4760 mt 
(2) s
4780 4615 mt 4794 4615 L
6255 4615 mt 6240 4615 L
4579 4659 mt 
(0.5) s
4780 4335 mt 4794 4335 L
6255 4335 mt 6240 4335 L
4679 4379 mt 
(1) s
4780 4055 mt 4794 4055 L
6255 4055 mt 6240 4055 L
4579 4099 mt 
(1.5) s
4780 3775 mt 4794 3775 L
6255 3775 mt 6240 3775 L
4679 3819 mt 
(2) s
4780 3496 mt 4794 3496 L
6255 3496 mt 6240 3496 L
4579 3540 mt 
(2.5) s
4780 4615 mt 6255 4615 L
4780 3496 mt 6255 3496 L
4780 4615 mt 4780 3496 L
6255 4615 mt 6255 3496 L
gs 4780 3496 1476 1120 rc
24 w
18 -49 19 -108 18 -125 19 -50 18 -57 19 -23 18 34 18 26 
19 59 18 -63 19 -43 18 -39 19 -38 18 27 18 32 19 105 
18 127 19 123 18 266 19 -188 18 -61 19 -109 18 -120 18 -66 
19 -66 18 -6 19 35 18 26 19 65 18 -57 18 -44 19 -46 
18 -36 19 17 18 51 19 66 18 147 19 148 18 236 18 -188 
19 -39 18 -131 19 -135 18 -73 19 -34 18 -2 18 31 19 25 
18 8 19 52 18 -88 19 -65 18 -28 19 5 18 68 18 90 
19 131 18 119 19 67 18 200 19 -258 18 -111 18 -121 19 -82 
18 -29 19 -17 18 18 19 38 18 29 19 26 18 -77 18 -68 
19 -21 18 10 19 59 18 79 19 133 18 122 18 58 4780 3982 80 MP stroke
gr

24 w
%%IncludeResource: font Symbol
/Symbol /ISOLatin1Encoding 120 FMSR

4872 3758 mt 
(r) s
%%IncludeResource: font Helvetica
/Helvetica /ISOLatin1Encoding 96 FMSR

4937 3818 mt 
(ENV) s
%%IncludeResource: font Helvetica
/Helvetica /ISOLatin1Encoding 120 FMSR

5134 3758 mt 
( = 0.95194) s
6 w

end %%Color Dict

eplot
%%EndObject

epage
end

showpage

%%Trailer
%%EOF
