%!PS-Adobe-3.0 EPSF-3.0
%%Creator: MATLAB, The MathWorks, Inc. Version 8.3.0.532 (R2014a). Operating System: Linux 3.13.0-57-generic #95-Ubuntu SMP Fri Jun 19 09:28:15 UTC 2015 x86_64.
%%Title: ./modulatedPT1kHz_fm10SacScc_CF900.eps
%%CreationDate: 10/09/2015  14:38:45
%%DocumentNeededFonts: Helvetica
%%DocumentProcessColors: Cyan Magenta Yellow Black
%%LanguageLevel: 2
%%Pages: 1
%%BoundingBox:    58   199   546   608
%%EndComments

%%BeginProlog
% MathWorks dictionary
/MathWorks 160 dict begin
% definition operators
/bdef {bind def} bind def
/ldef {load def} bind def
/xdef {exch def} bdef
/xstore {exch store} bdef
% operator abbreviations
/c  /clip ldef
/cc /concat ldef
/cp /closepath ldef
/gr /grestore ldef
/gs /gsave ldef
/mt /moveto ldef
/np /newpath ldef
/cm /currentmatrix ldef
/sm /setmatrix ldef
/rm /rmoveto ldef
/rl /rlineto ldef
/s {show newpath} bdef
/sc {setcmykcolor} bdef
/sr /setrgbcolor ldef
/sg /setgray ldef
/w /setlinewidth ldef
/j /setlinejoin ldef
/cap /setlinecap ldef
/rc {rectclip} bdef
/rf {rectfill} bdef
% page state control
/pgsv () def
/bpage {/pgsv save def} bdef
/epage {pgsv restore} bdef
/bplot /gsave ldef
/eplot {stroke grestore} bdef
% orientation switch
/portraitMode 0 def /landscapeMode 1 def /rotateMode 2 def
% coordinate system mappings
/dpi2point 0 def
% font control
/FontSize 0 def
/FMS {/FontSize xstore findfont [FontSize 0 0 FontSize neg 0 0]
  makefont setfont} bdef
/reencode {exch dup where {pop load} {pop StandardEncoding} ifelse
  exch dup 3 1 roll findfont dup length dict begin
  { 1 index /FID ne {def}{pop pop} ifelse } forall
  /Encoding exch def currentdict end definefont pop} bdef
/isroman {findfont /CharStrings get /Agrave known} bdef
/FMSR {3 1 roll 1 index dup isroman {reencode} {pop pop} ifelse
  exch FMS} bdef
/csm {1 dpi2point div -1 dpi2point div scale neg translate
 dup landscapeMode eq {pop -90 rotate}
  {rotateMode eq {90 rotate} if} ifelse} bdef
% line types: solid, dotted, dashed, dotdash
/SO { [] 0 setdash } bdef
/DO { [.5 dpi2point mul 4 dpi2point mul] 0 setdash } bdef
/DA { [6 dpi2point mul] 0 setdash } bdef
/DD { [.5 dpi2point mul 4 dpi2point mul 6 dpi2point mul 4
  dpi2point mul] 0 setdash } bdef
% macros for lines and objects
/L {lineto stroke} bdef
/MP {3 1 roll moveto 1 sub {rlineto} repeat} bdef
/AP {{rlineto} repeat} bdef
/PDlw -1 def
/W {/PDlw currentlinewidth def setlinewidth} def
/PP {closepath eofill} bdef
/DP {closepath stroke} bdef
/MR {4 -2 roll moveto dup  0 exch rlineto exch 0 rlineto
  neg 0 exch rlineto closepath} bdef
/FR {MR stroke} bdef
/PR {MR fill} bdef
/L1i {{currentfile picstr readhexstring pop} image} bdef
/tMatrix matrix def
/MakeOval {newpath tMatrix currentmatrix pop translate scale
0 0 1 0 360 arc tMatrix setmatrix} bdef
/FO {MakeOval stroke} bdef
/PO {MakeOval fill} bdef
/PD {currentlinewidth 2 div 0 360 arc fill
   PDlw -1 eq not {PDlw w /PDlw -1 def} if} def
/FA {newpath tMatrix currentmatrix pop translate scale
  0 0 1 5 -2 roll arc tMatrix setmatrix stroke} bdef
/PA {newpath tMatrix currentmatrix pop	translate 0 0 moveto scale
  0 0 1 5 -2 roll arc closepath tMatrix setmatrix fill} bdef
/FAn {newpath tMatrix currentmatrix pop translate scale
  0 0 1 5 -2 roll arcn tMatrix setmatrix stroke} bdef
/PAn {newpath tMatrix currentmatrix pop translate 0 0 moveto scale
  0 0 1 5 -2 roll arcn closepath tMatrix setmatrix fill} bdef
/vradius 0 def /hradius 0 def /lry 0 def
/lrx 0 def /uly 0 def /ulx 0 def /rad 0 def
/MRR {/vradius xdef /hradius xdef /lry xdef /lrx xdef /uly xdef
  /ulx xdef newpath tMatrix currentmatrix pop ulx hradius add uly
  vradius add translate hradius vradius scale 0 0 1 180 270 arc 
  tMatrix setmatrix lrx hradius sub uly vradius add translate
  hradius vradius scale 0 0 1 270 360 arc tMatrix setmatrix
  lrx hradius sub lry vradius sub translate hradius vradius scale
  0 0 1 0 90 arc tMatrix setmatrix ulx hradius add lry vradius sub
  translate hradius vradius scale 0 0 1 90 180 arc tMatrix setmatrix
  closepath} bdef
/FRR {MRR stroke } bdef
/PRR {MRR fill } bdef
/MlrRR {/lry xdef /lrx xdef /uly xdef /ulx xdef /rad lry uly sub 2 div def
  newpath tMatrix currentmatrix pop ulx rad add uly rad add translate
  rad rad scale 0 0 1 90 270 arc tMatrix setmatrix lrx rad sub lry rad
  sub translate rad rad scale 0 0 1 270 90 arc tMatrix setmatrix
  closepath} bdef
/FlrRR {MlrRR stroke } bdef
/PlrRR {MlrRR fill } bdef
/MtbRR {/lry xdef /lrx xdef /uly xdef /ulx xdef /rad lrx ulx sub 2 div def
  newpath tMatrix currentmatrix pop ulx rad add uly rad add translate
  rad rad scale 0 0 1 180 360 arc tMatrix setmatrix lrx rad sub lry rad
  sub translate rad rad scale 0 0 1 0 180 arc tMatrix setmatrix
  closepath} bdef
/FtbRR {MtbRR stroke } bdef
/PtbRR {MtbRR fill } bdef
/stri 6 array def /dtri 6 array def
/smat 6 array def /dmat 6 array def
/tmat1 6 array def /tmat2 6 array def /dif 3 array def
/asub {/ind2 exch def /ind1 exch def dup dup
  ind1 get exch ind2 get sub exch } bdef
/tri_to_matrix {
  2 0 asub 3 1 asub 4 0 asub 5 1 asub
  dup 0 get exch 1 get 7 -1 roll astore } bdef
/compute_transform {
  dmat dtri tri_to_matrix tmat1 invertmatrix 
  smat stri tri_to_matrix tmat2 concatmatrix } bdef
/ds {stri astore pop} bdef
/dt {dtri astore pop} bdef
/db {2 copy /cols xdef /rows xdef mul dup 3 mul string
  currentfile 
  3 index 0 eq {/ASCIIHexDecode filter}
  {/ASCII85Decode filter 3 index 2 eq {/RunLengthDecode filter} if }
  ifelse exch readstring pop
  dup 0 3 index getinterval /rbmap xdef
  dup 2 index dup getinterval /gbmap xdef
  1 index dup 2 mul exch getinterval /bbmap xdef pop pop}bdef
/it {gs np dtri aload pop moveto lineto lineto cp c
  cols rows 8 compute_transform 
  rbmap gbmap bbmap true 3 colorimage gr}bdef
/il {newpath moveto lineto stroke}bdef
currentdict end def
%%EndProlog

%%BeginSetup
MathWorks begin

0 cap

end
%%EndSetup

%%Page: 1 1
%%BeginPageSetup
%%PageBoundingBox:    58   199   546   608
MathWorks begin
bpage
%%EndPageSetup

%%BeginObject: obj1
bplot

/dpi2point 12 def
portraitMode 0216 7344 csm

  480    37  5865  4918 rc
85 dict begin %Colortable dictionary
/c0 { 0.000000 0.000000 0.000000 sr} bdef
/c1 { 1.000000 1.000000 1.000000 sr} bdef
/c2 { 0.900000 0.000000 0.000000 sr} bdef
/c3 { 0.000000 0.820000 0.000000 sr} bdef
/c4 { 0.000000 0.000000 0.800000 sr} bdef
/c5 { 0.910000 0.820000 0.320000 sr} bdef
/c6 { 1.000000 0.260000 0.820000 sr} bdef
/c7 { 0.000000 0.820000 0.820000 sr} bdef
c0
1 j
1 sg
   0    0 6913 5186 rf
6 w
0 sg
%%IncludeResource: font Helvetica
/Helvetica /ISOLatin1Encoding 120 FMSR

2715  221 mt 
(Neural Correlations CF = 900Hz) s
1 sg
0 1118 1475 0 0 -1118 899 1507 4 MP
PP
-1475 0 0 1118 1475 0 0 -1118 899 1507 5 MP stroke
4 w
DO
SO
6 w
0 sg
 899 1507 mt 2374 1507 L
 899  389 mt 2374  389 L
 899 1507 mt  899  389 L
2374 1507 mt 2374  389 L
 899 1507 mt 2374 1507 L
 899 1507 mt  899  389 L
 899 1507 mt  899 1492 L
 899  389 mt  899  403 L
 796 1652 mt 
(-2) s
1636 1507 mt 1636 1492 L
1636  389 mt 1636  403 L
1603 1652 mt 
(0) s
2374 1507 mt 2374 1492 L
2374  389 mt 2374  403 L
2341 1652 mt 
(2) s
 899 1507 mt  913 1507 L
2374 1507 mt 2359 1507 L
 798 1551 mt 
(0) s
 899 1227 mt  913 1227 L
2374 1227 mt 2359 1227 L
 798 1271 mt 
(1) s
 899  948 mt  913  948 L
2374  948 mt 2359  948 L
 798  992 mt 
(2) s
 899  668 mt  913  668 L
2374  668 mt 2359  668 L
 798  712 mt 
(3) s
 899  389 mt  913  389 L
2374  389 mt 2359  389 L
 798  433 mt 
(4) s
 899 1507 mt 2374 1507 L
 899  389 mt 2374  389 L
 899 1507 mt  899  389 L
2374 1507 mt 2374  389 L
gs 899 389 1476 1119 rc
24 w
18 -97 19 -116 18 -201 19 -124 18 -141 19 -101 18 -56 18 -31 
19 -8 18 0 19 11 18 29 19 61 18 100 18 133 19 160 
18 178 19 134 18 291 19 -229 18 -68 19 -155 18 -153 18 -129 
19 -175 18 -93 19 -58 18 -29 19 -8 18 0 18 10 19 31 
18 51 19 110 18 131 19 154 18 190 19 130 18 256 18 -172 
19 -84 18 -130 19 -190 18 -154 19 -131 18 -110 18 -51 19 -31 
18 -10 19 0 18 8 19 29 18 58 19 93 18 175 18 129 
19 153 18 155 19 68 18 229 19 -291 18 -134 18 -178 19 -160 
18 -133 19 -100 18 -61 19 -29 18 -12 19 1 18 8 18 31 
19 57 18 100 19 141 18 124 19 201 18 116 18 97 899 623 80 MP stroke
6 w
/c8 { 1.000000 0.000000 0.000000 sr} bdef
c8
18 10 19 33 18 51 19 97 18 123 19 126 18 177 18 133 
19 120 18 -48 19 -105 18 -124 19 -148 18 -138 18 -129 19 -81 
18 -63 19 -22 18 -10 19 0 18 9 19 26 18 60 18 98 
19 121 18 137 19 166 18 112 19 127 18 -56 18 -82 19 -127 
18 -163 19 -121 18 -135 19 -91 18 -50 19 -21 18 -8 18 -2 
19 11 18 27 19 53 18 90 19 141 18 150 18 132 19 129 
18 66 19 71 18 -134 19 -125 18 -165 19 -148 18 -109 18 -105 
19 -50 18 -22 19 -11 18 2 19 11 18 24 18 61 19 81 
18 144 19 142 18 157 19 117 18 75 19 59 18 -159 18 -120 
19 -142 18 -158 19 -113 18 -98 19 -50 18 -23 18 -11 899 1499 80 MP stroke
gr

c8
0 sg
1169  294 mt 
(Mod PT C1k M10) s
 882 1550 mt 
( ) s
2358  431 mt 
( ) s
1642  585 mt 
(SAC\(A+\)) s
gs 1142 449 1174 335 rc
24 w
385 0 1218 542 2 MP stroke
gr

24 w
1642  732 mt 
(SCC\(A+,A-\)) s
gs 1142 449 1174 335 rc
6 w
c8
385 0 1218 689 2 MP stroke
gr

6 w
c8
1 sg
0 1118 1475 0 0 -1118 2839 1507 4 MP
PP
-1475 0 0 1118 1475 0 0 -1118 2839 1507 5 MP stroke
4 w
DO
SO
6 w
0 sg
2839 1507 mt 4314 1507 L
2839  389 mt 4314  389 L
2839 1507 mt 2839  389 L
4314 1507 mt 4314  389 L
2839 1507 mt 4314 1507 L
2839 1507 mt 2839  389 L
2839 1507 mt 2839 1492 L
2839  389 mt 2839  403 L
2736 1652 mt 
(-2) s
3576 1507 mt 3576 1492 L
3576  389 mt 3576  403 L
3543 1652 mt 
(0) s
4314 1507 mt 4314 1492 L
4314  389 mt 4314  403 L
4281 1652 mt 
(2) s
2839 1507 mt 2853 1507 L
4314 1507 mt 4299 1507 L
2738 1551 mt 
(0) s
2839 1134 mt 2853 1134 L
4314 1134 mt 4299 1134 L
2738 1178 mt 
(2) s
2839  761 mt 2853  761 L
4314  761 mt 4299  761 L
2738  805 mt 
(4) s
2839  389 mt 2853  389 L
4314  389 mt 4299  389 L
2738  433 mt 
(6) s
2839 1507 mt 4314 1507 L
2839  389 mt 4314  389 L
2839 1507 mt 2839  389 L
4314 1507 mt 4314  389 L
gs 2839 389 1476 1119 rc
24 w
18 -70 19 -83 18 -86 19 -68 18 -59 19 -37 18 -21 18 -8 
19 0 18 6 19 18 18 36 19 63 18 92 18 94 19 109 
18 105 19 75 18 137 19 -159 18 -68 19 -89 18 -119 18 -93 
19 -92 18 -54 19 -37 18 -20 19 -4 18 0 18 11 19 33 
18 48 19 88 18 108 19 100 18 118 19 88 18 203 18 -136 
19 -67 18 -88 19 -118 18 -100 19 -108 18 -88 18 -48 19 -33 
18 -11 19 0 18 4 19 20 18 37 19 54 18 92 18 93 
19 119 18 89 19 68 18 159 19 -137 18 -75 18 -105 19 -109 
18 -94 19 -92 18 -63 19 -36 18 -18 19 -6 18 0 18 8 
19 21 18 36 19 60 18 68 19 86 18 83 18 70 2839 1069 80 MP stroke
6 w
c8
18 19 19 42 18 61 19 90 18 78 19 102 18 79 18 21 
19 60 18 -105 19 -58 18 -93 19 -97 18 -71 18 -60 19 -42 
18 -27 19 -9 18 -3 19 4 18 16 19 30 18 58 18 93 
19 86 18 114 19 106 18 75 19 64 18 -65 18 -71 19 -91 
18 -95 19 -100 18 -91 19 -65 18 -36 19 -24 18 -7 18 -1 
19 7 18 28 19 37 18 67 19 95 18 109 18 120 19 70 
18 59 19 77 18 -110 19 -69 18 -95 19 -125 18 -91 18 -84 
19 -46 18 -30 19 -15 18 -4 19 4 18 10 18 21 19 50 
18 77 19 73 18 108 19 72 18 65 19 89 18 -50 18 -57 
19 -81 18 -93 19 -82 18 -88 19 -47 18 -42 18 -17 2839 1490 80 MP stroke
gr

c8
0 sg
3076  294 mt 
(Mod PT C1k M100) s
2822 1550 mt 
( ) s
4298  431 mt 
( ) s
3581  585 mt 
(SAC\(B+\)) s
gs 3082 449 1173 335 rc
24 w
384 0 3158 542 2 MP stroke
gr

24 w
3581  732 mt 
(SCC\(B+,B-\)) s
gs 3082 449 1173 335 rc
6 w
c8
384 0 3158 689 2 MP stroke
gr

6 w
c8
1 sg
0 1118 1475 0 0 -1118 4780 1507 4 MP
PP
-1475 0 0 1118 1475 0 0 -1118 4780 1507 5 MP stroke
4 w
DO
SO
6 w
0 sg
4780 1507 mt 6255 1507 L
4780  389 mt 6255  389 L
4780 1507 mt 4780  389 L
6255 1507 mt 6255  389 L
4780 1507 mt 6255 1507 L
4780 1507 mt 4780  389 L
4780 1507 mt 4780 1492 L
4780  389 mt 4780  403 L
4677 1652 mt 
(-2) s
5517 1507 mt 5517 1492 L
5517  389 mt 5517  403 L
5484 1652 mt 
(0) s
6255 1507 mt 6255 1492 L
6255  389 mt 6255  403 L
6222 1652 mt 
(2) s
4780 1507 mt 4794 1507 L
6255 1507 mt 6240 1507 L
4679 1551 mt 
(0) s
4780 1227 mt 4794 1227 L
6255 1227 mt 6240 1227 L
4679 1271 mt 
(1) s
4780  948 mt 4794  948 L
6255  948 mt 6240  948 L
4679  992 mt 
(2) s
4780  668 mt 4794  668 L
6255  668 mt 6240  668 L
4679  712 mt 
(3) s
4780  389 mt 4794  389 L
6255  389 mt 6240  389 L
4679  433 mt 
(4) s
4780 1507 mt 6255 1507 L
4780  389 mt 6255  389 L
4780 1507 mt 4780  389 L
6255 1507 mt 6255  389 L
gs 4780 389 1476 1119 rc
24 w
18 28 19 63 18 92 19 134 18 118 19 152 18 119 18 31 
19 91 18 -158 19 -86 18 -140 19 -145 18 -107 18 -90 19 -63 
18 -40 19 -14 18 -5 19 6 18 24 19 45 18 87 18 139 
19 129 18 172 19 158 18 113 19 97 18 -98 18 -107 19 -136 
18 -143 19 -149 18 -137 19 -98 18 -54 19 -36 18 -11 18 -1 
19 10 18 43 19 56 18 100 19 142 18 163 18 180 19 106 
18 88 19 116 18 -166 19 -103 18 -143 19 -186 18 -137 18 -126 
19 -69 18 -45 19 -23 18 -5 19 5 18 15 18 32 19 75 
18 115 19 109 18 163 19 108 18 98 19 132 18 -74 18 -86 
19 -121 18 -140 19 -123 18 -131 19 -72 18 -62 18 -26 4780 1482 80 MP stroke
6 w
c8
18 7 19 24 18 42 19 75 18 69 19 103 18 99 18 66 
19 125 18 -23 19 -45 18 -72 19 -79 18 -103 18 -92 19 -91 
18 -52 19 -35 18 -17 19 -4 18 7 19 34 18 27 18 80 
19 65 18 106 19 84 18 97 19 112 18 -53 18 -14 19 -66 
18 -105 19 -79 18 -111 19 -66 18 -62 19 -35 18 -14 18 -7 
19 13 18 19 19 40 18 65 19 88 18 91 18 97 19 86 
18 54 19 60 18 -53 19 -74 18 -106 19 -92 18 -79 18 -99 
19 -59 18 -31 19 -19 18 2 19 6 18 30 18 36 19 66 
18 71 19 107 18 89 19 79 18 57 19 99 18 -91 18 -70 
19 -106 18 -99 19 -88 18 -83 19 -53 18 -29 18 -22 4780 1484 80 MP stroke
gr

c8
0 sg
4893  294 mt 
(Speech / Noisy Speech) s
4763 1550 mt 
( ) s
6239  431 mt 
( ) s
5522  585 mt 
(SCC\(A+,B+\)) s
gs 5023 449 1173 335 rc
24 w
384 0 5099 542 2 MP stroke
gr

24 w
5522  732 mt 
(SCC\(A+,B-\)) s
gs 5023 449 1173 335 rc
6 w
c8
384 0 5099 689 2 MP stroke
gr

6 w
c8
1 sg
0 1119 1475 0 0 -1119 899 3061 4 MP
PP
-1475 0 0 1119 1475 0 0 -1119 899 3061 5 MP stroke
4 w
DO
SO
6 w
0 sg
 899 3061 mt 2374 3061 L
 899 1942 mt 2374 1942 L
 899 3061 mt  899 1942 L
2374 3061 mt 2374 1942 L
 899 3061 mt 2374 3061 L
 899 3061 mt  899 1942 L
 899 3061 mt  899 3046 L
 899 1942 mt  899 1956 L
 796 3206 mt 
(-2) s
1636 3061 mt 1636 3046 L
1636 1942 mt 1636 1956 L
1603 3206 mt 
(0) s
2374 3061 mt 2374 3046 L
2374 1942 mt 2374 1956 L
2341 3206 mt 
(2) s
 899 3061 mt  913 3061 L
2374 3061 mt 2359 3061 L
 728 3105 mt 
(-4) s
 899 2781 mt  913 2781 L
2374 2781 mt 2359 2781 L
 728 2825 mt 
(-2) s
 899 2501 mt  913 2501 L
2374 2501 mt 2359 2501 L
 798 2545 mt 
(0) s
 899 2221 mt  913 2221 L
2374 2221 mt 2359 2221 L
 798 2265 mt 
(2) s
 899 1942 mt  913 1942 L
2374 1942 mt 2359 1942 L
 798 1986 mt 
(4) s
 899 3061 mt 2374 3061 L
 899 1942 mt 2374 1942 L
 899 3061 mt  899 1942 L
2374 3061 mt 2374 1942 L
gs 899 1942 1476 1120 rc
24 w
18 -53 19 -75 18 -126 19 -110 18 -133 19 -113 18 -117 18 -82 
19 -64 18 24 19 58 18 77 19 104 18 119 18 132 19 120 
18 121 19 77 18 151 19 -114 18 -39 19 -90 18 -107 18 -113 
19 -148 18 -116 19 -112 18 -70 19 -68 18 28 18 46 19 79 
18 107 19 116 18 133 19 123 18 120 19 76 18 132 18 -86 
19 -47 18 -79 19 -121 18 -123 19 -136 18 -130 18 -92 19 -79 
18 -38 19 -36 18 71 19 78 18 111 19 120 18 143 18 117 
19 101 18 89 19 40 18 113 19 -151 18 -79 18 -120 19 -121 
18 -138 19 -121 18 -110 19 -72 18 -44 19 -29 18 83 18 76 
19 100 18 129 19 127 18 111 19 126 18 70 18 53 899 2063 80 MP stroke
gr

24 w
 646 2732 mt  -90 rotate
(DIFCOR) s
90 rotate
6 w
1 sg
0 1119 1475 0 0 -1119 2839 3061 4 MP
PP
-1475 0 0 1119 1475 0 0 -1119 2839 3061 5 MP stroke
4 w
DO
SO
6 w
0 sg
2839 3061 mt 4314 3061 L
2839 1942 mt 4314 1942 L
2839 3061 mt 2839 1942 L
4314 3061 mt 4314 1942 L
2839 3061 mt 4314 3061 L
2839 3061 mt 2839 1942 L
2839 3061 mt 2839 3046 L
2839 1942 mt 2839 1956 L
2736 3206 mt 
(-2) s
3576 3061 mt 3576 3046 L
3576 1942 mt 3576 1956 L
3543 3206 mt 
(0) s
4314 3061 mt 4314 3046 L
4314 1942 mt 4314 1956 L
4281 3206 mt 
(2) s
2839 3061 mt 2853 3061 L
4314 3061 mt 4299 3061 L
2668 3105 mt 
(-5) s
2839 2501 mt 2853 2501 L
4314 2501 mt 4299 2501 L
2738 2545 mt 
(0) s
2839 1942 mt 2853 1942 L
4314 1942 mt 4299 1942 L
2738 1986 mt 
(5) s
2839 3061 mt 4314 3061 L
2839 1942 mt 4314 1942 L
2839 3061 mt 2839 1942 L
4314 3061 mt 4314 1942 L
gs 2839 1942 1476 1120 rc
24 w
18 -53 19 -75 18 -89 19 -94 18 -83 19 -83 18 -60 18 -17 
19 -36 18 66 19 45 18 78 19 96 18 98 18 93 19 91 
18 79 19 50 18 84 19 -98 18 -51 19 -71 18 -106 18 -111 
19 -107 18 -102 19 -85 18 -57 19 -42 18 40 18 49 19 74 
18 87 19 112 18 119 19 100 18 92 19 67 18 127 18 -81 
19 -45 18 -69 19 -94 18 -100 19 -122 18 -118 18 -101 19 -62 
18 -42 19 -46 18 69 19 53 18 79 19 108 18 109 18 107 
19 99 18 71 19 50 18 98 19 -84 18 -51 18 -76 19 -96 
18 -103 19 -99 18 -103 19 -64 18 -50 19 -57 18 30 18 39 
19 61 18 78 19 85 18 94 19 80 18 74 18 53 2839 2248 80 MP stroke
6 w
gr

1 sg
0 1119 1475 0 0 -1119 4780 3061 4 MP
PP
-1475 0 0 1119 1475 0 0 -1119 4780 3061 5 MP stroke
4 w
DO
SO
6 w
0 sg
4780 3061 mt 6255 3061 L
4780 1942 mt 6255 1942 L
4780 3061 mt 4780 1942 L
6255 3061 mt 6255 1942 L
4780 3061 mt 6255 3061 L
4780 3061 mt 4780 1942 L
4780 3061 mt 4780 3046 L
4780 1942 mt 4780 1956 L
4677 3206 mt 
(-2) s
5517 3061 mt 5517 3046 L
5517 1942 mt 5517 1956 L
5484 3206 mt 
(0) s
6255 3061 mt 6255 3046 L
6255 1942 mt 6255 1956 L
6222 3206 mt 
(2) s
4780 3061 mt 4794 3061 L
6255 3061 mt 6240 3061 L
4609 3105 mt 
(-4) s
4780 2781 mt 4794 2781 L
6255 2781 mt 6240 2781 L
4609 2825 mt 
(-2) s
4780 2501 mt 4794 2501 L
6255 2501 mt 6240 2501 L
4679 2545 mt 
(0) s
4780 2221 mt 4794 2221 L
6255 2221 mt 6240 2221 L
4679 2265 mt 
(2) s
4780 1942 mt 4794 1942 L
6255 1942 mt 6240 1942 L
4679 1986 mt 
(4) s
4780 3061 mt 6255 3061 L
4780 1942 mt 6255 1942 L
4780 3061 mt 4780 1942 L
6255 3061 mt 6255 1942 L
gs 4780 1942 1476 1120 rc
24 w
18 -52 19 -70 18 -122 19 -99 18 -105 19 -102 18 -78 18 -49 
19 -66 18 11 19 29 18 50 19 71 18 101 18 113 19 125 
18 115 19 85 18 154 19 -113 18 -37 19 -95 18 -90 18 -104 
19 -120 18 -100 19 -71 18 -63 19 -60 18 26 18 12 19 48 
18 79 19 94 18 121 19 111 18 125 19 84 18 135 18 -83 
19 -48 18 -76 19 -114 18 -110 19 -110 18 -100 18 -74 19 -58 
18 -33 19 -30 18 31 19 51 18 83 19 92 18 127 18 114 
19 106 18 93 19 44 18 113 19 -148 18 -82 18 -107 19 -114 
18 -101 19 -104 18 -75 19 -54 18 -34 19 -50 18 50 18 50 
19 82 18 99 19 115 18 104 19 127 18 73 18 59 4780 2070 80 MP stroke
gr

24 w
%%IncludeResource: font Symbol
/Symbol /ISOLatin1Encoding 120 FMSR

4872 1948 mt 
(r) s
%%IncludeResource: font Helvetica
/Helvetica /ISOLatin1Encoding 96 FMSR

4937 2008 mt 
(TFS) s
%%IncludeResource: font Helvetica
/Helvetica /ISOLatin1Encoding 120 FMSR

5118 1948 mt 
( = 0.92663) s
6 w
1 sg
0 1119 1475 0 0 -1119 899 4615 4 MP
PP
-1475 0 0 1119 1475 0 0 -1119 899 4615 5 MP stroke
4 w
DO
SO
6 w
0 sg
 899 4615 mt 2374 4615 L
 899 3496 mt 2374 3496 L
 899 4615 mt  899 3496 L
2374 4615 mt 2374 3496 L
 899 4615 mt 2374 4615 L
 899 4615 mt  899 3496 L
 899 4615 mt  899 4600 L
 899 3496 mt  899 3510 L
 796 4760 mt 
(-2) s
1636 4615 mt 1636 4600 L
1636 3496 mt 1636 3510 L
1603 4760 mt 
(0) s
2374 4615 mt 2374 4600 L
2374 3496 mt 2374 3510 L
2341 4760 mt 
(2) s
 899 4615 mt  913 4615 L
2374 4615 mt 2359 4615 L
 698 4659 mt 
(0.5) s
 899 4242 mt  913 4242 L
2374 4242 mt 2359 4242 L
 798 4286 mt 
(1) s
 899 3869 mt  913 3869 L
2374 3869 mt 2359 3869 L
 698 3913 mt 
(1.5) s
 899 3496 mt  913 3496 L
2374 3496 mt 2359 3496 L
 798 3540 mt 
(2) s
 899 4615 mt 2374 4615 L
 899 3496 mt 2374 3496 L
 899 4615 mt  899 3496 L
2374 4615 mt 2374 3496 L
gs 899 3496 1476 1120 rc
24 w
18 -116 19 -110 18 -201 19 -36 18 -23 19 32 18 162 18 136 
19 148 18 -64 19 -124 18 -128 19 -115 18 -52 18 6 19 106 
18 153 19 150 18 375 19 -306 18 -78 19 -172 18 -125 18 -40 
19 -73 18 59 19 143 18 112 19 158 18 -75 18 -96 19 -128 
18 -150 19 -14 18 -5 19 85 18 185 19 146 18 331 18 -232 
19 -97 18 -139 19 -182 18 -85 19 13 18 54 18 107 19 132 
18 74 19 95 18 -169 19 -128 18 -142 19 -73 18 88 18 31 
19 139 18 177 19 75 18 308 19 -374 18 -146 18 -156 19 -105 
18 14 19 57 18 127 19 118 18 85 19 79 18 -201 18 -120 
19 -113 18 -78 19 39 18 33 19 203 18 123 18 115 899 3799 80 MP stroke
gr

24 w
 616 4323 mt  -90 rotate
(SUMCOR) s
90 rotate
6 w
1 sg
0 1119 1475 0 0 -1119 2839 4615 4 MP
PP
-1475 0 0 1119 1475 0 0 -1119 2839 4615 5 MP stroke
4 w
DO
SO
6 w
0 sg
2839 4615 mt 4314 4615 L
2839 3496 mt 4314 3496 L
2839 4615 mt 2839 3496 L
4314 4615 mt 4314 3496 L
2839 4615 mt 4314 4615 L
2839 4615 mt 2839 3496 L
2839 4615 mt 2839 4600 L
2839 3496 mt 2839 3510 L
2736 4760 mt 
(-2) s
3576 4615 mt 3576 4600 L
3576 3496 mt 3576 3510 L
3543 4760 mt 
(0) s
4314 4615 mt 4314 4600 L
4314 3496 mt 4314 3510 L
4281 4760 mt 
(2) s
2839 4615 mt 2853 4615 L
4314 4615 mt 4299 4615 L
2638 4659 mt 
(0.5) s
2839 4335 mt 2853 4335 L
4314 4335 mt 4299 4335 L
2738 4379 mt 
(1) s
2839 4055 mt 2853 4055 L
4314 4055 mt 4299 4055 L
2638 4099 mt 
(1.5) s
2839 3775 mt 2853 3775 L
4314 3775 mt 4299 3775 L
2738 3819 mt 
(2) s
2839 3496 mt 2853 3496 L
4314 3496 mt 4299 3496 L
2638 3540 mt 
(2.5) s
2839 4615 mt 4314 4615 L
2839 3496 mt 4314 3496 L
2839 4615 mt 2839 3496 L
4314 4615 mt 4314 3496 L
gs 2839 3496 1476 1120 rc
24 w
18 -77 19 -62 18 -37 19 34 18 27 19 98 18 86 18 21 
19 90 18 -149 19 -59 18 -86 19 -51 18 31 18 52 19 100 
18 118 19 98 18 201 19 -232 18 -79 19 -88 18 -91 18 -1 
19 -9 18 90 19 103 18 84 19 90 18 -97 18 -91 19 -87 
18 -71 19 -17 18 25 19 52 18 124 19 95 18 294 18 -204 
19 -92 18 -88 19 -122 18 -51 19 -19 18 32 18 107 19 56 
18 73 19 115 18 -159 19 -74 18 -87 19 -105 18 1 18 13 
19 110 18 88 19 79 18 235 19 -202 18 -96 18 -126 19 -89 
18 -26 19 -30 18 68 19 56 18 70 19 124 18 -74 18 -75 
19 -89 18 -86 19 -32 18 -31 19 57 18 63 18 79 2839 4213 80 MP stroke
gr

24 w
3293 4903 mt 
(Delay [ms]) s
6 w
1 sg
0 1119 1475 0 0 -1119 4780 4615 4 MP
PP
-1475 0 0 1119 1475 0 0 -1119 4780 4615 5 MP stroke
4 w
DO
SO
6 w
0 sg
4780 4615 mt 6255 4615 L
4780 3496 mt 6255 3496 L
4780 4615 mt 4780 3496 L
6255 4615 mt 6255 3496 L
4780 4615 mt 6255 4615 L
4780 4615 mt 4780 3496 L
4780 4615 mt 4780 4600 L
4780 3496 mt 4780 3510 L
4677 4760 mt 
(-2) s
5517 4615 mt 5517 4600 L
5517 3496 mt 5517 3510 L
5484 4760 mt 
(0) s
6255 4615 mt 6255 4600 L
6255 3496 mt 6255 3510 L
6222 4760 mt 
(2) s
4780 4615 mt 4794 4615 L
6255 4615 mt 6240 4615 L
4579 4659 mt 
(0.5) s
4780 4335 mt 4794 4335 L
6255 4335 mt 6240 4335 L
4679 4379 mt 
(1) s
4780 4055 mt 4794 4055 L
6255 4055 mt 6240 4055 L
4579 4099 mt 
(1.5) s
4780 3775 mt 4794 3775 L
6255 3775 mt 6240 3775 L
4679 3819 mt 
(2) s
4780 3496 mt 4794 3496 L
6255 3496 mt 6240 3496 L
4579 3540 mt 
(2.5) s
4780 4615 mt 6255 4615 L
4780 3496 mt 6255 3496 L
4780 4615 mt 4780 3496 L
6255 4615 mt 6255 3496 L
gs 4780 3496 1476 1120 rc
24 w
18 -89 19 -92 18 -160 19 -49 18 -72 19 2 18 43 18 36 
19 116 18 -23 19 -34 18 -43 19 -18 18 -3 18 41 19 69 
18 126 19 99 18 275 19 -234 18 -61 19 -120 18 -127 18 -48 
19 -111 18 14 19 25 18 69 19 104 18 -53 18 -5 19 -35 
18 -54 19 31 18 21 19 87 18 128 19 96 18 242 18 -179 
19 -71 18 -111 19 -151 18 -88 19 -44 18 -19 18 46 19 55 
18 45 19 60 18 -45 19 -46 18 -48 19 2 18 96 18 29 
19 95 18 124 19 49 18 231 19 -286 18 -104 18 -141 19 -95 
18 -63 19 8 18 28 19 50 18 45 19 100 18 -83 18 -39 
19 -49 18 1 19 54 18 40 19 149 18 86 18 75 4780 3988 80 MP stroke
gr

24 w
%%IncludeResource: font Symbol
/Symbol /ISOLatin1Encoding 120 FMSR

4872 3751 mt 
(r) s
%%IncludeResource: font Helvetica
/Helvetica /ISOLatin1Encoding 96 FMSR

4937 3811 mt 
(ENV) s
%%IncludeResource: font Helvetica
/Helvetica /ISOLatin1Encoding 120 FMSR

5134 3751 mt 
( = 0.92608) s
6 w

end %%Color Dict

eplot
%%EndObject

epage
end

showpage

%%Trailer
%%EOF
