%!PS-Adobe-3.0 EPSF-3.0
%%Creator: MATLAB, The MathWorks, Inc. Version 8.3.0.532 (R2014a). Operating System: Linux 3.13.0-57-generic #95-Ubuntu SMP Fri Jun 19 09:28:15 UTC 2015 x86_64.
%%Title: ./speechSacScc_CF192SNR0.eps
%%CreationDate: 10/09/2015  13:22:09
%%DocumentNeededFonts: Helvetica
%%DocumentProcessColors: Cyan Magenta Yellow Black
%%LanguageLevel: 2
%%Pages: 1
%%BoundingBox:    58   199   546   608
%%EndComments

%%BeginProlog
% MathWorks dictionary
/MathWorks 160 dict begin
% definition operators
/bdef {bind def} bind def
/ldef {load def} bind def
/xdef {exch def} bdef
/xstore {exch store} bdef
% operator abbreviations
/c  /clip ldef
/cc /concat ldef
/cp /closepath ldef
/gr /grestore ldef
/gs /gsave ldef
/mt /moveto ldef
/np /newpath ldef
/cm /currentmatrix ldef
/sm /setmatrix ldef
/rm /rmoveto ldef
/rl /rlineto ldef
/s {show newpath} bdef
/sc {setcmykcolor} bdef
/sr /setrgbcolor ldef
/sg /setgray ldef
/w /setlinewidth ldef
/j /setlinejoin ldef
/cap /setlinecap ldef
/rc {rectclip} bdef
/rf {rectfill} bdef
% page state control
/pgsv () def
/bpage {/pgsv save def} bdef
/epage {pgsv restore} bdef
/bplot /gsave ldef
/eplot {stroke grestore} bdef
% orientation switch
/portraitMode 0 def /landscapeMode 1 def /rotateMode 2 def
% coordinate system mappings
/dpi2point 0 def
% font control
/FontSize 0 def
/FMS {/FontSize xstore findfont [FontSize 0 0 FontSize neg 0 0]
  makefont setfont} bdef
/reencode {exch dup where {pop load} {pop StandardEncoding} ifelse
  exch dup 3 1 roll findfont dup length dict begin
  { 1 index /FID ne {def}{pop pop} ifelse } forall
  /Encoding exch def currentdict end definefont pop} bdef
/isroman {findfont /CharStrings get /Agrave known} bdef
/FMSR {3 1 roll 1 index dup isroman {reencode} {pop pop} ifelse
  exch FMS} bdef
/csm {1 dpi2point div -1 dpi2point div scale neg translate
 dup landscapeMode eq {pop -90 rotate}
  {rotateMode eq {90 rotate} if} ifelse} bdef
% line types: solid, dotted, dashed, dotdash
/SO { [] 0 setdash } bdef
/DO { [.5 dpi2point mul 4 dpi2point mul] 0 setdash } bdef
/DA { [6 dpi2point mul] 0 setdash } bdef
/DD { [.5 dpi2point mul 4 dpi2point mul 6 dpi2point mul 4
  dpi2point mul] 0 setdash } bdef
% macros for lines and objects
/L {lineto stroke} bdef
/MP {3 1 roll moveto 1 sub {rlineto} repeat} bdef
/AP {{rlineto} repeat} bdef
/PDlw -1 def
/W {/PDlw currentlinewidth def setlinewidth} def
/PP {closepath eofill} bdef
/DP {closepath stroke} bdef
/MR {4 -2 roll moveto dup  0 exch rlineto exch 0 rlineto
  neg 0 exch rlineto closepath} bdef
/FR {MR stroke} bdef
/PR {MR fill} bdef
/L1i {{currentfile picstr readhexstring pop} image} bdef
/tMatrix matrix def
/MakeOval {newpath tMatrix currentmatrix pop translate scale
0 0 1 0 360 arc tMatrix setmatrix} bdef
/FO {MakeOval stroke} bdef
/PO {MakeOval fill} bdef
/PD {currentlinewidth 2 div 0 360 arc fill
   PDlw -1 eq not {PDlw w /PDlw -1 def} if} def
/FA {newpath tMatrix currentmatrix pop translate scale
  0 0 1 5 -2 roll arc tMatrix setmatrix stroke} bdef
/PA {newpath tMatrix currentmatrix pop	translate 0 0 moveto scale
  0 0 1 5 -2 roll arc closepath tMatrix setmatrix fill} bdef
/FAn {newpath tMatrix currentmatrix pop translate scale
  0 0 1 5 -2 roll arcn tMatrix setmatrix stroke} bdef
/PAn {newpath tMatrix currentmatrix pop translate 0 0 moveto scale
  0 0 1 5 -2 roll arcn closepath tMatrix setmatrix fill} bdef
/vradius 0 def /hradius 0 def /lry 0 def
/lrx 0 def /uly 0 def /ulx 0 def /rad 0 def
/MRR {/vradius xdef /hradius xdef /lry xdef /lrx xdef /uly xdef
  /ulx xdef newpath tMatrix currentmatrix pop ulx hradius add uly
  vradius add translate hradius vradius scale 0 0 1 180 270 arc 
  tMatrix setmatrix lrx hradius sub uly vradius add translate
  hradius vradius scale 0 0 1 270 360 arc tMatrix setmatrix
  lrx hradius sub lry vradius sub translate hradius vradius scale
  0 0 1 0 90 arc tMatrix setmatrix ulx hradius add lry vradius sub
  translate hradius vradius scale 0 0 1 90 180 arc tMatrix setmatrix
  closepath} bdef
/FRR {MRR stroke } bdef
/PRR {MRR fill } bdef
/MlrRR {/lry xdef /lrx xdef /uly xdef /ulx xdef /rad lry uly sub 2 div def
  newpath tMatrix currentmatrix pop ulx rad add uly rad add translate
  rad rad scale 0 0 1 90 270 arc tMatrix setmatrix lrx rad sub lry rad
  sub translate rad rad scale 0 0 1 270 90 arc tMatrix setmatrix
  closepath} bdef
/FlrRR {MlrRR stroke } bdef
/PlrRR {MlrRR fill } bdef
/MtbRR {/lry xdef /lrx xdef /uly xdef /ulx xdef /rad lrx ulx sub 2 div def
  newpath tMatrix currentmatrix pop ulx rad add uly rad add translate
  rad rad scale 0 0 1 180 360 arc tMatrix setmatrix lrx rad sub lry rad
  sub translate rad rad scale 0 0 1 0 180 arc tMatrix setmatrix
  closepath} bdef
/FtbRR {MtbRR stroke } bdef
/PtbRR {MtbRR fill } bdef
/stri 6 array def /dtri 6 array def
/smat 6 array def /dmat 6 array def
/tmat1 6 array def /tmat2 6 array def /dif 3 array def
/asub {/ind2 exch def /ind1 exch def dup dup
  ind1 get exch ind2 get sub exch } bdef
/tri_to_matrix {
  2 0 asub 3 1 asub 4 0 asub 5 1 asub
  dup 0 get exch 1 get 7 -1 roll astore } bdef
/compute_transform {
  dmat dtri tri_to_matrix tmat1 invertmatrix 
  smat stri tri_to_matrix tmat2 concatmatrix } bdef
/ds {stri astore pop} bdef
/dt {dtri astore pop} bdef
/db {2 copy /cols xdef /rows xdef mul dup 3 mul string
  currentfile 
  3 index 0 eq {/ASCIIHexDecode filter}
  {/ASCII85Decode filter 3 index 2 eq {/RunLengthDecode filter} if }
  ifelse exch readstring pop
  dup 0 3 index getinterval /rbmap xdef
  dup 2 index dup getinterval /gbmap xdef
  1 index dup 2 mul exch getinterval /bbmap xdef pop pop}bdef
/it {gs np dtri aload pop moveto lineto lineto cp c
  cols rows 8 compute_transform 
  rbmap gbmap bbmap true 3 colorimage gr}bdef
/il {newpath moveto lineto stroke}bdef
currentdict end def
%%EndProlog

%%BeginSetup
MathWorks begin

0 cap

end
%%EndSetup

%%Page: 1 1
%%BeginPageSetup
%%PageBoundingBox:    58   199   546   608
MathWorks begin
bpage
%%EndPageSetup

%%BeginObject: obj1
bplot

/dpi2point 12 def
portraitMode 0216 7344 csm

  480    37  5865  4918 rc
85 dict begin %Colortable dictionary
/c0 { 0.000000 0.000000 0.000000 sr} bdef
/c1 { 1.000000 1.000000 1.000000 sr} bdef
/c2 { 0.900000 0.000000 0.000000 sr} bdef
/c3 { 0.000000 0.820000 0.000000 sr} bdef
/c4 { 0.000000 0.000000 0.800000 sr} bdef
/c5 { 0.910000 0.820000 0.320000 sr} bdef
/c6 { 1.000000 0.260000 0.820000 sr} bdef
/c7 { 0.000000 0.820000 0.820000 sr} bdef
c0
1 j
1 sg
   0    0 6913 5186 rf
6 w
0 sg
%%IncludeResource: font Helvetica
/Helvetica /ISOLatin1Encoding 120 FMSR

2365  221 mt 
(Neural Correlations at 0dB SNR, CF = 192Hz) s
1 sg
0 1118 1475 0 0 -1118 899 1507 4 MP
PP
-1475 0 0 1118 1475 0 0 -1118 899 1507 5 MP stroke
4 w
DO
SO
6 w
0 sg
 899 1507 mt 2374 1507 L
 899  389 mt 2374  389 L
 899 1507 mt  899  389 L
2374 1507 mt 2374  389 L
 899 1507 mt 2374 1507 L
 899 1507 mt  899  389 L
 899 1507 mt  899 1492 L
 899  389 mt  899  403 L
 796 1652 mt 
(-2) s
1636 1507 mt 1636 1492 L
1636  389 mt 1636  403 L
1603 1652 mt 
(0) s
2374 1507 mt 2374 1492 L
2374  389 mt 2374  403 L
2341 1652 mt 
(2) s
 899 1507 mt  913 1507 L
2374 1507 mt 2359 1507 L
 798 1551 mt 
(0) s
 899 1134 mt  913 1134 L
2374 1134 mt 2359 1134 L
 798 1178 mt 
(1) s
 899  761 mt  913  761 L
2374  761 mt 2359  761 L
 798  805 mt 
(2) s
 899  389 mt  913  389 L
2374  389 mt 2359  389 L
 798  433 mt 
(3) s
 899 1507 mt 2374 1507 L
 899  389 mt 2374  389 L
 899 1507 mt  899  389 L
2374 1507 mt 2374  389 L
gs 899 389 1476 1119 rc
24 w
18 1 19 0 18 1 19 1 18 1 19 1 18 2 18 2 
19 3 18 1 19 4 18 2 19 7 18 4 18 4 19 6 
18 13 19 1 18 19 19 8 18 2 19 17 18 5 18 35 
19 -4 18 29 19 15 18 55 19 15 18 50 18 8 19 97 
18 1 19 109 18 -5 19 141 18 -37 19 96 18 97 18 -143 
19 46 18 -96 19 37 18 -141 19 5 18 -109 18 -1 19 -97 
18 -8 19 -50 18 -15 19 -55 18 -15 19 -29 18 4 18 -35 
19 -5 18 -17 19 -2 18 -8 19 -19 18 -1 18 -13 19 -6 
18 -4 19 -4 18 -7 19 -2 18 -4 19 -1 18 -3 18 -2 
19 -2 18 -1 19 -1 18 -1 19 -1 18 0 18 -1 899 1502 80 MP stroke
6 w
/c8 { 1.000000 0.000000 0.000000 sr} bdef
c8
18 54 19 -87 18 20 19 -60 18 25 19 -84 18 6 18 -62 
19 15 18 -64 19 -4 18 -31 19 0 18 -34 18 -5 19 -21 
18 2 19 -24 18 2 19 -7 18 -14 19 -3 18 -9 18 0 
19 -8 18 -1 19 -5 18 -3 19 -2 18 -2 18 -2 19 -1 
18 -1 19 -1 18 0 19 0 18 0 19 -1 18 0 18 0 
19 0 18 0 19 0 18 0 19 1 18 0 18 2 19 0 
18 2 19 3 18 4 19 3 18 8 19 3 18 13 18 2 
19 13 18 2 19 18 18 16 19 -3 18 29 18 -4 19 26 
18 14 19 28 18 1 19 37 18 -3 19 62 18 -31 18 52 
19 -12 18 53 19 -24 18 32 19 -24 18 44 18 -47 899 1185 80 MP stroke
gr

c8
0 sg
1433  294 mt 
(Speech) s
 882 1550 mt 
( ) s
2358  431 mt 
( ) s
1642  585 mt 
(SAC\(A+\)) s
gs 1142 449 1174 335 rc
24 w
385 0 1218 542 2 MP stroke
gr

24 w
1642  732 mt 
(SCC\(A+,A-\)) s
gs 1142 449 1174 335 rc
6 w
c8
385 0 1218 689 2 MP stroke
gr

6 w
c8
1 sg
0 1118 1475 0 0 -1118 2839 1507 4 MP
PP
-1475 0 0 1118 1475 0 0 -1118 2839 1507 5 MP stroke
4 w
DO
SO
6 w
0 sg
2839 1507 mt 4314 1507 L
2839  389 mt 4314  389 L
2839 1507 mt 2839  389 L
4314 1507 mt 4314  389 L
2839 1507 mt 4314 1507 L
2839 1507 mt 2839  389 L
2839 1507 mt 2839 1492 L
2839  389 mt 2839  403 L
2736 1652 mt 
(-2) s
3576 1507 mt 3576 1492 L
3576  389 mt 3576  403 L
3543 1652 mt 
(0) s
4314 1507 mt 4314 1492 L
4314  389 mt 4314  403 L
4281 1652 mt 
(2) s
2839 1507 mt 2853 1507 L
4314 1507 mt 4299 1507 L
2738 1551 mt 
(0) s
2839 1134 mt 2853 1134 L
4314 1134 mt 4299 1134 L
2738 1178 mt 
(1) s
2839  761 mt 2853  761 L
4314  761 mt 4299  761 L
2738  805 mt 
(2) s
2839  389 mt 2853  389 L
4314  389 mt 4299  389 L
2738  433 mt 
(3) s
2839 1507 mt 4314 1507 L
2839  389 mt 4314  389 L
2839 1507 mt 2839  389 L
4314 1507 mt 4314  389 L
gs 2839 389 1476 1119 rc
24 w
18 3 19 -2 18 1 19 0 18 4 19 -1 18 2 18 1 
19 5 18 0 19 5 18 1 19 7 18 1 18 7 19 1 
18 13 19 -1 18 17 19 7 18 -1 19 18 18 1 18 31 
19 -1 18 30 19 9 18 52 19 13 18 46 18 19 19 89 
18 3 19 89 18 -1 19 128 18 -31 19 77 18 98 18 -135 
19 37 18 -77 19 31 18 -128 19 1 18 -89 18 -3 19 -89 
18 -19 19 -46 18 -13 19 -52 18 -9 19 -30 18 1 18 -31 
19 -1 18 -18 19 1 18 -7 19 -17 18 1 18 -13 19 -1 
18 -7 19 -1 18 -7 19 -1 18 -5 19 0 18 -5 18 -1 
19 -2 18 1 19 -4 18 0 19 -1 18 2 18 -3 2839 1496 80 MP stroke
6 w
c8
18 25 19 -49 18 5 19 -33 18 7 19 -47 18 0 18 -34 
19 14 18 -44 19 2 18 -23 19 6 18 -25 18 -4 19 -12 
18 1 19 -19 18 2 19 -10 18 -12 19 -4 18 -10 18 -3 
19 -8 18 -4 19 -5 18 -2 19 -5 18 -1 18 -3 19 0 
18 -2 19 -1 18 0 19 0 18 -1 19 0 18 0 18 0 
19 0 18 0 19 0 18 0 19 1 18 1 18 1 19 1 
18 2 19 3 18 4 19 2 18 5 19 5 18 11 18 -1 
19 12 18 3 19 17 18 8 19 -1 18 20 18 -1 19 16 
18 5 19 23 18 -4 19 22 18 -1 19 42 18 -19 18 37 
19 -9 18 48 19 -8 18 32 19 -8 18 48 18 -22 2839 1211 80 MP stroke
gr

c8
0 sg
3206  294 mt 
(Noisy Speech) s
2822 1550 mt 
( ) s
4298  431 mt 
( ) s
3581  585 mt 
(SAC\(B+\)) s
gs 3082 449 1173 335 rc
24 w
384 0 3158 542 2 MP stroke
gr

24 w
3581  732 mt 
(SCC\(B+,B-\)) s
gs 3082 449 1173 335 rc
6 w
c8
384 0 3158 689 2 MP stroke
gr

6 w
c8
1 sg
0 1118 1475 0 0 -1118 4780 1507 4 MP
PP
-1475 0 0 1118 1475 0 0 -1118 4780 1507 5 MP stroke
4 w
DO
SO
6 w
0 sg
4780 1507 mt 6255 1507 L
4780  389 mt 6255  389 L
4780 1507 mt 4780  389 L
6255 1507 mt 6255  389 L
4780 1507 mt 6255 1507 L
4780 1507 mt 4780  389 L
4780 1507 mt 4780 1492 L
4780  389 mt 4780  403 L
4677 1652 mt 
(-2) s
5517 1507 mt 5517 1492 L
5517  389 mt 5517  403 L
5484 1652 mt 
(0) s
6255 1507 mt 6255 1492 L
6255  389 mt 6255  403 L
6222 1652 mt 
(2) s
4780 1507 mt 4794 1507 L
6255 1507 mt 6240 1507 L
4679 1551 mt 
(0) s
4780  948 mt 4794  948 L
6255  948 mt 6240  948 L
4579  992 mt 
(0.5) s
4780  389 mt 4794  389 L
6255  389 mt 6240  389 L
4679  433 mt 
(1) s
4780 1507 mt 6255 1507 L
4780  389 mt 6255  389 L
4780 1507 mt 4780  389 L
6255 1507 mt 6255  389 L
gs 4780 389 1476 1119 rc
24 w
18 75 19 -148 18 17 19 -100 18 20 19 -140 18 -1 18 -101 
19 41 18 -132 19 7 18 -70 19 20 18 -75 18 -14 19 -36 
18 5 19 -59 18 8 19 -32 18 -36 19 -10 18 -31 18 -10 
19 -24 18 -10 19 -16 18 -5 19 -15 18 -3 18 -10 19 -1 
18 -6 19 -1 18 -1 19 -1 18 -1 19 0 18 0 18 -1 
19 0 18 1 19 0 18 0 19 2 18 2 18 4 19 4 
18 5 19 9 18 11 19 8 18 14 19 16 18 33 18 -3 
19 35 18 8 19 51 18 26 19 -5 18 62 18 -4 19 49 
18 15 19 68 18 -13 19 66 18 -1 19 126 18 -57 18 109 
19 -25 18 144 19 -25 18 97 19 -25 18 145 18 -67 4780 620 80 MP stroke
6 w
c8
18 107 19 -124 18 71 19 -87 18 73 19 -135 18 41 18 -106 
19 70 18 -129 19 21 18 -94 19 56 18 -112 18 21 19 -70 
18 35 19 -70 18 14 19 -20 18 -60 19 1 18 -27 18 21 
19 -49 18 -11 19 -20 18 12 19 -28 18 -5 18 -6 19 4 
18 -23 19 1 18 -9 19 10 18 -17 19 3 18 19 18 -21 
19 11 18 -5 19 13 18 -5 19 15 18 -7 18 34 19 -10 
18 12 19 11 18 20 19 2 18 26 19 -2 18 49 18 -11 
19 54 18 -2 19 58 18 42 19 -33 18 96 18 -41 19 71 
18 -2 19 88 18 -46 19 70 18 -23 19 132 18 -88 18 75 
19 -60 18 108 19 -83 18 77 19 -68 18 86 18 -107 4780 846 80 MP stroke
gr

c8
0 sg
4893  294 mt 
(Speech / Noisy Speech) s
4763 1550 mt 
( ) s
6239  431 mt 
( ) s
5522  585 mt 
(SCC\(A+,B+\)) s
gs 5023 449 1173 335 rc
24 w
384 0 5099 542 2 MP stroke
gr

24 w
5522  732 mt 
(SCC\(A+,B-\)) s
gs 5023 449 1173 335 rc
6 w
c8
384 0 5099 689 2 MP stroke
gr

6 w
c8
1 sg
0 1119 1475 0 0 -1119 899 3061 4 MP
PP
-1475 0 0 1119 1475 0 0 -1119 899 3061 5 MP stroke
4 w
DO
SO
6 w
0 sg
 899 3061 mt 2374 3061 L
 899 1942 mt 2374 1942 L
 899 3061 mt  899 1942 L
2374 3061 mt 2374 1942 L
 899 3061 mt 2374 3061 L
 899 3061 mt  899 1942 L
 899 3061 mt  899 3046 L
 899 1942 mt  899 1956 L
 796 3206 mt 
(-2) s
1636 3061 mt 1636 3046 L
1636 1942 mt 1636 1956 L
1603 3206 mt 
(0) s
2374 3061 mt 2374 3046 L
2374 1942 mt 2374 1956 L
2341 3206 mt 
(2) s
 899 3061 mt  913 3061 L
2374 3061 mt 2359 3061 L
 728 3105 mt 
(-2) s
 899 2688 mt  913 2688 L
2374 2688 mt 2359 2688 L
 798 2732 mt 
(0) s
 899 2315 mt  913 2315 L
2374 2315 mt 2359 2315 L
 798 2359 mt 
(2) s
 899 1942 mt  913 1942 L
2374 1942 mt 2359 1942 L
 798 1986 mt 
(4) s
 899 3061 mt 2374 3061 L
 899 1942 mt 2374 1942 L
 899 3061 mt  899 1942 L
2374 3061 mt 2374 1942 L
gs 899 1942 1476 1120 rc
24 w
18 -27 19 44 18 -10 19 31 18 -12 19 42 18 -2 18 33 
19 -6 18 32 19 4 18 17 19 3 18 19 18 4 19 14 
18 6 19 12 18 9 19 7 18 8 19 10 18 7 18 18 
19 2 18 15 19 9 18 30 19 8 18 27 18 4 19 49 
18 1 19 55 18 -2 19 70 18 -18 19 48 18 49 18 -72 
19 23 18 -48 19 19 18 -71 19 3 18 -55 18 -2 19 -48 
18 -5 19 -27 18 -10 19 -29 18 -11 19 -16 18 -4 18 -19 
19 -9 18 -10 19 -9 18 -12 19 -9 18 -15 18 -4 19 -16 
18 -9 19 -16 18 -4 19 -20 18 0 19 -32 18 14 18 -27 
19 5 18 -26 19 11 18 -17 19 12 18 -22 18 23 899 2846 80 MP stroke
gr

24 w
 646 2732 mt  -90 rotate
(DIFCOR) s
90 rotate
6 w
1 sg
0 1119 1475 0 0 -1119 2839 3061 4 MP
PP
-1475 0 0 1119 1475 0 0 -1119 2839 3061 5 MP stroke
4 w
DO
SO
6 w
0 sg
2839 3061 mt 4314 3061 L
2839 1942 mt 4314 1942 L
2839 3061 mt 2839 1942 L
4314 3061 mt 4314 1942 L
2839 3061 mt 4314 3061 L
2839 3061 mt 2839 1942 L
2839 3061 mt 2839 3046 L
2839 1942 mt 2839 1956 L
2736 3206 mt 
(-2) s
3576 3061 mt 3576 3046 L
3576 1942 mt 3576 1956 L
3543 3206 mt 
(0) s
4314 3061 mt 4314 3046 L
4314 1942 mt 4314 1956 L
4281 3206 mt 
(2) s
2839 3061 mt 2853 3061 L
4314 3061 mt 4299 3061 L
2668 3105 mt 
(-1) s
2839 2781 mt 2853 2781 L
4314 2781 mt 4299 2781 L
2738 2825 mt 
(0) s
2839 2501 mt 2853 2501 L
4314 2501 mt 4299 2501 L
2738 2545 mt 
(1) s
2839 2221 mt 2853 2221 L
4314 2221 mt 4299 2221 L
2738 2265 mt 
(2) s
2839 1942 mt 2853 1942 L
4314 1942 mt 4299 1942 L
2738 1986 mt 
(3) s
2839 3061 mt 4314 3061 L
2839 1942 mt 4314 1942 L
2839 3061 mt 2839 1942 L
4314 3061 mt 4314 1942 L
gs 2839 1942 1476 1120 rc
24 w
18 -17 19 36 18 -4 19 25 18 -3 19 35 18 2 18 26 
19 -7 18 34 19 1 18 19 19 0 18 19 18 9 19 10 
18 9 19 13 18 11 19 13 18 9 19 16 18 9 18 25 
19 5 18 26 19 10 18 41 19 13 18 35 18 17 19 67 
18 4 19 66 18 0 19 96 18 -23 19 59 18 73 18 -101 
19 28 18 -58 19 23 18 -96 19 0 18 -67 18 -3 19 -68 
18 -16 19 -37 18 -12 19 -41 18 -10 19 -27 18 -8 18 -22 
19 -10 18 -15 19 -12 18 -12 19 -11 18 -15 18 -9 19 -12 
18 -10 19 -18 18 -2 19 -17 18 -3 19 -32 18 11 18 -28 
19 4 18 -35 19 3 18 -24 19 6 18 -35 18 14 2839 2995 80 MP stroke
6 w
gr

1 sg
0 1119 1475 0 0 -1119 4780 3061 4 MP
PP
-1475 0 0 1119 1475 0 0 -1119 4780 3061 5 MP stroke
4 w
DO
SO
6 w
0 sg
4780 3061 mt 6255 3061 L
4780 1942 mt 6255 1942 L
4780 3061 mt 4780 1942 L
6255 3061 mt 6255 1942 L
4780 3061 mt 6255 3061 L
4780 3061 mt 4780 1942 L
4780 3061 mt 4780 3046 L
4780 1942 mt 4780 1956 L
4677 3206 mt 
(-2) s
5517 3061 mt 5517 3046 L
5517 1942 mt 5517 1956 L
5484 3206 mt 
(0) s
6255 3061 mt 6255 3046 L
6255 1942 mt 6255 1956 L
6222 3206 mt 
(2) s
4780 3061 mt 4794 3061 L
6255 3061 mt 6240 3061 L
4609 3105 mt 
(-1) s
4780 2781 mt 4794 2781 L
6255 2781 mt 6240 2781 L
4679 2825 mt 
(0) s
4780 2501 mt 4794 2501 L
6255 2501 mt 6240 2501 L
4679 2545 mt 
(1) s
4780 2221 mt 4794 2221 L
6255 2221 mt 6240 2221 L
4679 2265 mt 
(2) s
4780 1942 mt 4794 1942 L
6255 1942 mt 6240 1942 L
4679 1986 mt 
(3) s
4780 3061 mt 6255 3061 L
4780 1942 mt 6255 1942 L
4780 3061 mt 4780 1942 L
6255 3061 mt 6255 1942 L
gs 4780 1942 1476 1120 rc
24 w
18 -26 19 31 18 -17 19 22 18 -17 19 34 18 -8 18 28 
19 -15 18 32 19 -2 18 25 19 -9 18 31 18 -2 19 22 
18 1 19 19 18 11 19 11 18 16 19 13 18 10 18 21 
19 9 18 24 19 17 18 38 19 19 18 39 18 6 19 73 
18 6 19 82 18 -2 19 103 18 -23 19 71 18 68 18 -102 
19 32 18 -71 19 25 18 -105 19 0 18 -80 18 -9 19 -71 
18 -8 19 -41 18 -16 19 -42 18 -18 19 -21 18 -9 18 -23 
19 -18 18 -12 19 -16 18 -17 19 -6 18 -25 18 1 19 -22 
18 -3 19 -25 18 6 19 -19 18 3 19 -34 18 20 18 -20 
19 13 18 -27 19 20 18 -21 19 17 18 -22 18 27 4780 2942 80 MP stroke
gr

24 w
%%IncludeResource: font Symbol
/Symbol /ISOLatin1Encoding 120 FMSR

4872 2191 mt 
(r) s
%%IncludeResource: font Helvetica
/Helvetica /ISOLatin1Encoding 96 FMSR

4937 2251 mt 
(TFS) s
%%IncludeResource: font Helvetica
/Helvetica /ISOLatin1Encoding 120 FMSR

5118 2191 mt 
( = 0.98872) s
6 w
1 sg
0 1119 1475 0 0 -1119 899 4615 4 MP
PP
-1475 0 0 1119 1475 0 0 -1119 899 4615 5 MP stroke
4 w
DO
SO
6 w
0 sg
 899 4615 mt 2374 4615 L
 899 3496 mt 2374 3496 L
 899 4615 mt  899 3496 L
2374 4615 mt 2374 3496 L
 899 4615 mt 2374 4615 L
 899 4615 mt  899 3496 L
 899 4615 mt  899 4600 L
 899 3496 mt  899 3510 L
 796 4760 mt 
(-2) s
1636 4615 mt 1636 4600 L
1636 3496 mt 1636 3510 L
1603 4760 mt 
(0) s
2374 4615 mt 2374 4600 L
2374 3496 mt 2374 3510 L
2341 4760 mt 
(2) s
 899 4615 mt  913 4615 L
2374 4615 mt 2359 4615 L
 798 4659 mt 
(0) s
 899 4242 mt  913 4242 L
2374 4242 mt 2359 4242 L
 698 4286 mt 
(0.5) s
 899 3869 mt  913 3869 L
2374 3869 mt 2359 3869 L
 798 3913 mt 
(1) s
 899 3496 mt  913 3496 L
2374 3496 mt 2359 3496 L
 698 3540 mt 
(1.5) s
 899 4615 mt 2374 4615 L
 899 3496 mt 2374 3496 L
 899 4615 mt  899 3496 L
2374 4615 mt 2374 3496 L
gs 899 3496 1476 1120 rc
24 w
18 54 19 -86 18 20 19 -58 18 26 19 -84 18 9 18 -61 
19 18 18 -63 19 0 18 -29 19 7 18 -30 18 0 19 -16 
18 15 19 -22 18 21 19 1 18 -12 19 15 18 -5 18 34 
19 -11 18 27 19 10 18 52 19 14 18 48 18 5 19 97 
18 0 19 109 18 -7 19 142 18 -37 19 95 18 98 18 -143 
19 45 18 -96 19 38 18 -142 19 6 18 -109 18 1 19 -98 
18 -5 19 -47 18 -11 19 -52 18 -8 19 -25 18 17 18 -32 
19 7 18 -15 19 16 18 8 19 -22 18 27 18 -17 19 21 
18 9 19 25 18 -7 19 36 18 -7 19 61 18 -34 18 51 
19 -15 18 52 19 -25 18 31 19 -25 18 43 18 -47 899 4288 80 MP stroke
gr

24 w
 616 4323 mt  -90 rotate
(SUMCOR) s
90 rotate
6 w
1 sg
0 1119 1475 0 0 -1119 2839 4615 4 MP
PP
-1475 0 0 1119 1475 0 0 -1119 2839 4615 5 MP stroke
4 w
DO
SO
6 w
0 sg
2839 4615 mt 4314 4615 L
2839 3496 mt 4314 3496 L
2839 4615 mt 2839 3496 L
4314 4615 mt 4314 3496 L
2839 4615 mt 4314 4615 L
2839 4615 mt 2839 3496 L
2839 4615 mt 2839 4600 L
2839 3496 mt 2839 3510 L
2736 4760 mt 
(-2) s
3576 4615 mt 3576 4600 L
3576 3496 mt 3576 3510 L
3543 4760 mt 
(0) s
4314 4615 mt 4314 4600 L
4314 3496 mt 4314 3510 L
4281 4760 mt 
(2) s
2839 4615 mt 2853 4615 L
4314 4615 mt 4299 4615 L
2738 4659 mt 
(0) s
2839 4242 mt 2853 4242 L
4314 4242 mt 4299 4242 L
2638 4286 mt 
(0.5) s
2839 3869 mt 2853 3869 L
4314 3869 mt 4299 3869 L
2738 3913 mt 
(1) s
2839 3496 mt 2853 3496 L
4314 3496 mt 4299 3496 L
2638 3540 mt 
(1.5) s
2839 4615 mt 4314 4615 L
2839 3496 mt 4314 3496 L
2839 4615 mt 2839 3496 L
4314 4615 mt 4314 3496 L
gs 2839 3496 1476 1120 rc
24 w
18 28 19 -51 18 6 19 -34 18 11 19 -47 18 1 18 -33 
19 19 18 -44 19 8 18 -23 19 14 18 -24 18 2 19 -11 
18 15 19 -21 18 20 19 -4 18 -13 19 15 18 -9 18 27 
19 -8 18 26 19 3 18 51 19 8 18 45 18 15 19 90 
18 1 19 88 18 -1 19 127 18 -31 19 78 18 97 18 -134 
19 37 18 -78 19 31 18 -128 19 1 18 -87 18 -2 19 -88 
18 -17 19 -43 18 -9 19 -50 18 -4 19 -25 18 12 18 -32 
19 11 18 -16 19 18 18 2 19 -19 18 22 18 -14 19 15 
18 -2 19 22 18 -11 19 20 18 -5 19 42 18 -24 18 35 
19 -10 18 49 19 -12 18 32 19 -9 18 50 18 -25 2839 4308 80 MP stroke
gr

24 w
3293 4903 mt 
(Delay [ms]) s
6 w
1 sg
0 1119 1475 0 0 -1119 4780 4615 4 MP
PP
-1475 0 0 1119 1475 0 0 -1119 4780 4615 5 MP stroke
4 w
DO
SO
6 w
0 sg
4780 4615 mt 6255 4615 L
4780 3496 mt 6255 3496 L
4780 4615 mt 4780 3496 L
6255 4615 mt 6255 3496 L
4780 4615 mt 6255 4615 L
4780 4615 mt 4780 3496 L
4780 4615 mt 4780 4600 L
4780 3496 mt 4780 3510 L
4677 4760 mt 
(-2) s
5517 4615 mt 5517 4600 L
5517 3496 mt 5517 3510 L
5484 4760 mt 
(0) s
6255 4615 mt 6255 4600 L
6255 3496 mt 6255 3510 L
6222 4760 mt 
(2) s
4780 4615 mt 4794 4615 L
6255 4615 mt 6240 4615 L
4679 4659 mt 
(0) s
4780 4242 mt 4794 4242 L
6255 4242 mt 6240 4242 L
4579 4286 mt 
(0.5) s
4780 3869 mt 4794 3869 L
6255 3869 mt 6240 3869 L
4679 3913 mt 
(1) s
4780 3496 mt 4794 3496 L
6255 3496 mt 6240 3496 L
4579 3540 mt 
(1.5) s
4780 4615 mt 6255 4615 L
4780 3496 mt 6255 3496 L
4780 4615 mt 4780 3496 L
6255 4615 mt 6255 3496 L
gs 4780 3496 1476 1120 rc
24 w
18 36 19 -41 18 25 19 -28 18 26 19 -45 18 16 18 -33 
19 26 18 -42 19 11 18 -29 19 25 18 -34 18 12 19 -18 
18 25 19 -22 18 24 19 1 18 -18 19 18 18 -4 18 42 
19 -21 18 25 19 8 18 60 19 6 18 48 18 5 19 99 
18 -6 19 109 18 -9 19 146 18 -43 19 97 18 104 18 -151 
19 50 18 -98 19 42 18 -144 19 11 18 -111 18 10 19 -101 
18 -3 19 -47 18 -9 19 -54 18 -7 19 -29 18 20 18 -38 
19 13 18 -18 19 18 18 6 19 -31 18 31 18 -27 19 19 
18 -6 19 26 18 -22 19 21 18 -12 19 44 18 -33 18 23 
19 -22 18 35 19 -28 18 24 19 -24 18 29 18 -36 4780 4389 80 MP stroke
gr

24 w
%%IncludeResource: font Symbol
/Symbol /ISOLatin1Encoding 120 FMSR

4872 3748 mt 
(r) s
%%IncludeResource: font Helvetica
/Helvetica /ISOLatin1Encoding 96 FMSR

4937 3808 mt 
(ENV) s
%%IncludeResource: font Helvetica
/Helvetica /ISOLatin1Encoding 120 FMSR

5134 3748 mt 
( = 5.5876) s
6 w

end %%Color Dict

eplot
%%EndObject

epage
end

showpage

%%Trailer
%%EOF
