%!PS-Adobe-3.0 EPSF-3.0
%%Creator: MATLAB, The MathWorks, Inc. Version 8.3.0.532 (R2014a). Operating System: Linux 3.13.0-57-generic #95-Ubuntu SMP Fri Jun 19 09:28:15 UTC 2015 x86_64.
%%Title: ./modulatedPT1kHz_fm10SacScc_CF1010.eps
%%CreationDate: 10/09/2015  14:39:22
%%DocumentNeededFonts: Helvetica
%%DocumentProcessColors: Cyan Magenta Yellow Black
%%LanguageLevel: 2
%%Pages: 1
%%BoundingBox:    58   199   546   608
%%EndComments

%%BeginProlog
% MathWorks dictionary
/MathWorks 160 dict begin
% definition operators
/bdef {bind def} bind def
/ldef {load def} bind def
/xdef {exch def} bdef
/xstore {exch store} bdef
% operator abbreviations
/c  /clip ldef
/cc /concat ldef
/cp /closepath ldef
/gr /grestore ldef
/gs /gsave ldef
/mt /moveto ldef
/np /newpath ldef
/cm /currentmatrix ldef
/sm /setmatrix ldef
/rm /rmoveto ldef
/rl /rlineto ldef
/s {show newpath} bdef
/sc {setcmykcolor} bdef
/sr /setrgbcolor ldef
/sg /setgray ldef
/w /setlinewidth ldef
/j /setlinejoin ldef
/cap /setlinecap ldef
/rc {rectclip} bdef
/rf {rectfill} bdef
% page state control
/pgsv () def
/bpage {/pgsv save def} bdef
/epage {pgsv restore} bdef
/bplot /gsave ldef
/eplot {stroke grestore} bdef
% orientation switch
/portraitMode 0 def /landscapeMode 1 def /rotateMode 2 def
% coordinate system mappings
/dpi2point 0 def
% font control
/FontSize 0 def
/FMS {/FontSize xstore findfont [FontSize 0 0 FontSize neg 0 0]
  makefont setfont} bdef
/reencode {exch dup where {pop load} {pop StandardEncoding} ifelse
  exch dup 3 1 roll findfont dup length dict begin
  { 1 index /FID ne {def}{pop pop} ifelse } forall
  /Encoding exch def currentdict end definefont pop} bdef
/isroman {findfont /CharStrings get /Agrave known} bdef
/FMSR {3 1 roll 1 index dup isroman {reencode} {pop pop} ifelse
  exch FMS} bdef
/csm {1 dpi2point div -1 dpi2point div scale neg translate
 dup landscapeMode eq {pop -90 rotate}
  {rotateMode eq {90 rotate} if} ifelse} bdef
% line types: solid, dotted, dashed, dotdash
/SO { [] 0 setdash } bdef
/DO { [.5 dpi2point mul 4 dpi2point mul] 0 setdash } bdef
/DA { [6 dpi2point mul] 0 setdash } bdef
/DD { [.5 dpi2point mul 4 dpi2point mul 6 dpi2point mul 4
  dpi2point mul] 0 setdash } bdef
% macros for lines and objects
/L {lineto stroke} bdef
/MP {3 1 roll moveto 1 sub {rlineto} repeat} bdef
/AP {{rlineto} repeat} bdef
/PDlw -1 def
/W {/PDlw currentlinewidth def setlinewidth} def
/PP {closepath eofill} bdef
/DP {closepath stroke} bdef
/MR {4 -2 roll moveto dup  0 exch rlineto exch 0 rlineto
  neg 0 exch rlineto closepath} bdef
/FR {MR stroke} bdef
/PR {MR fill} bdef
/L1i {{currentfile picstr readhexstring pop} image} bdef
/tMatrix matrix def
/MakeOval {newpath tMatrix currentmatrix pop translate scale
0 0 1 0 360 arc tMatrix setmatrix} bdef
/FO {MakeOval stroke} bdef
/PO {MakeOval fill} bdef
/PD {currentlinewidth 2 div 0 360 arc fill
   PDlw -1 eq not {PDlw w /PDlw -1 def} if} def
/FA {newpath tMatrix currentmatrix pop translate scale
  0 0 1 5 -2 roll arc tMatrix setmatrix stroke} bdef
/PA {newpath tMatrix currentmatrix pop	translate 0 0 moveto scale
  0 0 1 5 -2 roll arc closepath tMatrix setmatrix fill} bdef
/FAn {newpath tMatrix currentmatrix pop translate scale
  0 0 1 5 -2 roll arcn tMatrix setmatrix stroke} bdef
/PAn {newpath tMatrix currentmatrix pop translate 0 0 moveto scale
  0 0 1 5 -2 roll arcn closepath tMatrix setmatrix fill} bdef
/vradius 0 def /hradius 0 def /lry 0 def
/lrx 0 def /uly 0 def /ulx 0 def /rad 0 def
/MRR {/vradius xdef /hradius xdef /lry xdef /lrx xdef /uly xdef
  /ulx xdef newpath tMatrix currentmatrix pop ulx hradius add uly
  vradius add translate hradius vradius scale 0 0 1 180 270 arc 
  tMatrix setmatrix lrx hradius sub uly vradius add translate
  hradius vradius scale 0 0 1 270 360 arc tMatrix setmatrix
  lrx hradius sub lry vradius sub translate hradius vradius scale
  0 0 1 0 90 arc tMatrix setmatrix ulx hradius add lry vradius sub
  translate hradius vradius scale 0 0 1 90 180 arc tMatrix setmatrix
  closepath} bdef
/FRR {MRR stroke } bdef
/PRR {MRR fill } bdef
/MlrRR {/lry xdef /lrx xdef /uly xdef /ulx xdef /rad lry uly sub 2 div def
  newpath tMatrix currentmatrix pop ulx rad add uly rad add translate
  rad rad scale 0 0 1 90 270 arc tMatrix setmatrix lrx rad sub lry rad
  sub translate rad rad scale 0 0 1 270 90 arc tMatrix setmatrix
  closepath} bdef
/FlrRR {MlrRR stroke } bdef
/PlrRR {MlrRR fill } bdef
/MtbRR {/lry xdef /lrx xdef /uly xdef /ulx xdef /rad lrx ulx sub 2 div def
  newpath tMatrix currentmatrix pop ulx rad add uly rad add translate
  rad rad scale 0 0 1 180 360 arc tMatrix setmatrix lrx rad sub lry rad
  sub translate rad rad scale 0 0 1 0 180 arc tMatrix setmatrix
  closepath} bdef
/FtbRR {MtbRR stroke } bdef
/PtbRR {MtbRR fill } bdef
/stri 6 array def /dtri 6 array def
/smat 6 array def /dmat 6 array def
/tmat1 6 array def /tmat2 6 array def /dif 3 array def
/asub {/ind2 exch def /ind1 exch def dup dup
  ind1 get exch ind2 get sub exch } bdef
/tri_to_matrix {
  2 0 asub 3 1 asub 4 0 asub 5 1 asub
  dup 0 get exch 1 get 7 -1 roll astore } bdef
/compute_transform {
  dmat dtri tri_to_matrix tmat1 invertmatrix 
  smat stri tri_to_matrix tmat2 concatmatrix } bdef
/ds {stri astore pop} bdef
/dt {dtri astore pop} bdef
/db {2 copy /cols xdef /rows xdef mul dup 3 mul string
  currentfile 
  3 index 0 eq {/ASCIIHexDecode filter}
  {/ASCII85Decode filter 3 index 2 eq {/RunLengthDecode filter} if }
  ifelse exch readstring pop
  dup 0 3 index getinterval /rbmap xdef
  dup 2 index dup getinterval /gbmap xdef
  1 index dup 2 mul exch getinterval /bbmap xdef pop pop}bdef
/it {gs np dtri aload pop moveto lineto lineto cp c
  cols rows 8 compute_transform 
  rbmap gbmap bbmap true 3 colorimage gr}bdef
/il {newpath moveto lineto stroke}bdef
currentdict end def
%%EndProlog

%%BeginSetup
MathWorks begin

0 cap

end
%%EndSetup

%%Page: 1 1
%%BeginPageSetup
%%PageBoundingBox:    58   199   546   608
MathWorks begin
bpage
%%EndPageSetup

%%BeginObject: obj1
bplot

/dpi2point 12 def
portraitMode 0216 7344 csm

  480    37  5865  4918 rc
85 dict begin %Colortable dictionary
/c0 { 0.000000 0.000000 0.000000 sr} bdef
/c1 { 1.000000 1.000000 1.000000 sr} bdef
/c2 { 0.900000 0.000000 0.000000 sr} bdef
/c3 { 0.000000 0.820000 0.000000 sr} bdef
/c4 { 0.000000 0.000000 0.800000 sr} bdef
/c5 { 0.910000 0.820000 0.320000 sr} bdef
/c6 { 1.000000 0.260000 0.820000 sr} bdef
/c7 { 0.000000 0.820000 0.820000 sr} bdef
c0
1 j
1 sg
   0    0 6913 5186 rf
6 w
0 sg
%%IncludeResource: font Helvetica
/Helvetica /ISOLatin1Encoding 120 FMSR

2682  221 mt 
(Neural Correlations CF = 1010Hz) s
1 sg
0 1118 1475 0 0 -1118 899 1507 4 MP
PP
-1475 0 0 1118 1475 0 0 -1118 899 1507 5 MP stroke
4 w
DO
SO
6 w
0 sg
 899 1507 mt 2374 1507 L
 899  389 mt 2374  389 L
 899 1507 mt  899  389 L
2374 1507 mt 2374  389 L
 899 1507 mt 2374 1507 L
 899 1507 mt  899  389 L
 899 1507 mt  899 1492 L
 899  389 mt  899  403 L
 796 1652 mt 
(-2) s
1636 1507 mt 1636 1492 L
1636  389 mt 1636  403 L
1603 1652 mt 
(0) s
2374 1507 mt 2374 1492 L
2374  389 mt 2374  403 L
2341 1652 mt 
(2) s
 899 1507 mt  913 1507 L
2374 1507 mt 2359 1507 L
 798 1551 mt 
(0) s
 899 1227 mt  913 1227 L
2374 1227 mt 2359 1227 L
 798 1271 mt 
(1) s
 899  948 mt  913  948 L
2374  948 mt 2359  948 L
 798  992 mt 
(2) s
 899  668 mt  913  668 L
2374  668 mt 2359  668 L
 798  712 mt 
(3) s
 899  389 mt  913  389 L
2374  389 mt 2359  389 L
 798  433 mt 
(4) s
 899 1507 mt 2374 1507 L
 899  389 mt 2374  389 L
 899 1507 mt  899  389 L
2374 1507 mt 2374  389 L
gs 899 389 1476 1119 rc
24 w
18 -70 19 -115 18 -178 19 -134 18 -164 19 -96 18 -56 18 -35 
19 -13 18 1 19 12 18 30 19 63 18 107 18 121 19 157 
18 175 19 143 18 255 19 -204 18 -81 19 -119 18 -172 18 -131 
19 -159 18 -91 19 -63 18 -32 19 -13 18 2 18 15 19 34 
18 60 19 102 18 118 19 150 18 203 19 136 18 243 18 -188 
19 -55 18 -136 19 -203 18 -150 19 -118 18 -102 18 -60 19 -34 
18 -15 19 -2 18 13 19 32 18 63 19 91 18 159 18 131 
19 172 18 119 19 81 18 204 19 -255 18 -143 18 -175 19 -157 
18 -121 19 -107 18 -63 19 -30 18 -12 19 -1 18 13 18 35 
19 56 18 96 19 164 18 134 19 178 18 115 18 70 899 637 80 MP stroke
6 w
/c8 { 1.000000 0.000000 0.000000 sr} bdef
c8
18 10 19 29 18 51 19 88 18 131 19 148 18 142 18 107 
19 178 18 -118 19 -48 18 -108 19 -156 18 -144 18 -129 19 -85 
18 -53 19 -33 18 -9 19 -2 18 9 19 32 18 50 18 108 
19 109 18 132 19 152 18 133 19 145 18 -79 18 -58 19 -116 
18 -168 19 -125 18 -138 19 -86 18 -57 19 -28 18 -13 18 -3 
19 10 18 29 19 50 18 92 19 141 18 126 18 144 19 126 
18 79 19 60 18 -135 19 -112 18 -142 19 -160 18 -112 18 -106 
19 -48 18 -28 19 -12 18 1 19 7 18 29 18 54 19 90 
18 144 19 115 18 161 19 118 18 84 19 60 18 -150 18 -112 
19 -147 18 -143 19 -123 18 -93 19 -53 18 -29 18 -12 899 1498 80 MP stroke
gr

c8
0 sg
1169  294 mt 
(Mod PT C1k M10) s
 882 1550 mt 
( ) s
2358  431 mt 
( ) s
1642  585 mt 
(SAC\(A+\)) s
gs 1142 449 1174 335 rc
24 w
385 0 1218 542 2 MP stroke
gr

24 w
1642  732 mt 
(SCC\(A+,A-\)) s
gs 1142 449 1174 335 rc
6 w
c8
385 0 1218 689 2 MP stroke
gr

6 w
c8
1 sg
0 1118 1475 0 0 -1118 2839 1507 4 MP
PP
-1475 0 0 1118 1475 0 0 -1118 2839 1507 5 MP stroke
4 w
DO
SO
6 w
0 sg
2839 1507 mt 4314 1507 L
2839  389 mt 4314  389 L
2839 1507 mt 2839  389 L
4314 1507 mt 4314  389 L
2839 1507 mt 4314 1507 L
2839 1507 mt 2839  389 L
2839 1507 mt 2839 1492 L
2839  389 mt 2839  403 L
2736 1652 mt 
(-2) s
3576 1507 mt 3576 1492 L
3576  389 mt 3576  403 L
3543 1652 mt 
(0) s
4314 1507 mt 4314 1492 L
4314  389 mt 4314  403 L
4281 1652 mt 
(2) s
2839 1507 mt 2853 1507 L
4314 1507 mt 4299 1507 L
2738 1551 mt 
(0) s
2839 1227 mt 2853 1227 L
4314 1227 mt 4299 1227 L
2738 1271 mt 
(1) s
2839  948 mt 2853  948 L
4314  948 mt 4299  948 L
2738  992 mt 
(2) s
2839  668 mt 2853  668 L
4314  668 mt 4299  668 L
2738  712 mt 
(3) s
2839  389 mt 2853  389 L
4314  389 mt 4299  389 L
2738  433 mt 
(4) s
2839 1507 mt 4314 1507 L
2839  389 mt 4314  389 L
2839 1507 mt 2839  389 L
4314 1507 mt 4314  389 L
gs 2839 389 1476 1119 rc
24 w
18 -46 19 -117 18 -140 19 -131 18 -124 19 -97 18 -55 18 -30 
19 -13 18 -3 19 12 18 23 19 57 18 99 18 99 19 164 
18 154 19 131 18 252 19 -152 18 -69 19 -120 18 -161 18 -146 
19 -134 18 -98 19 -62 18 -32 19 -14 18 1 18 10 19 29 
18 58 19 113 18 118 19 154 18 153 19 149 18 247 18 -186 
19 -61 18 -149 19 -153 18 -154 19 -118 18 -113 18 -58 19 -29 
18 -10 19 -1 18 14 19 32 18 62 19 98 18 134 18 146 
19 161 18 120 19 69 18 152 19 -252 18 -131 18 -154 19 -164 
18 -99 19 -99 18 -57 19 -23 18 -12 19 3 18 13 18 30 
19 55 18 96 19 125 18 131 19 140 18 117 18 46 2839 746 80 MP stroke
6 w
c8
18 7 19 23 18 52 19 76 18 106 19 142 18 141 18 111 
19 155 18 -78 19 -69 18 -95 19 -144 18 -115 18 -132 19 -82 
18 -57 19 -28 18 -10 19 -3 18 10 19 27 18 61 18 92 
19 116 18 131 19 172 18 115 19 131 18 -80 18 -61 19 -109 
18 -167 19 -116 18 -141 19 -81 18 -55 19 -31 18 -12 18 0 
19 13 18 31 19 56 18 89 19 148 18 120 18 156 19 105 
18 86 19 55 18 -185 19 -83 18 -171 19 -130 18 -108 18 -97 
19 -48 18 -30 19 -9 18 1 19 13 18 32 18 55 19 84 
18 137 19 124 18 144 19 96 18 48 19 43 18 -136 18 -117 
19 -151 18 -115 19 -115 18 -70 19 -42 18 -24 18 -9 2839 1503 80 MP stroke
gr

c8
0 sg
3076  294 mt 
(Mod PT C1k M100) s
2822 1550 mt 
( ) s
4298  431 mt 
( ) s
3581  585 mt 
(SAC\(B+\)) s
gs 3082 449 1173 335 rc
24 w
384 0 3158 542 2 MP stroke
gr

24 w
3581  732 mt 
(SCC\(B+,B-\)) s
gs 3082 449 1173 335 rc
6 w
c8
384 0 3158 689 2 MP stroke
gr

6 w
c8
1 sg
0 1118 1475 0 0 -1118 4780 1507 4 MP
PP
-1475 0 0 1118 1475 0 0 -1118 4780 1507 5 MP stroke
4 w
DO
SO
6 w
0 sg
4780 1507 mt 6255 1507 L
4780  389 mt 6255  389 L
4780 1507 mt 4780  389 L
6255 1507 mt 6255  389 L
4780 1507 mt 6255 1507 L
4780 1507 mt 4780  389 L
4780 1507 mt 4780 1492 L
4780  389 mt 4780  403 L
4677 1652 mt 
(-2) s
5517 1507 mt 5517 1492 L
5517  389 mt 5517  403 L
5484 1652 mt 
(0) s
6255 1507 mt 6255 1492 L
6255  389 mt 6255  403 L
6222 1652 mt 
(2) s
4780 1507 mt 4794 1507 L
6255 1507 mt 6240 1507 L
4679 1551 mt 
(0) s
4780 1227 mt 4794 1227 L
6255 1227 mt 6240 1227 L
4679 1271 mt 
(1) s
4780  948 mt 4794  948 L
6255  948 mt 6240  948 L
4679  992 mt 
(2) s
4780  668 mt 4794  668 L
6255  668 mt 6240  668 L
4679  712 mt 
(3) s
4780  389 mt 4794  389 L
6255  389 mt 6240  389 L
4679  433 mt 
(4) s
4780 1507 mt 6255 1507 L
4780  389 mt 6255  389 L
4780 1507 mt 4780  389 L
6255 1507 mt 6255  389 L
gs 4780 389 1476 1119 rc
24 w
18 7 19 23 18 52 19 76 18 106 19 142 18 141 18 111 
19 155 18 -78 19 -69 18 -95 19 -144 18 -115 18 -132 19 -82 
18 -57 19 -28 18 -10 19 -3 18 10 19 27 18 61 18 92 
19 116 18 131 19 172 18 115 19 131 18 -80 18 -61 19 -109 
18 -167 19 -116 18 -141 19 -81 18 -55 19 -31 18 -12 18 0 
19 13 18 31 19 56 18 89 19 148 18 120 18 156 19 105 
18 86 19 55 18 -185 19 -83 18 -171 19 -130 18 -108 18 -97 
19 -48 18 -30 19 -9 18 1 19 13 18 32 18 55 19 84 
18 137 19 124 18 144 19 96 18 48 19 43 18 -136 18 -117 
19 -151 18 -115 19 -115 18 -70 19 -42 18 -24 18 -9 4780 1503 80 MP stroke
6 w
c8
18 11 19 20 18 47 19 76 18 89 19 119 18 134 18 83 
19 119 18 -66 19 -40 18 -102 19 -125 18 -100 18 -110 19 -73 
18 -48 19 -25 18 -5 19 -4 18 10 19 27 18 41 18 92 
19 70 18 107 19 141 18 100 19 102 18 -39 18 -72 19 -97 
18 -134 19 -92 18 -108 19 -70 18 -42 19 -26 18 -6 18 -2 
19 8 18 24 19 47 18 54 19 111 18 127 18 104 19 106 
18 66 19 53 18 -132 19 -103 18 -97 19 -129 18 -86 18 -82 
19 -37 18 -22 19 -13 18 2 19 5 18 23 18 42 19 64 
18 106 19 106 18 137 19 84 18 72 19 48 18 -116 18 -89 
19 -131 18 -115 19 -88 18 -64 19 -55 18 -19 18 -11 4780 1498 80 MP stroke
gr

c8
0 sg
4893  294 mt 
(Speech / Noisy Speech) s
4763 1550 mt 
( ) s
6239  431 mt 
( ) s
5522  585 mt 
(SCC\(A+,B+\)) s
gs 5023 449 1173 335 rc
24 w
384 0 5099 542 2 MP stroke
gr

24 w
5522  732 mt 
(SCC\(A+,B-\)) s
gs 5023 449 1173 335 rc
6 w
c8
384 0 5099 689 2 MP stroke
gr

6 w
c8
1 sg
0 1119 1475 0 0 -1119 899 3061 4 MP
PP
-1475 0 0 1119 1475 0 0 -1119 899 3061 5 MP stroke
4 w
DO
SO
6 w
0 sg
 899 3061 mt 2374 3061 L
 899 1942 mt 2374 1942 L
 899 3061 mt  899 1942 L
2374 3061 mt 2374 1942 L
 899 3061 mt 2374 3061 L
 899 3061 mt  899 1942 L
 899 3061 mt  899 3046 L
 899 1942 mt  899 1956 L
 796 3206 mt 
(-2) s
1636 3061 mt 1636 3046 L
1636 1942 mt 1636 1956 L
1603 3206 mt 
(0) s
2374 3061 mt 2374 3046 L
2374 1942 mt 2374 1956 L
2341 3206 mt 
(2) s
 899 3061 mt  913 3061 L
2374 3061 mt 2359 3061 L
 728 3105 mt 
(-4) s
 899 2781 mt  913 2781 L
2374 2781 mt 2359 2781 L
 728 2825 mt 
(-2) s
 899 2501 mt  913 2501 L
2374 2501 mt 2359 2501 L
 798 2545 mt 
(0) s
 899 2221 mt  913 2221 L
2374 2221 mt 2359 2221 L
 798 2265 mt 
(2) s
 899 1942 mt  913 1942 L
2374 1942 mt 2359 1942 L
 798 1986 mt 
(4) s
 899 3061 mt 2374 3061 L
 899 1942 mt 2374 1942 L
 899 3061 mt  899 1942 L
2374 3061 mt 2374 1942 L
gs 899 1942 1476 1120 rc
24 w
18 -41 19 -72 18 -115 19 -111 18 -147 19 -122 18 -99 18 -72 
19 -95 18 59 19 31 18 69 19 110 18 125 18 125 19 122 
18 113 19 88 18 132 19 -100 18 -46 19 -75 18 -111 18 -120 
19 -134 18 -112 19 -107 18 -83 19 -79 18 40 18 37 19 75 
18 114 19 114 18 128 19 118 18 131 19 81 18 129 18 -93 
19 -33 18 -82 19 -127 18 -121 19 -130 18 -114 18 -102 19 -80 
18 -47 19 -31 18 74 19 72 18 103 19 126 18 135 18 119 
19 110 18 74 19 46 18 102 19 -132 18 -86 18 -114 19 -124 
18 -132 19 -112 18 -111 19 -75 18 -48 19 -30 18 81 18 74 
19 102 18 119 19 144 18 113 19 116 18 72 18 41 899 2070 80 MP stroke
gr

24 w
 646 2732 mt  -90 rotate
(DIFCOR) s
90 rotate
6 w
1 sg
0 1119 1475 0 0 -1119 2839 3061 4 MP
PP
-1475 0 0 1119 1475 0 0 -1119 2839 3061 5 MP stroke
4 w
DO
SO
6 w
0 sg
2839 3061 mt 4314 3061 L
2839 1942 mt 4314 1942 L
2839 3061 mt 2839 1942 L
4314 3061 mt 4314 1942 L
2839 3061 mt 4314 3061 L
2839 3061 mt 2839 1942 L
2839 3061 mt 2839 3046 L
2839 1942 mt 2839 1956 L
2736 3206 mt 
(-2) s
3576 3061 mt 3576 3046 L
3576 1942 mt 3576 1956 L
3543 3206 mt 
(0) s
4314 3061 mt 4314 3046 L
4314 1942 mt 4314 1956 L
4281 3206 mt 
(2) s
2839 3061 mt 2853 3061 L
4314 3061 mt 4299 3061 L
2668 3105 mt 
(-4) s
2839 2781 mt 2853 2781 L
4314 2781 mt 4299 2781 L
2668 2825 mt 
(-2) s
2839 2501 mt 2853 2501 L
4314 2501 mt 4299 2501 L
2738 2545 mt 
(0) s
2839 2221 mt 2853 2221 L
4314 2221 mt 4299 2221 L
2738 2265 mt 
(2) s
2839 1942 mt 2853 1942 L
4314 1942 mt 4299 1942 L
2738 1986 mt 
(4) s
2839 3061 mt 4314 3061 L
2839 1942 mt 4314 1942 L
2839 3061 mt 2839 1942 L
4314 3061 mt 4314 1942 L
gs 2839 1942 1476 1120 rc
24 w
18 -25 19 -71 18 -96 19 -103 18 -116 19 -119 18 -98 18 -71 
19 -84 18 38 19 41 18 58 19 101 18 106 18 117 19 123 
18 105 19 80 18 131 19 -75 18 -39 19 -73 18 -112 18 -119 
19 -125 18 -115 19 -116 18 -75 19 -72 18 41 18 35 19 69 
18 113 19 114 18 130 19 118 18 104 19 90 18 130 18 -93 
19 -38 18 -90 19 -104 18 -122 19 -133 18 -116 18 -108 19 -67 
18 -48 19 -28 18 100 19 58 18 116 19 114 18 121 18 122 
19 105 18 74 19 39 18 76 19 -133 18 -82 18 -103 19 -125 
18 -118 19 -112 18 -100 19 -59 18 -31 19 -20 18 74 18 74 
19 104 18 105 19 120 18 101 19 91 18 70 18 28 2839 2122 80 MP stroke
6 w
gr

1 sg
0 1119 1475 0 0 -1119 4780 3061 4 MP
PP
-1475 0 0 1119 1475 0 0 -1119 4780 3061 5 MP stroke
4 w
DO
SO
6 w
0 sg
4780 3061 mt 6255 3061 L
4780 1942 mt 6255 1942 L
4780 3061 mt 4780 1942 L
6255 3061 mt 6255 1942 L
4780 3061 mt 6255 3061 L
4780 3061 mt 4780 1942 L
4780 3061 mt 4780 3046 L
4780 1942 mt 4780 1956 L
4677 3206 mt 
(-2) s
5517 3061 mt 5517 3046 L
5517 1942 mt 5517 1956 L
5484 3206 mt 
(0) s
6255 3061 mt 6255 3046 L
6255 1942 mt 6255 1956 L
6222 3206 mt 
(2) s
4780 3061 mt 4794 3061 L
6255 3061 mt 6240 3061 L
4609 3105 mt 
(-4) s
4780 2781 mt 4794 2781 L
6255 2781 mt 6240 2781 L
4609 2825 mt 
(-2) s
4780 2501 mt 4794 2501 L
6255 2501 mt 6240 2501 L
4679 2545 mt 
(0) s
4780 2221 mt 4794 2221 L
6255 2221 mt 6240 2221 L
4679 2265 mt 
(2) s
4780 1942 mt 4794 1942 L
6255 1942 mt 6240 1942 L
4679 1986 mt 
(4) s
4780 3061 mt 6255 3061 L
4780 1942 mt 6255 1942 L
4780 3061 mt 4780 1942 L
6255 3061 mt 6255 1942 L
gs 4780 1942 1476 1120 rc
24 w
18 -41 19 -67 18 -113 19 -105 18 -126 19 -108 18 -95 18 -59 
19 -66 18 33 19 26 18 67 19 93 18 104 18 116 19 115 
18 111 19 84 18 131 19 -101 18 -45 19 -73 18 -107 18 -111 
19 -115 18 -99 19 -102 18 -66 19 -58 18 21 18 43 19 66 
18 97 19 97 18 113 19 110 18 123 19 81 18 125 18 -94 
19 -32 18 -79 19 -125 18 -103 19 -114 18 -114 18 -83 19 -70 
18 -40 19 -28 18 73 19 67 18 80 19 111 18 122 18 107 
19 104 18 71 19 47 18 101 19 -130 18 -84 18 -107 19 -111 
18 -114 19 -107 18 -100 19 -57 18 -42 19 -24 18 64 18 62 
19 94 18 105 19 126 18 99 19 118 18 66 18 41 4780 2070 80 MP stroke
gr

24 w
%%IncludeResource: font Symbol
/Symbol /ISOLatin1Encoding 120 FMSR

4872 1957 mt 
(r) s
%%IncludeResource: font Helvetica
/Helvetica /ISOLatin1Encoding 96 FMSR

4937 2017 mt 
(TFS) s
%%IncludeResource: font Helvetica
/Helvetica /ISOLatin1Encoding 120 FMSR

5118 1957 mt 
( = 1.0128) s
6 w
1 sg
0 1119 1475 0 0 -1119 899 4615 4 MP
PP
-1475 0 0 1119 1475 0 0 -1119 899 4615 5 MP stroke
4 w
DO
SO
6 w
0 sg
 899 4615 mt 2374 4615 L
 899 3496 mt 2374 3496 L
 899 4615 mt  899 3496 L
2374 4615 mt 2374 3496 L
 899 4615 mt 2374 4615 L
 899 4615 mt  899 3496 L
 899 4615 mt  899 4600 L
 899 3496 mt  899 3510 L
 796 4760 mt 
(-2) s
1636 4615 mt 1636 4600 L
1636 3496 mt 1636 3510 L
1603 4760 mt 
(0) s
2374 4615 mt 2374 4600 L
2374 3496 mt 2374 3510 L
2341 4760 mt 
(2) s
 899 4615 mt  913 4615 L
2374 4615 mt 2359 4615 L
 698 4659 mt 
(0.5) s
 899 4242 mt  913 4242 L
2374 4242 mt 2359 4242 L
 798 4286 mt 
(1) s
 899 3869 mt  913 3869 L
2374 3869 mt 2359 3869 L
 698 3913 mt 
(1.5) s
 899 3496 mt  913 3496 L
2374 3496 mt 2359 3496 L
 798 3540 mt 
(2) s
 899 4615 mt 2374 4615 L
 899 3496 mt 2374 3496 L
 899 4615 mt  899 3496 L
2374 4615 mt 2374 3496 L
gs 899 3496 1476 1120 rc
24 w
18 -81 19 -113 18 -171 19 -60 18 -45 19 70 18 114 18 96 
19 220 18 -156 19 -48 18 -103 19 -125 18 -49 18 -11 19 97 
18 161 19 149 18 328 19 -276 18 -95 19 -117 18 -163 18 -30 
19 -67 18 54 19 119 18 136 19 175 18 -103 18 -58 19 -109 
18 -142 19 -33 18 -27 19 86 18 195 19 144 18 308 18 -255 
19 -62 18 -142 19 -204 18 -78 19 31 18 34 18 110 19 123 
18 85 19 78 18 -163 19 -107 18 -104 19 -92 18 63 18 32 
19 166 18 122 19 91 18 274 19 -330 18 -153 18 -160 19 -90 
18 30 19 11 18 131 19 117 18 95 19 79 18 -183 18 -103 
19 -121 18 -62 19 55 18 53 19 168 18 115 18 77 899 3816 80 MP stroke
gr

24 w
 616 4323 mt  -90 rotate
(SUMCOR) s
90 rotate
6 w
1 sg
0 1119 1475 0 0 -1119 2839 4615 4 MP
PP
-1475 0 0 1119 1475 0 0 -1119 2839 4615 5 MP stroke
4 w
DO
SO
6 w
0 sg
2839 4615 mt 4314 4615 L
2839 3496 mt 4314 3496 L
2839 4615 mt 2839 3496 L
4314 4615 mt 4314 3496 L
2839 4615 mt 4314 4615 L
2839 4615 mt 2839 3496 L
2839 4615 mt 2839 4600 L
2839 3496 mt 2839 3510 L
2736 4760 mt 
(-2) s
3576 4615 mt 3576 4600 L
3576 3496 mt 3576 3510 L
3543 4760 mt 
(0) s
4314 4615 mt 4314 4600 L
4314 3496 mt 4314 3510 L
4281 4760 mt 
(2) s
2839 4615 mt 2853 4615 L
4314 4615 mt 4299 4615 L
2638 4659 mt 
(0.5) s
2839 4242 mt 2853 4242 L
4314 4242 mt 4299 4242 L
2738 4286 mt 
(1) s
2839 3869 mt 2853 3869 L
4314 3869 mt 4299 3869 L
2638 3913 mt 
(1.5) s
2839 3496 mt 2853 3496 L
4314 3496 mt 4299 3496 L
2738 3540 mt 
(2) s
2839 4615 mt 4314 4615 L
2839 3496 mt 4314 3496 L
2839 4615 mt 2839 3496 L
4314 4615 mt 4314 3496 L
gs 2839 3496 1476 1120 rc
24 w
18 -53 19 -124 18 -117 19 -75 18 -24 19 60 18 114 18 109 
19 190 18 -107 19 -77 18 -96 19 -117 18 -21 18 -45 19 111 
18 128 19 139 18 322 19 -206 18 -79 19 -124 18 -133 18 -73 
19 -24 18 45 19 146 18 111 19 156 18 -105 18 -68 19 -107 
18 -145 19 -5 18 -31 19 98 18 130 19 158 18 313 18 -248 
19 -63 18 -157 19 -131 18 -86 19 39 18 10 18 132 19 101 
18 101 19 72 18 -228 19 -69 18 -144 19 -44 18 35 18 65 
19 152 18 120 19 80 18 203 19 -319 18 -131 18 -132 19 -108 
18 51 19 34 18 116 19 98 18 48 19 60 18 -163 18 -116 
19 -129 18 -24 19 13 18 81 19 131 18 124 18 48 2839 3969 80 MP stroke
gr

24 w
3293 4903 mt 
(Delay [ms]) s
6 w
1 sg
0 1119 1475 0 0 -1119 4780 4615 4 MP
PP
-1475 0 0 1119 1475 0 0 -1119 4780 4615 5 MP stroke
4 w
DO
SO
6 w
0 sg
4780 4615 mt 6255 4615 L
4780 3496 mt 6255 3496 L
4780 4615 mt 4780 3496 L
6255 4615 mt 6255 3496 L
4780 4615 mt 6255 4615 L
4780 4615 mt 4780 3496 L
4780 4615 mt 4780 4600 L
4780 3496 mt 4780 3510 L
4677 4760 mt 
(-2) s
5517 4615 mt 5517 4600 L
5517 3496 mt 5517 3510 L
5484 4760 mt 
(0) s
6255 4615 mt 6255 4600 L
6255 3496 mt 6255 3510 L
6222 4760 mt 
(2) s
4780 4615 mt 4794 4615 L
6255 4615 mt 6240 4615 L
4579 4659 mt 
(0.5) s
4780 4242 mt 4794 4242 L
6255 4242 mt 6240 4242 L
4679 4286 mt 
(1) s
4780 3869 mt 4794 3869 L
6255 3869 mt 6240 3869 L
4579 3913 mt 
(1.5) s
4780 3496 mt 4794 3496 L
6255 3496 mt 6240 3496 L
4679 3540 mt 
(2) s
4780 4615 mt 6255 4615 L
4780 3496 mt 6255 3496 L
4780 4615 mt 4780 3496 L
6255 4615 mt 6255 3496 L
gs 4780 3496 1476 1120 rc
24 w
18 -80 19 -125 18 -177 19 -76 18 -101 19 32 18 104 18 63 
19 142 18 -87 19 -37 18 -96 19 -83 18 10 18 14 19 112 
18 170 19 158 18 333 19 -278 18 -94 19 -123 18 -175 18 -52 
19 -118 18 20 19 104 18 91 19 118 18 -49 18 -76 19 -84 
18 -98 19 13 18 13 19 107 18 215 19 146 18 317 18 -254 
19 -62 18 -150 19 -208 18 -129 19 -9 18 34 18 59 19 95 
18 68 19 68 18 -158 19 -95 18 -45 19 -50 18 97 18 65 
19 181 18 129 19 91 18 275 19 -334 18 -160 18 -177 19 -125 
18 -19 19 -3 18 101 19 70 18 79 19 65 18 -139 18 -72 
19 -99 18 -25 19 102 18 92 19 164 18 128 18 79 4780 3816 80 MP stroke
gr

24 w
%%IncludeResource: font Symbol
/Symbol /ISOLatin1Encoding 120 FMSR

4872 3530 mt 
(r) s
%%IncludeResource: font Helvetica
/Helvetica /ISOLatin1Encoding 96 FMSR

4937 3590 mt 
(ENV) s
%%IncludeResource: font Helvetica
/Helvetica /ISOLatin1Encoding 120 FMSR

5134 3530 mt 
( = 1.0364) s
6 w

end %%Color Dict

eplot
%%EndObject

epage
end

showpage

%%Trailer
%%EOF
