%!PS-Adobe-3.0 EPSF-3.0
%%Creator: MATLAB, The MathWorks, Inc. Version 8.3.0.532 (R2014a). Operating System: Linux 3.13.0-57-generic #95-Ubuntu SMP Fri Jun 19 09:28:15 UTC 2015 x86_64.
%%Title: ./speechSacScc_CF2762SNR0.eps
%%CreationDate: 10/09/2015  13:24:26
%%DocumentNeededFonts: Helvetica
%%DocumentProcessColors: Cyan Magenta Yellow Black
%%LanguageLevel: 2
%%Pages: 1
%%BoundingBox:    52   199   546   608
%%EndComments

%%BeginProlog
% MathWorks dictionary
/MathWorks 160 dict begin
% definition operators
/bdef {bind def} bind def
/ldef {load def} bind def
/xdef {exch def} bdef
/xstore {exch store} bdef
% operator abbreviations
/c  /clip ldef
/cc /concat ldef
/cp /closepath ldef
/gr /grestore ldef
/gs /gsave ldef
/mt /moveto ldef
/np /newpath ldef
/cm /currentmatrix ldef
/sm /setmatrix ldef
/rm /rmoveto ldef
/rl /rlineto ldef
/s {show newpath} bdef
/sc {setcmykcolor} bdef
/sr /setrgbcolor ldef
/sg /setgray ldef
/w /setlinewidth ldef
/j /setlinejoin ldef
/cap /setlinecap ldef
/rc {rectclip} bdef
/rf {rectfill} bdef
% page state control
/pgsv () def
/bpage {/pgsv save def} bdef
/epage {pgsv restore} bdef
/bplot /gsave ldef
/eplot {stroke grestore} bdef
% orientation switch
/portraitMode 0 def /landscapeMode 1 def /rotateMode 2 def
% coordinate system mappings
/dpi2point 0 def
% font control
/FontSize 0 def
/FMS {/FontSize xstore findfont [FontSize 0 0 FontSize neg 0 0]
  makefont setfont} bdef
/reencode {exch dup where {pop load} {pop StandardEncoding} ifelse
  exch dup 3 1 roll findfont dup length dict begin
  { 1 index /FID ne {def}{pop pop} ifelse } forall
  /Encoding exch def currentdict end definefont pop} bdef
/isroman {findfont /CharStrings get /Agrave known} bdef
/FMSR {3 1 roll 1 index dup isroman {reencode} {pop pop} ifelse
  exch FMS} bdef
/csm {1 dpi2point div -1 dpi2point div scale neg translate
 dup landscapeMode eq {pop -90 rotate}
  {rotateMode eq {90 rotate} if} ifelse} bdef
% line types: solid, dotted, dashed, dotdash
/SO { [] 0 setdash } bdef
/DO { [.5 dpi2point mul 4 dpi2point mul] 0 setdash } bdef
/DA { [6 dpi2point mul] 0 setdash } bdef
/DD { [.5 dpi2point mul 4 dpi2point mul 6 dpi2point mul 4
  dpi2point mul] 0 setdash } bdef
% macros for lines and objects
/L {lineto stroke} bdef
/MP {3 1 roll moveto 1 sub {rlineto} repeat} bdef
/AP {{rlineto} repeat} bdef
/PDlw -1 def
/W {/PDlw currentlinewidth def setlinewidth} def
/PP {closepath eofill} bdef
/DP {closepath stroke} bdef
/MR {4 -2 roll moveto dup  0 exch rlineto exch 0 rlineto
  neg 0 exch rlineto closepath} bdef
/FR {MR stroke} bdef
/PR {MR fill} bdef
/L1i {{currentfile picstr readhexstring pop} image} bdef
/tMatrix matrix def
/MakeOval {newpath tMatrix currentmatrix pop translate scale
0 0 1 0 360 arc tMatrix setmatrix} bdef
/FO {MakeOval stroke} bdef
/PO {MakeOval fill} bdef
/PD {currentlinewidth 2 div 0 360 arc fill
   PDlw -1 eq not {PDlw w /PDlw -1 def} if} def
/FA {newpath tMatrix currentmatrix pop translate scale
  0 0 1 5 -2 roll arc tMatrix setmatrix stroke} bdef
/PA {newpath tMatrix currentmatrix pop	translate 0 0 moveto scale
  0 0 1 5 -2 roll arc closepath tMatrix setmatrix fill} bdef
/FAn {newpath tMatrix currentmatrix pop translate scale
  0 0 1 5 -2 roll arcn tMatrix setmatrix stroke} bdef
/PAn {newpath tMatrix currentmatrix pop translate 0 0 moveto scale
  0 0 1 5 -2 roll arcn closepath tMatrix setmatrix fill} bdef
/vradius 0 def /hradius 0 def /lry 0 def
/lrx 0 def /uly 0 def /ulx 0 def /rad 0 def
/MRR {/vradius xdef /hradius xdef /lry xdef /lrx xdef /uly xdef
  /ulx xdef newpath tMatrix currentmatrix pop ulx hradius add uly
  vradius add translate hradius vradius scale 0 0 1 180 270 arc 
  tMatrix setmatrix lrx hradius sub uly vradius add translate
  hradius vradius scale 0 0 1 270 360 arc tMatrix setmatrix
  lrx hradius sub lry vradius sub translate hradius vradius scale
  0 0 1 0 90 arc tMatrix setmatrix ulx hradius add lry vradius sub
  translate hradius vradius scale 0 0 1 90 180 arc tMatrix setmatrix
  closepath} bdef
/FRR {MRR stroke } bdef
/PRR {MRR fill } bdef
/MlrRR {/lry xdef /lrx xdef /uly xdef /ulx xdef /rad lry uly sub 2 div def
  newpath tMatrix currentmatrix pop ulx rad add uly rad add translate
  rad rad scale 0 0 1 90 270 arc tMatrix setmatrix lrx rad sub lry rad
  sub translate rad rad scale 0 0 1 270 90 arc tMatrix setmatrix
  closepath} bdef
/FlrRR {MlrRR stroke } bdef
/PlrRR {MlrRR fill } bdef
/MtbRR {/lry xdef /lrx xdef /uly xdef /ulx xdef /rad lrx ulx sub 2 div def
  newpath tMatrix currentmatrix pop ulx rad add uly rad add translate
  rad rad scale 0 0 1 180 360 arc tMatrix setmatrix lrx rad sub lry rad
  sub translate rad rad scale 0 0 1 0 180 arc tMatrix setmatrix
  closepath} bdef
/FtbRR {MtbRR stroke } bdef
/PtbRR {MtbRR fill } bdef
/stri 6 array def /dtri 6 array def
/smat 6 array def /dmat 6 array def
/tmat1 6 array def /tmat2 6 array def /dif 3 array def
/asub {/ind2 exch def /ind1 exch def dup dup
  ind1 get exch ind2 get sub exch } bdef
/tri_to_matrix {
  2 0 asub 3 1 asub 4 0 asub 5 1 asub
  dup 0 get exch 1 get 7 -1 roll astore } bdef
/compute_transform {
  dmat dtri tri_to_matrix tmat1 invertmatrix 
  smat stri tri_to_matrix tmat2 concatmatrix } bdef
/ds {stri astore pop} bdef
/dt {dtri astore pop} bdef
/db {2 copy /cols xdef /rows xdef mul dup 3 mul string
  currentfile 
  3 index 0 eq {/ASCIIHexDecode filter}
  {/ASCII85Decode filter 3 index 2 eq {/RunLengthDecode filter} if }
  ifelse exch readstring pop
  dup 0 3 index getinterval /rbmap xdef
  dup 2 index dup getinterval /gbmap xdef
  1 index dup 2 mul exch getinterval /bbmap xdef pop pop}bdef
/it {gs np dtri aload pop moveto lineto lineto cp c
  cols rows 8 compute_transform 
  rbmap gbmap bbmap true 3 colorimage gr}bdef
/il {newpath moveto lineto stroke}bdef
currentdict end def
%%EndProlog

%%BeginSetup
MathWorks begin

0 cap

end
%%EndSetup

%%Page: 1 1
%%BeginPageSetup
%%PageBoundingBox:    52   199   546   608
MathWorks begin
bpage
%%EndPageSetup

%%BeginObject: obj1
bplot

/dpi2point 12 def
portraitMode 0216 7344 csm

  410    37  5935  4918 rc
85 dict begin %Colortable dictionary
/c0 { 0.000000 0.000000 0.000000 sr} bdef
/c1 { 1.000000 1.000000 1.000000 sr} bdef
/c2 { 0.900000 0.000000 0.000000 sr} bdef
/c3 { 0.000000 0.820000 0.000000 sr} bdef
/c4 { 0.000000 0.000000 0.800000 sr} bdef
/c5 { 0.910000 0.820000 0.320000 sr} bdef
/c6 { 1.000000 0.260000 0.820000 sr} bdef
/c7 { 0.000000 0.820000 0.820000 sr} bdef
c0
1 j
1 sg
   0    0 6913 5186 rf
6 w
0 sg
%%IncludeResource: font Helvetica
/Helvetica /ISOLatin1Encoding 120 FMSR

2332  221 mt 
(Neural Correlations at 0dB SNR, CF = 2762Hz) s
1 sg
0 1118 1475 0 0 -1118 899 1507 4 MP
PP
-1475 0 0 1118 1475 0 0 -1118 899 1507 5 MP stroke
4 w
DO
SO
6 w
0 sg
 899 1507 mt 2374 1507 L
 899  389 mt 2374  389 L
 899 1507 mt  899  389 L
2374 1507 mt 2374  389 L
 899 1507 mt 2374 1507 L
 899 1507 mt  899  389 L
 899 1507 mt  899 1492 L
 899  389 mt  899  403 L
 796 1652 mt 
(-2) s
1636 1507 mt 1636 1492 L
1636  389 mt 1636  403 L
1603 1652 mt 
(0) s
2374 1507 mt 2374 1492 L
2374  389 mt 2374  403 L
2341 1652 mt 
(2) s
 899 1507 mt  913 1507 L
2374 1507 mt 2359 1507 L
 698 1551 mt 
(0.2) s
 899 1227 mt  913 1227 L
2374 1227 mt 2359 1227 L
 698 1271 mt 
(0.4) s
 899  947 mt  913  947 L
2374  947 mt 2359  947 L
 698  991 mt 
(0.6) s
 899  668 mt  913  668 L
2374  668 mt 2359  668 L
 698  712 mt 
(0.8) s
 899  389 mt  913  389 L
2374  389 mt 2359  389 L
 798  433 mt 
(1) s
 899 1507 mt 2374 1507 L
 899  389 mt 2374  389 L
 899 1507 mt  899  389 L
2374 1507 mt 2374  389 L
gs 899 388 1476 1120 rc
24 w
18 110 19 -32 18 62 19 -44 18 10 19 -130 18 56 18 19 
19 182 18 -79 19 37 18 -95 19 -12 18 -76 18 95 19 44 
18 204 19 -128 18 22 19 -124 18 -114 19 142 18 81 18 211 
19 -89 18 -18 19 -182 18 -9 19 16 18 154 18 91 19 245 
18 -172 19 -74 18 -242 19 74 18 69 19 256 18 329 18 -243 
19 -86 18 -256 19 -69 18 -74 19 242 18 74 18 172 19 -245 
18 -91 19 -154 18 -16 19 9 18 182 19 18 18 89 18 -211 
19 -81 18 -142 19 114 18 124 19 -22 18 128 18 -204 19 -44 
18 -95 19 76 18 12 19 96 18 -39 19 80 18 -182 18 -19 
19 -55 18 128 19 -9 18 44 19 -62 18 32 18 -110 899 1287 80 MP stroke
6 w
/c8 { 1.000000 0.000000 0.000000 sr} bdef
c8
18 34 19 -86 18 32 19 -5 18 104 19 -32 18 61 18 -87 
19 13 18 -104 19 87 18 42 19 142 18 -52 18 -34 19 -103 
18 12 19 -49 18 181 19 91 18 -37 19 17 18 -142 18 -15 
19 -69 18 157 19 82 18 223 19 -92 18 -76 18 -202 19 46 
18 -11 19 253 18 77 19 173 18 -210 19 -128 18 -70 18 -122 
19 183 18 100 19 248 18 -198 19 -60 18 -251 18 2 19 -46 
18 187 19 95 18 94 19 -215 18 -92 19 -164 18 83 18 -5 
19 168 18 -36 19 63 18 -88 19 -208 18 48 18 -13 19 102 
18 25 19 67 18 -141 19 -30 18 -97 19 115 18 -32 18 99 
19 -43 18 41 19 -130 18 -5 19 -18 18 73 18 -23 899 1257 80 MP stroke
gr

c8
0 sg
1433  293 mt 
(Speech) s
 882 1550 mt 
( ) s
2358  430 mt 
( ) s
1642  584 mt 
(SAC\(A+\)) s
gs 1142 448 1174 335 rc
24 w
385 0 1218 541 2 MP stroke
gr

24 w
1642  731 mt 
(SCC\(A+,A-\)) s
gs 1142 448 1174 335 rc
6 w
c8
385 0 1218 688 2 MP stroke
gr

6 w
c8
1 sg
0 1118 1475 0 0 -1118 2839 1507 4 MP
PP
-1475 0 0 1118 1475 0 0 -1118 2839 1507 5 MP stroke
4 w
DO
SO
6 w
0 sg
2839 1507 mt 4314 1507 L
2839  389 mt 4314  389 L
2839 1507 mt 2839  389 L
4314 1507 mt 4314  389 L
2839 1507 mt 4314 1507 L
2839 1507 mt 2839  389 L
2839 1507 mt 2839 1492 L
2839  389 mt 2839  403 L
2736 1652 mt 
(-2) s
3576 1507 mt 3576 1492 L
3576  389 mt 3576  403 L
3543 1652 mt 
(0) s
4314 1507 mt 4314 1492 L
4314  389 mt 4314  403 L
4281 1652 mt 
(2) s
2839 1507 mt 2853 1507 L
4314 1507 mt 4299 1507 L
2638 1551 mt 
(0.2) s
2839 1227 mt 2853 1227 L
4314 1227 mt 4299 1227 L
2638 1271 mt 
(0.4) s
2839  947 mt 2853  947 L
4314  947 mt 4299  947 L
2638  991 mt 
(0.6) s
2839  668 mt 2853  668 L
4314  668 mt 4299  668 L
2638  712 mt 
(0.8) s
2839  389 mt 2853  389 L
4314  389 mt 4299  389 L
2738  433 mt 
(1) s
2839 1507 mt 4314 1507 L
2839  389 mt 4314  389 L
2839 1507 mt 2839  389 L
4314 1507 mt 4314  389 L
gs 2839 388 1476 1120 rc
24 w
18 100 19 -83 18 1 19 -59 18 48 19 -53 18 72 18 12 
19 112 18 -105 19 -19 18 -76 19 34 18 -6 18 92 19 32 
18 107 19 -132 18 7 19 -87 18 -33 19 136 18 73 18 175 
19 -115 18 -41 19 -151 18 29 19 38 18 193 18 101 19 191 
18 -203 19 -86 18 -204 19 67 18 68 19 251 18 341 18 -233 
19 -108 18 -251 19 -68 18 -67 19 204 18 86 18 203 19 -191 
18 -101 19 -193 18 -38 19 -29 18 151 19 41 18 115 18 -175 
19 -73 18 -136 19 33 18 87 19 -7 18 132 18 -107 19 -32 
18 -92 19 6 18 -34 19 77 18 17 19 106 18 -112 18 -12 
19 -72 18 53 19 -48 18 59 19 -1 18 83 18 -100 2839 1330 80 MP stroke
6 w
c8
18 47 19 -39 18 52 19 6 18 89 19 -90 18 -5 18 -72 
19 45 18 -38 19 81 18 13 19 109 18 -94 18 -37 19 -83 
18 40 19 15 18 187 19 65 18 -94 19 -20 18 -134 18 33 
19 -25 18 172 19 96 18 178 19 -102 18 -113 18 -160 19 47 
18 28 19 275 18 81 19 158 18 -249 19 -108 18 -93 18 -118 
19 200 18 141 19 219 18 -157 19 -88 18 -267 18 -26 19 -63 
18 168 19 88 18 116 19 -173 18 -104 19 -158 18 27 18 -28 
19 149 18 5 19 93 18 -72 19 -181 18 -12 18 -37 19 80 
18 39 19 78 18 -81 19 -19 18 -90 19 44 18 -48 18 80 
19 -17 18 79 19 -68 18 -8 19 -56 18 40 18 -41 2839 1395 80 MP stroke
gr

c8
0 sg
3206  293 mt 
(Noisy Speech) s
2822 1550 mt 
( ) s
4298  430 mt 
( ) s
3581  584 mt 
(SAC\(B+\)) s
gs 3082 448 1173 335 rc
24 w
384 0 3158 541 2 MP stroke
gr

24 w
3581  731 mt 
(SCC\(B+,B-\)) s
gs 3082 448 1173 335 rc
6 w
c8
384 0 3158 688 2 MP stroke
gr

6 w
c8
1 sg
0 1118 1475 0 0 -1118 4780 1507 4 MP
PP
-1475 0 0 1118 1475 0 0 -1118 4780 1507 5 MP stroke
4 w
DO
SO
6 w
0 sg
4780 1507 mt 6255 1507 L
4780  389 mt 6255  389 L
4780 1507 mt 4780  389 L
6255 1507 mt 6255  389 L
4780 1507 mt 6255 1507 L
4780 1507 mt 4780  389 L
4780 1507 mt 4780 1492 L
4780  389 mt 4780  403 L
4677 1652 mt 
(-2) s
5517 1507 mt 5517 1492 L
5517  389 mt 5517  403 L
5484 1652 mt 
(0) s
6255 1507 mt 6255 1492 L
6255  389 mt 6255  403 L
6222 1652 mt 
(2) s
4780 1507 mt 4794 1507 L
6255 1507 mt 6240 1507 L
4579 1551 mt 
(0.2) s
4780 1227 mt 4794 1227 L
6255 1227 mt 6240 1227 L
4579 1271 mt 
(0.4) s
4780  947 mt 4794  947 L
6255  947 mt 6240  947 L
4579  991 mt 
(0.6) s
4780  668 mt 4794  668 L
6255  668 mt 6240  668 L
4579  712 mt 
(0.8) s
4780  389 mt 4794  389 L
6255  389 mt 6240  389 L
4679  433 mt 
(1) s
4780 1507 mt 6255 1507 L
4780  389 mt 6255  389 L
4780 1507 mt 4780  389 L
6255 1507 mt 6255  389 L
gs 4780 388 1476 1120 rc
24 w
18 47 19 -39 18 52 19 6 18 89 19 -90 18 -5 18 -72 
19 45 18 -38 19 81 18 13 19 109 18 -94 18 -37 19 -83 
18 40 19 15 18 187 19 65 18 -94 19 -20 18 -134 18 33 
19 -25 18 172 19 96 18 178 19 -102 18 -113 18 -160 19 47 
18 28 19 275 18 81 19 158 18 -249 19 -108 18 -93 18 -118 
19 200 18 141 19 219 18 -157 19 -88 18 -267 18 -26 19 -63 
18 168 19 88 18 116 19 -173 18 -104 19 -158 18 27 18 -28 
19 149 18 5 19 93 18 -72 19 -181 18 -12 18 -37 19 80 
18 39 19 78 18 -81 19 -19 18 -90 19 44 18 -48 18 80 
19 -17 18 79 19 -68 18 -8 19 -56 18 40 18 -41 4780 1395 80 MP stroke
6 w
c8
18 26 19 -65 18 24 19 -10 18 80 19 -36 18 38 18 -79 
19 63 18 -104 19 46 18 23 19 110 18 -46 18 -5 19 -74 
18 28 19 -49 18 106 19 67 18 -34 19 31 18 -108 18 16 
19 -80 18 81 19 62 18 109 19 -26 18 -66 18 -101 19 23 
18 -8 19 135 18 36 19 100 18 -137 19 -54 18 2 18 -129 
19 120 18 55 19 129 18 -104 19 -13 18 -149 18 9 19 -37 
18 100 19 57 18 68 19 -125 18 -41 19 -94 18 63 18 -32 
19 120 18 -18 19 41 18 -42 19 -135 18 40 18 -30 19 68 
18 17 19 59 18 -108 19 -11 18 -64 19 87 18 -34 18 67 
19 -41 18 59 19 -103 18 14 19 -28 18 59 18 -44 4780 1329 80 MP stroke
gr

c8
0 sg
4893  293 mt 
(Speech / Noisy Speech) s
4763 1550 mt 
( ) s
6239  430 mt 
( ) s
5522  584 mt 
(SCC\(A+,B+\)) s
gs 5023 448 1173 335 rc
24 w
384 0 5099 541 2 MP stroke
gr

24 w
5522  731 mt 
(SCC\(A+,B-\)) s
gs 5023 448 1173 335 rc
6 w
c8
384 0 5099 688 2 MP stroke
gr

6 w
c8
1 sg
0 1119 1475 0 0 -1119 899 3061 4 MP
PP
-1475 0 0 1119 1475 0 0 -1119 899 3061 5 MP stroke
4 w
DO
SO
6 w
0 sg
 899 3061 mt 2374 3061 L
 899 1942 mt 2374 1942 L
 899 3061 mt  899 1942 L
2374 3061 mt 2374 1942 L
 899 3061 mt 2374 3061 L
 899 3061 mt  899 1942 L
 899 3061 mt  899 3046 L
 899 1942 mt  899 1956 L
 796 3206 mt 
(-2) s
1636 3061 mt 1636 3046 L
1636 1942 mt 1636 1956 L
1603 3206 mt 
(0) s
2374 3061 mt 2374 3046 L
2374 1942 mt 2374 1956 L
2341 3206 mt 
(2) s
 899 3061 mt  913 3061 L
2374 3061 mt 2359 3061 L
 628 3105 mt 
(-0.5) s
 899 2501 mt  913 2501 L
2374 2501 mt 2359 2501 L
 798 2545 mt 
(0) s
 899 1942 mt  913 1942 L
2374 1942 mt 2359 1942 L
 698 1986 mt 
(0.5) s
 899 3061 mt 2374 3061 L
 899 1942 mt 2374 1942 L
 899 3061 mt  899 1942 L
2374 3061 mt 2374 1942 L
gs 899 1942 1476 1120 rc
24 w
18 61 19 43 18 24 19 -31 18 -75 19 -79 18 -3 18 85 
19 135 18 19 19 -40 18 -109 19 -124 18 -19 18 104 19 118 
18 153 19 -63 18 -127 19 -173 18 -62 19 101 18 178 18 181 
19 -16 18 -140 19 -211 18 -187 19 88 18 184 18 235 19 159 
18 -129 19 -262 18 -256 19 -79 18 223 19 308 18 320 18 -98 
19 -215 18 -285 19 -254 18 99 19 242 18 261 18 136 19 -160 
18 -222 19 -199 18 -89 19 179 18 220 19 145 18 5 18 -165 
19 -198 18 -86 19 41 18 170 19 149 18 64 18 -152 19 -117 
18 -97 19 7 18 123 19 101 18 46 19 -28 18 -120 18 -94 
19 -11 18 70 19 97 18 40 19 -35 18 -33 18 -70 899 2525 80 MP stroke
gr

24 w
 546 2732 mt  -90 rotate
(DIFCOR) s
90 rotate
6 w
1 sg
0 1119 1475 0 0 -1119 2839 3061 4 MP
PP
-1475 0 0 1119 1475 0 0 -1119 2839 3061 5 MP stroke
4 w
DO
SO
6 w
0 sg
2839 3061 mt 4314 3061 L
2839 1942 mt 4314 1942 L
2839 3061 mt 2839 1942 L
4314 3061 mt 4314 1942 L
2839 3061 mt 4314 3061 L
2839 3061 mt 2839 1942 L
2839 3061 mt 2839 3046 L
2839 1942 mt 2839 1956 L
2736 3206 mt 
(-2) s
3576 3061 mt 3576 3046 L
3576 1942 mt 3576 1956 L
3543 3206 mt 
(0) s
4314 3061 mt 4314 3046 L
4314 1942 mt 4314 1956 L
4281 3206 mt 
(2) s
2839 3061 mt 2853 3061 L
4314 3061 mt 4299 3061 L
2568 3105 mt 
(-0.5) s
2839 2501 mt 2853 2501 L
4314 2501 mt 4299 2501 L
2738 2545 mt 
(0) s
2839 1942 mt 2853 1942 L
4314 1942 mt 4299 1942 L
2638 1986 mt 
(0.5) s
2839 3061 mt 4314 3061 L
2839 1942 mt 4314 1942 L
2839 3061 mt 2839 1942 L
4314 3061 mt 4314 1942 L
gs 2839 1942 1476 1120 rc
24 w
18 43 19 -36 18 -41 19 -52 18 -32 19 29 18 62 18 67 
19 53 18 -53 19 -80 18 -71 19 -61 18 71 18 103 19 93 
18 53 19 -118 18 -143 19 -122 18 48 19 125 18 167 18 113 
19 -73 18 -170 19 -197 18 -120 19 112 18 245 18 210 19 115 
18 -186 19 -288 18 -228 19 -74 18 255 19 287 18 347 18 -91 
19 -247 18 -314 19 -230 18 72 19 233 18 284 18 183 19 -103 
18 -215 19 -225 18 -124 19 115 18 205 19 159 18 71 18 -118 
19 -178 18 -113 19 -47 18 127 19 139 18 116 18 -57 19 -89 
18 -106 19 -57 18 38 19 77 18 85 19 50 18 -52 18 -73 
19 -44 18 -21 19 17 18 53 19 44 18 35 18 -48 2839 2449 80 MP stroke
6 w
gr

1 sg
0 1119 1475 0 0 -1119 4780 3061 4 MP
PP
-1475 0 0 1119 1475 0 0 -1119 4780 3061 5 MP stroke
4 w
DO
SO
6 w
0 sg
4780 3061 mt 6255 3061 L
4780 1942 mt 6255 1942 L
4780 3061 mt 4780 1942 L
6255 3061 mt 6255 1942 L
4780 3061 mt 6255 3061 L
4780 3061 mt 4780 1942 L
4780 3061 mt 4780 3046 L
4780 1942 mt 4780 1956 L
4677 3206 mt 
(-2) s
5517 3061 mt 5517 3046 L
5517 1942 mt 5517 1956 L
5484 3206 mt 
(0) s
6255 3061 mt 6255 3046 L
6255 1942 mt 6255 1956 L
6222 3206 mt 
(2) s
4780 3061 mt 4794 3061 L
6255 3061 mt 6240 3061 L
4509 3105 mt 
(-0.2) s
4780 2781 mt 4794 2781 L
6255 2781 mt 6240 2781 L
4679 2825 mt 
(0) s
4780 2501 mt 4794 2501 L
6255 2501 mt 6240 2501 L
4579 2545 mt 
(0.2) s
4780 2221 mt 4794 2221 L
6255 2221 mt 6240 2221 L
4579 2265 mt 
(0.4) s
4780 1942 mt 4794 1942 L
6255 1942 mt 6240 1942 L
4579 1986 mt 
(0.6) s
4780 3061 mt 6255 3061 L
4780 1942 mt 6255 1942 L
4780 3061 mt 4780 1942 L
6255 3061 mt 6255 1942 L
gs 4780 1942 1476 1120 rc
24 w
18 84 19 33 18 37 19 -33 18 -70 19 -95 18 18 18 98 
19 119 18 25 19 -8 18 -118 19 -124 18 -29 18 100 19 119 
18 176 19 -80 18 -84 19 -191 18 -80 19 111 18 189 18 195 
19 -9 18 -99 19 -244 18 -119 19 43 18 221 18 191 19 222 
18 -164 19 -208 18 -279 19 -26 18 206 19 310 18 328 18 -114 
19 -206 18 -312 19 -198 18 30 19 256 18 222 18 164 19 -208 
18 -192 19 -210 18 -85 19 134 18 223 19 112 18 26 18 -178 
19 -202 18 -124 19 73 18 166 19 113 18 89 18 -175 19 -111 
18 -113 19 16 18 122 19 107 18 24 19 -7 18 -147 18 -87 
19 -14 18 70 19 93 18 30 19 -33 18 -27 18 -67 4780 2739 80 MP stroke
gr

24 w
%%IncludeResource: font Symbol
/Symbol /ISOLatin1Encoding 120 FMSR

4872 1987 mt 
(r) s
%%IncludeResource: font Helvetica
/Helvetica /ISOLatin1Encoding 96 FMSR

4937 2047 mt 
(TFS) s
%%IncludeResource: font Helvetica
/Helvetica /ISOLatin1Encoding 120 FMSR

5118 1987 mt 
( = 1.239) s
6 w
1 sg
0 1119 1475 0 0 -1119 899 4615 4 MP
PP
-1475 0 0 1119 1475 0 0 -1119 899 4615 5 MP stroke
4 w
DO
SO
6 w
0 sg
 899 4615 mt 2374 4615 L
 899 3496 mt 2374 3496 L
 899 4615 mt  899 3496 L
2374 4615 mt 2374 3496 L
 899 4615 mt 2374 4615 L
 899 4615 mt  899 3496 L
 899 4615 mt  899 4600 L
 899 3496 mt  899 3510 L
 796 4760 mt 
(-2) s
1636 4615 mt 1636 4600 L
1636 3496 mt 1636 3510 L
1603 4760 mt 
(0) s
2374 4615 mt 2374 4600 L
2374 3496 mt 2374 3510 L
2341 4760 mt 
(2) s
 899 4615 mt  913 4615 L
2374 4615 mt 2359 4615 L
 698 4659 mt 
(0.2) s
 899 4335 mt  913 4335 L
2374 4335 mt 2359 4335 L
 698 4379 mt 
(0.4) s
 899 4055 mt  913 4055 L
2374 4055 mt 2359 4055 L
 698 4099 mt 
(0.6) s
 899 3775 mt  913 3775 L
2374 3775 mt 2359 3775 L
 698 3819 mt 
(0.8) s
 899 3496 mt  913 3496 L
2374 3496 mt 2359 3496 L
 798 3540 mt 
(1) s
 899 4615 mt 2374 4615 L
 899 3496 mt 2374 3496 L
 899 4615 mt  899 3496 L
2374 4615 mt 2374 3496 L
gs 899 3496 1476 1120 rc
24 w
18 72 19 -59 18 47 19 -25 18 57 19 -81 18 59 18 -34 
19 97 18 -91 19 62 18 -26 19 64 18 -64 18 31 19 -30 
18 109 19 -89 18 101 19 -17 18 -75 19 80 18 -31 18 98 
19 -79 18 70 19 -50 18 107 19 -38 18 39 18 -56 19 146 
18 -91 19 89 18 -82 19 123 18 -71 19 65 18 129 18 -182 
19 48 18 -78 19 90 18 -137 19 92 18 -89 18 87 19 -145 
18 48 19 -30 18 39 19 -103 18 45 19 -73 18 86 18 -108 
19 44 18 -90 19 89 18 18 19 -115 18 88 18 -109 19 29 
18 -35 19 71 18 -63 19 33 18 -69 19 98 18 -107 18 40 
19 -49 18 85 19 -70 18 19 19 -40 18 53 18 -67 899 4380 80 MP stroke
gr

24 w
 616 4323 mt  -90 rotate
(SUMCOR) s
90 rotate
6 w
1 sg
0 1119 1475 0 0 -1119 2839 4615 4 MP
PP
-1475 0 0 1119 1475 0 0 -1119 2839 4615 5 MP stroke
4 w
DO
SO
6 w
0 sg
2839 4615 mt 4314 4615 L
2839 3496 mt 4314 3496 L
2839 4615 mt 2839 3496 L
4314 4615 mt 4314 3496 L
2839 4615 mt 4314 4615 L
2839 4615 mt 2839 3496 L
2839 4615 mt 2839 4600 L
2839 3496 mt 2839 3510 L
2736 4760 mt 
(-2) s
3576 4615 mt 3576 4600 L
3576 3496 mt 3576 3510 L
3543 4760 mt 
(0) s
4314 4615 mt 4314 4600 L
4314 3496 mt 4314 3510 L
4281 4760 mt 
(2) s
2839 4335 mt 2853 4335 L
4314 4335 mt 4299 4335 L
2638 4379 mt 
(0.4) s
2839 4055 mt 2853 4055 L
4314 4055 mt 4299 4055 L
2638 4099 mt 
(0.5) s
2839 3775 mt 2853 3775 L
4314 3775 mt 4299 3775 L
2638 3819 mt 
(0.6) s
2839 3496 mt 2853 3496 L
4314 3496 mt 4299 3496 L
2638 3540 mt 
(0.7) s
2839 4615 mt 4314 4615 L
2839 3496 mt 4314 3496 L
2839 4615 mt 2839 3496 L
4314 4615 mt 4314 3496 L
gs 2839 3496 1476 1120 rc
24 w
18 147 19 -122 18 54 19 -53 18 136 19 -142 18 66 18 -60 
19 157 18 -143 19 62 18 -62 19 142 18 -100 18 55 19 -51 
18 147 19 -117 18 195 19 -22 18 -128 19 116 18 -61 18 209 
19 -141 18 131 19 -55 18 208 19 -64 18 79 18 -58 19 238 
18 -175 19 189 18 -123 19 225 18 -181 19 143 18 248 18 -352 
19 93 18 -111 19 151 18 -223 19 116 18 -182 18 178 19 -254 
18 66 19 -105 18 78 19 -201 18 46 19 -117 18 143 18 -203 
19 75 18 -131 19 126 18 16 19 -189 18 120 18 -143 19 47 
18 -53 19 84 18 -114 19 57 18 -73 19 150 18 -160 18 68 
19 -88 18 131 19 -116 18 51 19 -57 18 123 18 -140 2839 4605 80 MP stroke
gr

24 w
3293 4903 mt 
(Delay [ms]) s
6 w
1 sg
0 1119 1475 0 0 -1119 4780 4615 4 MP
PP
-1475 0 0 1119 1475 0 0 -1119 4780 4615 5 MP stroke
4 w
DO
SO
6 w
0 sg
4780 4615 mt 6255 4615 L
4780 3496 mt 6255 3496 L
4780 4615 mt 4780 3496 L
6255 4615 mt 6255 3496 L
4780 4615 mt 6255 4615 L
4780 4615 mt 4780 3496 L
4780 4615 mt 4780 4600 L
4780 3496 mt 4780 3510 L
4677 4760 mt 
(-2) s
5517 4615 mt 5517 4600 L
5517 3496 mt 5517 3510 L
5484 4760 mt 
(0) s
6255 4615 mt 6255 4600 L
6255 3496 mt 6255 3510 L
6222 4760 mt 
(2) s
4780 4615 mt 4794 4615 L
6255 4615 mt 6240 4615 L
4579 4659 mt 
(0.2) s
4780 4335 mt 4794 4335 L
6255 4335 mt 6240 4335 L
4579 4379 mt 
(0.4) s
4780 4055 mt 4794 4055 L
6255 4055 mt 6240 4055 L
4579 4099 mt 
(0.6) s
4780 3775 mt 4794 3775 L
6255 3775 mt 6240 3775 L
4579 3819 mt 
(0.8) s
4780 3496 mt 4794 3496 L
6255 3496 mt 6240 3496 L
4679 3540 mt 
(1) s
4780 4615 mt 6255 4615 L
4780 3496 mt 6255 3496 L
4780 4615 mt 4780 3496 L
6255 4615 mt 6255 3496 L
gs 4780 3496 1476 1120 rc
24 w
18 68 19 -48 18 42 19 -27 18 46 19 -84 18 48 18 -30 
19 122 18 -91 19 41 18 -35 19 48 18 -61 18 46 19 -16 
18 117 19 -89 18 64 19 -29 18 -74 19 87 18 -14 18 114 
19 -85 18 32 19 -60 18 50 19 -5 18 44 18 -5 19 134 
18 -90 19 30 18 -103 19 87 18 -34 19 102 18 165 18 -186 
19 17 18 -100 19 29 18 -89 19 115 18 -37 18 90 19 -141 
18 5 19 -49 18 26 19 -58 18 70 19 -38 18 76 18 -122 
19 21 18 -81 19 78 18 41 19 -79 18 84 18 -117 19 12 
18 -39 19 68 18 -48 19 42 18 -51 19 83 18 -108 18 25 
19 -49 18 94 19 -56 18 28 19 -44 18 45 18 -77 4780 4416 80 MP stroke
gr

24 w
%%IncludeResource: font Symbol
/Symbol /ISOLatin1Encoding 120 FMSR

4872 3884 mt 
(r) s
%%IncludeResource: font Helvetica
/Helvetica /ISOLatin1Encoding 96 FMSR

4937 3944 mt 
(ENV) s
%%IncludeResource: font Helvetica
/Helvetica /ISOLatin1Encoding 120 FMSR

5134 3884 mt 
( = -1.0693) s
6 w

end %%Color Dict

eplot
%%EndObject

epage
end

showpage

%%Trailer
%%EOF
