%!PS-Adobe-3.0 EPSF-3.0
%%Creator: MATLAB, The MathWorks, Inc. Version 8.3.0.532 (R2014a). Operating System: Linux 3.13.0-57-generic #95-Ubuntu SMP Fri Jun 19 09:28:15 UTC 2015 x86_64.
%%Title: ./speechSacScc_CF5888SNR0.eps
%%CreationDate: 10/09/2015  13:25:14
%%DocumentNeededFonts: Helvetica
%%DocumentProcessColors: Cyan Magenta Yellow Black
%%LanguageLevel: 2
%%Pages: 1
%%BoundingBox:    46   199   546   608
%%EndComments

%%BeginProlog
% MathWorks dictionary
/MathWorks 160 dict begin
% definition operators
/bdef {bind def} bind def
/ldef {load def} bind def
/xdef {exch def} bdef
/xstore {exch store} bdef
% operator abbreviations
/c  /clip ldef
/cc /concat ldef
/cp /closepath ldef
/gr /grestore ldef
/gs /gsave ldef
/mt /moveto ldef
/np /newpath ldef
/cm /currentmatrix ldef
/sm /setmatrix ldef
/rm /rmoveto ldef
/rl /rlineto ldef
/s {show newpath} bdef
/sc {setcmykcolor} bdef
/sr /setrgbcolor ldef
/sg /setgray ldef
/w /setlinewidth ldef
/j /setlinejoin ldef
/cap /setlinecap ldef
/rc {rectclip} bdef
/rf {rectfill} bdef
% page state control
/pgsv () def
/bpage {/pgsv save def} bdef
/epage {pgsv restore} bdef
/bplot /gsave ldef
/eplot {stroke grestore} bdef
% orientation switch
/portraitMode 0 def /landscapeMode 1 def /rotateMode 2 def
% coordinate system mappings
/dpi2point 0 def
% font control
/FontSize 0 def
/FMS {/FontSize xstore findfont [FontSize 0 0 FontSize neg 0 0]
  makefont setfont} bdef
/reencode {exch dup where {pop load} {pop StandardEncoding} ifelse
  exch dup 3 1 roll findfont dup length dict begin
  { 1 index /FID ne {def}{pop pop} ifelse } forall
  /Encoding exch def currentdict end definefont pop} bdef
/isroman {findfont /CharStrings get /Agrave known} bdef
/FMSR {3 1 roll 1 index dup isroman {reencode} {pop pop} ifelse
  exch FMS} bdef
/csm {1 dpi2point div -1 dpi2point div scale neg translate
 dup landscapeMode eq {pop -90 rotate}
  {rotateMode eq {90 rotate} if} ifelse} bdef
% line types: solid, dotted, dashed, dotdash
/SO { [] 0 setdash } bdef
/DO { [.5 dpi2point mul 4 dpi2point mul] 0 setdash } bdef
/DA { [6 dpi2point mul] 0 setdash } bdef
/DD { [.5 dpi2point mul 4 dpi2point mul 6 dpi2point mul 4
  dpi2point mul] 0 setdash } bdef
% macros for lines and objects
/L {lineto stroke} bdef
/MP {3 1 roll moveto 1 sub {rlineto} repeat} bdef
/AP {{rlineto} repeat} bdef
/PDlw -1 def
/W {/PDlw currentlinewidth def setlinewidth} def
/PP {closepath eofill} bdef
/DP {closepath stroke} bdef
/MR {4 -2 roll moveto dup  0 exch rlineto exch 0 rlineto
  neg 0 exch rlineto closepath} bdef
/FR {MR stroke} bdef
/PR {MR fill} bdef
/L1i {{currentfile picstr readhexstring pop} image} bdef
/tMatrix matrix def
/MakeOval {newpath tMatrix currentmatrix pop translate scale
0 0 1 0 360 arc tMatrix setmatrix} bdef
/FO {MakeOval stroke} bdef
/PO {MakeOval fill} bdef
/PD {currentlinewidth 2 div 0 360 arc fill
   PDlw -1 eq not {PDlw w /PDlw -1 def} if} def
/FA {newpath tMatrix currentmatrix pop translate scale
  0 0 1 5 -2 roll arc tMatrix setmatrix stroke} bdef
/PA {newpath tMatrix currentmatrix pop	translate 0 0 moveto scale
  0 0 1 5 -2 roll arc closepath tMatrix setmatrix fill} bdef
/FAn {newpath tMatrix currentmatrix pop translate scale
  0 0 1 5 -2 roll arcn tMatrix setmatrix stroke} bdef
/PAn {newpath tMatrix currentmatrix pop translate 0 0 moveto scale
  0 0 1 5 -2 roll arcn closepath tMatrix setmatrix fill} bdef
/vradius 0 def /hradius 0 def /lry 0 def
/lrx 0 def /uly 0 def /ulx 0 def /rad 0 def
/MRR {/vradius xdef /hradius xdef /lry xdef /lrx xdef /uly xdef
  /ulx xdef newpath tMatrix currentmatrix pop ulx hradius add uly
  vradius add translate hradius vradius scale 0 0 1 180 270 arc 
  tMatrix setmatrix lrx hradius sub uly vradius add translate
  hradius vradius scale 0 0 1 270 360 arc tMatrix setmatrix
  lrx hradius sub lry vradius sub translate hradius vradius scale
  0 0 1 0 90 arc tMatrix setmatrix ulx hradius add lry vradius sub
  translate hradius vradius scale 0 0 1 90 180 arc tMatrix setmatrix
  closepath} bdef
/FRR {MRR stroke } bdef
/PRR {MRR fill } bdef
/MlrRR {/lry xdef /lrx xdef /uly xdef /ulx xdef /rad lry uly sub 2 div def
  newpath tMatrix currentmatrix pop ulx rad add uly rad add translate
  rad rad scale 0 0 1 90 270 arc tMatrix setmatrix lrx rad sub lry rad
  sub translate rad rad scale 0 0 1 270 90 arc tMatrix setmatrix
  closepath} bdef
/FlrRR {MlrRR stroke } bdef
/PlrRR {MlrRR fill } bdef
/MtbRR {/lry xdef /lrx xdef /uly xdef /ulx xdef /rad lrx ulx sub 2 div def
  newpath tMatrix currentmatrix pop ulx rad add uly rad add translate
  rad rad scale 0 0 1 180 360 arc tMatrix setmatrix lrx rad sub lry rad
  sub translate rad rad scale 0 0 1 0 180 arc tMatrix setmatrix
  closepath} bdef
/FtbRR {MtbRR stroke } bdef
/PtbRR {MtbRR fill } bdef
/stri 6 array def /dtri 6 array def
/smat 6 array def /dmat 6 array def
/tmat1 6 array def /tmat2 6 array def /dif 3 array def
/asub {/ind2 exch def /ind1 exch def dup dup
  ind1 get exch ind2 get sub exch } bdef
/tri_to_matrix {
  2 0 asub 3 1 asub 4 0 asub 5 1 asub
  dup 0 get exch 1 get 7 -1 roll astore } bdef
/compute_transform {
  dmat dtri tri_to_matrix tmat1 invertmatrix 
  smat stri tri_to_matrix tmat2 concatmatrix } bdef
/ds {stri astore pop} bdef
/dt {dtri astore pop} bdef
/db {2 copy /cols xdef /rows xdef mul dup 3 mul string
  currentfile 
  3 index 0 eq {/ASCIIHexDecode filter}
  {/ASCII85Decode filter 3 index 2 eq {/RunLengthDecode filter} if }
  ifelse exch readstring pop
  dup 0 3 index getinterval /rbmap xdef
  dup 2 index dup getinterval /gbmap xdef
  1 index dup 2 mul exch getinterval /bbmap xdef pop pop}bdef
/it {gs np dtri aload pop moveto lineto lineto cp c
  cols rows 8 compute_transform 
  rbmap gbmap bbmap true 3 colorimage gr}bdef
/il {newpath moveto lineto stroke}bdef
currentdict end def
%%EndProlog

%%BeginSetup
MathWorks begin

0 cap

end
%%EndSetup

%%Page: 1 1
%%BeginPageSetup
%%PageBoundingBox:    46   199   546   608
MathWorks begin
bpage
%%EndPageSetup

%%BeginObject: obj1
bplot

/dpi2point 12 def
portraitMode 0216 7344 csm

  343    37  6002  4918 rc
85 dict begin %Colortable dictionary
/c0 { 0.000000 0.000000 0.000000 sr} bdef
/c1 { 1.000000 1.000000 1.000000 sr} bdef
/c2 { 0.900000 0.000000 0.000000 sr} bdef
/c3 { 0.000000 0.820000 0.000000 sr} bdef
/c4 { 0.000000 0.000000 0.800000 sr} bdef
/c5 { 0.910000 0.820000 0.320000 sr} bdef
/c6 { 1.000000 0.260000 0.820000 sr} bdef
/c7 { 0.000000 0.820000 0.820000 sr} bdef
c0
1 j
1 sg
   0    0 6913 5186 rf
6 w
0 sg
%%IncludeResource: font Helvetica
/Helvetica /ISOLatin1Encoding 120 FMSR

2332  221 mt 
(Neural Correlations at 0dB SNR, CF = 5888Hz) s
1 sg
0 1118 1475 0 0 -1118 899 1507 4 MP
PP
-1475 0 0 1118 1475 0 0 -1118 899 1507 5 MP stroke
4 w
DO
SO
6 w
0 sg
 899 1507 mt 2374 1507 L
 899  389 mt 2374  389 L
 899 1507 mt  899  389 L
2374 1507 mt 2374  389 L
 899 1507 mt 2374 1507 L
 899 1507 mt  899  389 L
 899 1507 mt  899 1492 L
 899  389 mt  899  403 L
 796 1652 mt 
(-2) s
1636 1507 mt 1636 1492 L
1636  389 mt 1636  403 L
1603 1652 mt 
(0) s
2374 1507 mt 2374 1492 L
2374  389 mt 2374  403 L
2341 1652 mt 
(2) s
 899 1507 mt  913 1507 L
2374 1507 mt 2359 1507 L
 798 1551 mt 
(0) s
 899 1134 mt  913 1134 L
2374 1134 mt 2359 1134 L
 698 1178 mt 
(0.5) s
 899  761 mt  913  761 L
2374  761 mt 2359  761 L
 798  805 mt 
(1) s
 899  389 mt  913  389 L
2374  389 mt 2359  389 L
 698  433 mt 
(1.5) s
 899 1507 mt 2374 1507 L
 899  389 mt 2374  389 L
 899 1507 mt  899  389 L
2374 1507 mt 2374  389 L
gs 899 389 1476 1119 rc
24 w
18 33 19 -30 18 12 19 -14 18 30 19 -35 18 25 18 -30 
19 48 18 -40 19 24 18 -18 19 35 18 -29 18 13 19 -21 
18 50 19 -34 18 38 19 1 18 -33 19 34 18 -26 18 67 
19 -43 18 37 19 -13 18 68 19 -21 18 48 18 -5 19 90 
18 -39 19 94 18 -16 19 129 18 -44 19 74 18 120 18 -153 
19 33 18 -74 19 44 18 -129 19 16 18 -94 18 39 19 -90 
18 5 19 -48 18 21 19 -68 18 13 19 -37 18 43 18 -67 
19 26 18 -34 19 33 18 -1 19 -38 18 34 18 -50 19 21 
18 -13 19 29 18 -35 19 18 18 -24 19 40 18 -48 18 30 
19 -24 18 34 19 -30 18 14 19 -12 18 30 18 -33 899 1243 80 MP stroke
6 w
/c8 { 1.000000 0.000000 0.000000 sr} bdef
c8
18 35 19 -36 18 22 19 -15 18 39 19 -54 18 42 18 -26 
19 46 18 -48 19 18 18 -16 19 46 18 -42 18 16 19 -16 
18 39 19 -33 18 34 19 4 18 -34 19 26 18 -12 18 46 
19 -30 18 33 19 -14 18 56 19 -1 18 19 18 7 19 92 
18 -38 19 78 18 -14 19 113 18 -36 19 63 18 103 18 -129 
19 27 18 -63 19 42 18 -107 19 24 18 -94 18 33 19 -90 
18 15 19 -43 18 24 19 -66 18 8 19 -41 18 48 18 -61 
19 32 18 -37 19 31 18 3 19 -51 18 40 18 -39 19 13 
18 -14 19 30 18 -45 19 24 18 -21 19 41 18 -39 18 22 
19 -28 18 40 19 -30 18 14 19 -27 18 37 18 -30 899 1252 80 MP stroke
gr

c8
0 sg
1433  294 mt 
(Speech) s
 882 1550 mt 
( ) s
2358  431 mt 
( ) s
1642  585 mt 
(SAC\(A+\)) s
gs 1142 449 1174 335 rc
24 w
385 0 1218 542 2 MP stroke
gr

24 w
1642  732 mt 
(SCC\(A+,A-\)) s
gs 1142 449 1174 335 rc
6 w
c8
385 0 1218 689 2 MP stroke
gr

6 w
c8
1 sg
0 1118 1475 0 0 -1118 2839 1507 4 MP
PP
-1475 0 0 1118 1475 0 0 -1118 2839 1507 5 MP stroke
4 w
DO
SO
6 w
0 sg
2839 1507 mt 4314 1507 L
2839  389 mt 4314  389 L
2839 1507 mt 2839  389 L
4314 1507 mt 4314  389 L
2839 1507 mt 4314 1507 L
2839 1507 mt 2839  389 L
2839 1507 mt 2839 1492 L
2839  389 mt 2839  403 L
2736 1652 mt 
(-2) s
3576 1507 mt 3576 1492 L
3576  389 mt 3576  403 L
3543 1652 mt 
(0) s
4314 1507 mt 4314 1492 L
4314  389 mt 4314  403 L
4281 1652 mt 
(2) s
2839 1507 mt 2853 1507 L
4314 1507 mt 4299 1507 L
2638 1551 mt 
(0.2) s
2839 1227 mt 2853 1227 L
4314 1227 mt 4299 1227 L
2638 1271 mt 
(0.4) s
2839  947 mt 2853  947 L
4314  947 mt 4299  947 L
2638  991 mt 
(0.6) s
2839  668 mt 2853  668 L
4314  668 mt 4299  668 L
2638  712 mt 
(0.8) s
2839  389 mt 2853  389 L
4314  389 mt 4299  389 L
2738  433 mt 
(1) s
2839 1507 mt 4314 1507 L
2839  389 mt 4314  389 L
2839 1507 mt 2839  389 L
4314 1507 mt 4314  389 L
gs 2839 388 1476 1120 rc
24 w
18 59 19 -62 18 38 19 -34 18 49 19 -63 18 37 18 -58 
19 81 18 -77 19 20 18 -25 19 30 18 -40 18 14 19 -45 
18 55 19 -53 18 50 19 -15 18 -57 19 30 18 -29 18 67 
19 -46 18 39 19 -4 18 74 19 -15 18 45 18 5 19 113 
18 -27 19 111 18 -27 19 145 18 -52 19 80 18 132 18 -182 
19 50 18 -80 19 52 18 -145 19 27 18 -111 18 27 19 -113 
18 -5 19 -45 18 15 19 -74 18 4 19 -39 18 46 18 -67 
19 29 18 -30 19 57 18 15 19 -50 18 53 18 -55 19 45 
18 -14 19 40 18 -30 19 26 18 -21 19 77 18 -81 18 58 
19 -37 18 63 19 -49 18 34 19 -38 18 62 18 -59 2839 1306 80 MP stroke
6 w
c8
18 53 19 -47 18 27 19 -31 18 49 19 -57 18 34 18 -44 
19 59 18 -65 19 14 18 -24 19 35 18 -56 18 25 19 -37 
18 44 19 -57 18 64 19 -22 18 -37 19 19 18 -24 18 59 
19 -40 18 39 19 -17 18 72 19 -20 18 56 18 -6 19 109 
18 -45 19 98 18 -15 19 141 18 -82 19 84 18 114 18 -156 
19 56 18 -84 19 66 18 -129 19 2 18 -87 18 32 19 -116 
18 6 19 -39 18 5 19 -69 18 16 19 -34 18 38 18 -74 
19 43 18 -32 19 57 18 12 19 -62 18 65 18 -41 19 25 
18 -10 19 49 18 -37 19 30 18 -22 19 74 18 -74 18 40 
19 -34 18 60 19 -38 18 25 19 -25 18 58 18 -69 2839 1332 80 MP stroke
gr

c8
0 sg
3206  293 mt 
(Noisy Speech) s
2822 1550 mt 
( ) s
4298  430 mt 
( ) s
3581  584 mt 
(SAC\(B+\)) s
gs 3082 448 1173 335 rc
24 w
384 0 3158 541 2 MP stroke
gr

24 w
3581  731 mt 
(SCC\(B+,B-\)) s
gs 3082 448 1173 335 rc
6 w
c8
384 0 3158 688 2 MP stroke
gr

6 w
c8
1 sg
0 1118 1475 0 0 -1118 4780 1507 4 MP
PP
-1475 0 0 1118 1475 0 0 -1118 4780 1507 5 MP stroke
4 w
DO
SO
6 w
0 sg
4780 1507 mt 6255 1507 L
4780  389 mt 6255  389 L
4780 1507 mt 4780  389 L
6255 1507 mt 6255  389 L
4780 1507 mt 6255 1507 L
4780 1507 mt 4780  389 L
4780 1507 mt 4780 1492 L
4780  389 mt 4780  403 L
4677 1652 mt 
(-2) s
5517 1507 mt 5517 1492 L
5517  389 mt 5517  403 L
5484 1652 mt 
(0) s
6255 1507 mt 6255 1492 L
6255  389 mt 6255  403 L
6222 1652 mt 
(2) s
4780 1507 mt 4794 1507 L
6255 1507 mt 6240 1507 L
4579 1551 mt 
(0.2) s
4780 1227 mt 4794 1227 L
6255 1227 mt 6240 1227 L
4579 1271 mt 
(0.4) s
4780  947 mt 4794  947 L
6255  947 mt 6240  947 L
4579  991 mt 
(0.6) s
4780  668 mt 4794  668 L
6255  668 mt 6240  668 L
4579  712 mt 
(0.8) s
4780  389 mt 4794  389 L
6255  389 mt 6240  389 L
4679  433 mt 
(1) s
4780 1507 mt 6255 1507 L
4780  389 mt 6255  389 L
4780 1507 mt 4780  389 L
6255 1507 mt 6255  389 L
gs 4780 388 1476 1120 rc
24 w
18 53 19 -47 18 27 19 -31 18 49 19 -57 18 34 18 -44 
19 59 18 -65 19 14 18 -24 19 35 18 -56 18 25 19 -37 
18 44 19 -57 18 64 19 -22 18 -37 19 19 18 -24 18 59 
19 -40 18 39 19 -17 18 72 19 -20 18 56 18 -6 19 109 
18 -45 19 98 18 -15 19 141 18 -82 19 84 18 114 18 -156 
19 56 18 -84 19 66 18 -129 19 2 18 -87 18 32 19 -116 
18 6 19 -39 18 5 19 -69 18 16 19 -34 18 38 18 -74 
19 43 18 -32 19 57 18 12 19 -62 18 65 18 -41 19 25 
18 -10 19 49 18 -37 19 30 18 -22 19 74 18 -74 18 40 
19 -34 18 60 19 -38 18 25 19 -25 18 58 18 -69 4780 1332 80 MP stroke
6 w
c8
18 68 19 -62 18 23 19 -23 18 64 19 -73 18 57 18 -47 
19 76 18 -81 19 30 18 -31 19 67 18 -73 18 37 19 -36 
18 69 19 -62 18 52 19 0 18 -82 19 51 18 -39 18 70 
19 -58 18 32 19 -42 18 76 19 -42 18 10 18 -30 19 78 
18 -62 19 39 18 -34 19 58 18 -68 19 50 18 47 18 -106 
19 36 18 -35 19 68 18 -72 19 42 18 -33 18 65 19 -74 
18 41 19 -22 18 37 19 -66 18 38 19 -37 18 81 18 -78 
19 40 18 -36 19 60 18 1 19 -59 18 78 18 -77 19 42 
18 -34 19 53 18 -65 19 41 18 -45 19 79 18 -78 18 43 
19 -31 18 50 19 -50 18 24 19 -39 18 68 18 -59 4780 1311 80 MP stroke
gr

c8
0 sg
4893  293 mt 
(Speech / Noisy Speech) s
4763 1550 mt 
( ) s
6239  430 mt 
( ) s
5522  584 mt 
(SCC\(A+,B+\)) s
gs 5023 448 1173 335 rc
24 w
384 0 5099 541 2 MP stroke
gr

24 w
5522  731 mt 
(SCC\(A+,B-\)) s
gs 5023 448 1173 335 rc
6 w
c8
384 0 5099 688 2 MP stroke
gr

6 w
c8
1 sg
0 1119 1475 0 0 -1119 899 3061 4 MP
PP
-1475 0 0 1119 1475 0 0 -1119 899 3061 5 MP stroke
4 w
DO
SO
6 w
0 sg
 899 3061 mt 2374 3061 L
 899 1942 mt 2374 1942 L
 899 3061 mt  899 1942 L
2374 3061 mt 2374 1942 L
 899 3061 mt 2374 3061 L
 899 3061 mt  899 1942 L
 899 3061 mt  899 3046 L
 899 1942 mt  899 1956 L
 796 3206 mt 
(-2) s
1636 3061 mt 1636 3046 L
1636 1942 mt 1636 1956 L
1603 3206 mt 
(0) s
2374 3061 mt 2374 3046 L
2374 1942 mt 2374 1956 L
2341 3206 mt 
(2) s
 899 3061 mt  913 3061 L
2374 3061 mt 2359 3061 L
 561 3105 mt 
(-0.05) s
 899 2781 mt  913 2781 L
2374 2781 mt 2359 2781 L
 798 2825 mt 
(0) s
 899 2501 mt  913 2501 L
2374 2501 mt 2359 2501 L
 631 2545 mt 
(0.05) s
 899 2221 mt  913 2221 L
2374 2221 mt 2359 2221 L
 698 2265 mt 
(0.1) s
 899 1942 mt  913 1942 L
2374 1942 mt 2359 1942 L
 631 1986 mt 
(0.15) s
 899 3061 mt 2374 3061 L
 899 1942 mt 2374 1942 L
 899 3061 mt  899 1942 L
2374 3061 mt 2374 1942 L
gs 899 1942 1476 1120 rc
24 w
18 -21 19 46 18 -71 19 4 18 -62 19 136 18 -127 18 -26 
19 9 18 64 19 38 18 -8 19 -83 18 98 18 -22 19 -39 
18 85 19 -11 18 32 19 -21 18 3 19 63 18 -103 18 156 
19 -98 18 26 19 10 18 97 19 -151 18 210 18 -90 19 -13 
18 -10 19 123 18 -15 19 120 18 -63 19 83 18 131 18 -186 
19 52 18 -85 19 20 18 -172 19 -60 18 2 18 49 19 -4 
18 -79 19 -27 18 -29 19 -21 18 39 19 31 18 -36 18 -43 
19 -44 18 23 19 12 18 -28 19 101 18 -50 18 -80 19 59 
18 8 19 -7 18 71 19 -42 18 -25 19 -6 18 -61 18 55 
19 23 18 -40 19 -1 18 4 19 109 18 -51 18 -26 899 2717 80 MP stroke
gr

24 w
 479 2732 mt  -90 rotate
(DIFCOR) s
90 rotate
6 w
1 sg
0 1119 1475 0 0 -1119 2839 3061 4 MP
PP
-1475 0 0 1119 1475 0 0 -1119 2839 3061 5 MP stroke
4 w
DO
SO
6 w
0 sg
2839 3061 mt 4314 3061 L
2839 1942 mt 4314 1942 L
2839 3061 mt 2839 1942 L
4314 3061 mt 4314 1942 L
2839 3061 mt 4314 3061 L
2839 3061 mt 2839 1942 L
2839 3061 mt 2839 3046 L
2839 1942 mt 2839 1956 L
2736 3206 mt 
(-2) s
3576 3061 mt 3576 3046 L
3576 1942 mt 3576 1956 L
3543 3206 mt 
(0) s
4314 3061 mt 4314 3046 L
4314 1942 mt 4314 1956 L
4281 3206 mt 
(2) s
2839 3061 mt 2853 3061 L
4314 3061 mt 4299 3061 L
2501 3105 mt 
(-0.05) s
2839 2781 mt 2853 2781 L
4314 2781 mt 4299 2781 L
2738 2825 mt 
(0) s
2839 2501 mt 2853 2501 L
4314 2501 mt 4299 2501 L
2571 2545 mt 
(0.05) s
2839 2221 mt 2853 2221 L
4314 2221 mt 4299 2221 L
2638 2265 mt 
(0.1) s
2839 1942 mt 2853 1942 L
4314 1942 mt 4299 1942 L
2571 1986 mt 
(0.15) s
2839 3061 mt 4314 3061 L
2839 1942 mt 4314 1942 L
2839 3061 mt 2839 1942 L
4314 3061 mt 4314 1942 L
gs 2839 1942 1476 1120 rc
24 w
18 24 19 -60 18 48 19 -15 18 4 19 -30 18 14 18 -57 
19 91 18 -48 19 21 18 -2 19 -21 18 64 18 -45 19 -29 
18 41 19 18 18 -55 19 25 18 -77 19 41 18 -18 18 34 
19 -25 18 -4 19 55 18 5 19 21 18 -44 18 45 19 19 
18 70 19 53 18 -52 19 19 18 120 19 -17 18 75 18 -107 
19 -25 18 18 19 -58 18 -65 19 101 18 -96 18 -17 19 11 
18 -46 19 -24 18 41 19 -18 18 -51 19 -16 18 31 18 26 
19 -56 18 10 19 -3 18 15 19 46 18 -47 18 -56 19 77 
18 -13 19 -37 18 30 19 -18 18 4 19 14 18 -28 18 72 
19 -13 18 9 19 -41 18 38 19 -57 18 17 18 41 2839 2677 80 MP stroke
6 w
gr

1 sg
0 1119 1475 0 0 -1119 4780 3061 4 MP
PP
-1475 0 0 1119 1475 0 0 -1119 4780 3061 5 MP stroke
4 w
DO
SO
6 w
0 sg
4780 3061 mt 6255 3061 L
4780 1942 mt 6255 1942 L
4780 3061 mt 4780 1942 L
6255 3061 mt 6255 1942 L
4780 3061 mt 6255 3061 L
4780 3061 mt 4780 1942 L
4780 3061 mt 4780 3046 L
4780 1942 mt 4780 1956 L
4677 3206 mt 
(-2) s
5517 3061 mt 5517 3046 L
5517 1942 mt 5517 1956 L
5484 3206 mt 
(0) s
6255 3061 mt 6255 3046 L
6255 1942 mt 6255 1956 L
6222 3206 mt 
(2) s
4780 3061 mt 4794 3061 L
6255 3061 mt 6240 3061 L
4509 3105 mt 
(-0.5) s
4780 2688 mt 4794 2688 L
6255 2688 mt 6240 2688 L
4679 2732 mt 
(0) s
4780 2315 mt 4794 2315 L
6255 2315 mt 6240 2315 L
4579 2359 mt 
(0.5) s
4780 1942 mt 4794 1942 L
6255 1942 mt 6240 1942 L
4679 1986 mt 
(1) s
4780 3061 mt 6255 3061 L
4780 1942 mt 6255 1942 L
4780 3061 mt 4780 1942 L
6255 3061 mt 6255 1942 L
gs 4780 1942 1476 1120 rc
24 w
18 -4 19 3 18 0 19 -2 18 -4 19 4 18 -5 18 -5 
19 7 18 4 19 7 18 -1 19 0 18 9 18 -6 19 -2 
18 13 19 -1 18 11 19 0 18 11 19 7 18 -5 18 29 
19 -12 18 20 19 9 18 29 19 1 18 42 18 11 19 49 
18 -7 19 74 18 2 19 98 18 -8 19 48 18 95 18 -97 
19 14 18 -55 19 8 18 -91 19 -7 18 -76 18 5 19 -51 
18 -17 19 -36 18 1 19 -34 18 -6 19 -18 18 0 18 -25 
19 5 18 -15 19 1 18 -2 19 -6 18 -8 18 -8 19 -2 
18 5 19 1 18 -1 19 -3 18 -1 19 -2 18 -6 18 7 
19 -8 18 7 19 -3 18 2 19 8 18 -6 18 -1 4780 2677 80 MP stroke
gr

24 w
%%IncludeResource: font Symbol
/Symbol /ISOLatin1Encoding 120 FMSR

4872 2144 mt 
(r) s
%%IncludeResource: font Helvetica
/Helvetica /ISOLatin1Encoding 96 FMSR

4937 2204 mt 
(TFS) s
%%IncludeResource: font Helvetica
/Helvetica /ISOLatin1Encoding 120 FMSR

5118 2144 mt 
( = 8.1352) s
6 w
1 sg
0 1119 1475 0 0 -1119 899 4615 4 MP
PP
-1475 0 0 1119 1475 0 0 -1119 899 4615 5 MP stroke
4 w
DO
SO
6 w
0 sg
 899 4615 mt 2374 4615 L
 899 3496 mt 2374 3496 L
 899 4615 mt  899 3496 L
2374 4615 mt 2374 3496 L
 899 4615 mt 2374 4615 L
 899 4615 mt  899 3496 L
 899 4615 mt  899 4600 L
 899 3496 mt  899 3510 L
 796 4760 mt 
(-2) s
1636 4615 mt 1636 4600 L
1636 3496 mt 1636 3510 L
1603 4760 mt 
(0) s
2374 4615 mt 2374 4600 L
2374 3496 mt 2374 3510 L
2341 4760 mt 
(2) s
 899 4615 mt  913 4615 L
2374 4615 mt 2359 4615 L
 798 4659 mt 
(0) s
 899 4242 mt  913 4242 L
2374 4242 mt 2359 4242 L
 698 4286 mt 
(0.5) s
 899 3869 mt  913 3869 L
2374 3869 mt 2359 3869 L
 798 3913 mt 
(1) s
 899 3496 mt  913 3496 L
2374 3496 mt 2359 3496 L
 698 3540 mt 
(1.5) s
 899 4615 mt 2374 4615 L
 899 3496 mt 2374 3496 L
 899 4615 mt  899 3496 L
2374 4615 mt 2374 3496 L
gs 899 3496 1476 1120 rc
24 w
18 34 19 -33 18 17 19 -14 18 34 19 -44 18 33 18 -28 
19 47 18 -43 19 20 18 -17 19 41 18 -36 18 15 19 -18 
18 44 19 -34 18 37 19 2 18 -33 19 29 18 -19 18 56 
19 -36 18 35 19 -14 18 63 19 -11 18 33 18 1 19 92 
18 -39 19 86 18 -15 19 121 18 -40 19 69 18 111 18 -141 
19 30 18 -68 19 43 18 -118 19 19 18 -94 18 36 19 -90 
18 11 19 -46 18 23 19 -68 18 11 19 -39 18 45 18 -64 
19 29 18 -35 19 32 18 1 19 -45 18 38 18 -45 19 17 
18 -14 19 30 18 -40 19 21 18 -23 19 40 18 -43 18 26 
19 -26 18 37 19 -30 18 14 19 -19 18 33 18 -31 899 4355 80 MP stroke
gr

24 w
 616 4323 mt  -90 rotate
(SUMCOR) s
90 rotate
6 w
1 sg
0 1119 1475 0 0 -1119 2839 4615 4 MP
PP
-1475 0 0 1119 1475 0 0 -1119 2839 4615 5 MP stroke
4 w
DO
SO
6 w
0 sg
2839 4615 mt 4314 4615 L
2839 3496 mt 4314 3496 L
2839 4615 mt 2839 3496 L
4314 4615 mt 4314 3496 L
2839 4615 mt 4314 4615 L
2839 4615 mt 2839 3496 L
2839 4615 mt 2839 4600 L
2839 3496 mt 2839 3510 L
2736 4760 mt 
(-2) s
3576 4615 mt 3576 4600 L
3576 3496 mt 3576 3510 L
3543 4760 mt 
(0) s
4314 4615 mt 4314 4600 L
4314 3496 mt 4314 3510 L
4281 4760 mt 
(2) s
2839 4615 mt 2853 4615 L
4314 4615 mt 4299 4615 L
2638 4659 mt 
(0.2) s
2839 4335 mt 2853 4335 L
4314 4335 mt 4299 4335 L
2638 4379 mt 
(0.4) s
2839 4055 mt 2853 4055 L
4314 4055 mt 4299 4055 L
2638 4099 mt 
(0.6) s
2839 3775 mt 2853 3775 L
4314 3775 mt 4299 3775 L
2638 3819 mt 
(0.8) s
2839 3496 mt 2853 3496 L
4314 3496 mt 4299 3496 L
2738 3540 mt 
(1) s
2839 4615 mt 4314 4615 L
2839 3496 mt 4314 3496 L
2839 4615 mt 2839 3496 L
4314 4615 mt 4314 3496 L
gs 2839 3496 1476 1120 rc
24 w
18 56 19 -54 18 32 19 -33 18 50 19 -60 18 35 18 -51 
19 71 18 -72 19 17 18 -25 19 33 18 -48 18 20 19 -41 
18 49 19 -55 18 57 19 -19 18 -47 19 25 18 -26 18 63 
19 -43 18 39 19 -11 18 73 19 -17 18 50 18 -1 19 112 
18 -36 19 104 18 -21 19 144 18 -67 19 82 18 123 18 -169 
19 53 18 -82 19 59 18 -138 19 15 18 -99 18 29 19 -115 
18 1 19 -42 18 10 19 -71 18 10 19 -37 18 42 18 -70 
19 36 18 -32 19 57 18 14 19 -56 18 59 18 -48 19 35 
18 -12 19 45 18 -34 19 28 18 -22 19 76 18 -77 18 49 
19 -36 18 61 19 -43 18 30 19 -32 18 60 18 -64 2839 4427 80 MP stroke
gr

24 w
3293 4903 mt 
(Delay [ms]) s
6 w
1 sg
0 1119 1475 0 0 -1119 4780 4615 4 MP
PP
-1475 0 0 1119 1475 0 0 -1119 4780 4615 5 MP stroke
4 w
DO
SO
6 w
0 sg
4780 4615 mt 6255 4615 L
4780 3496 mt 6255 3496 L
4780 4615 mt 4780 3496 L
6255 4615 mt 6255 3496 L
4780 4615 mt 6255 4615 L
4780 4615 mt 4780 3496 L
4780 4615 mt 4780 4600 L
4780 3496 mt 4780 3510 L
4677 4760 mt 
(-2) s
5517 4615 mt 5517 4600 L
5517 3496 mt 5517 3510 L
5484 4760 mt 
(0) s
6255 4615 mt 6255 4600 L
6255 3496 mt 6255 3510 L
6222 4760 mt 
(2) s
4780 4615 mt 4794 4615 L
6255 4615 mt 6240 4615 L
4579 4659 mt 
(0.2) s
4780 4335 mt 4794 4335 L
6255 4335 mt 6240 4335 L
4579 4379 mt 
(0.4) s
4780 4055 mt 4794 4055 L
6255 4055 mt 6240 4055 L
4579 4099 mt 
(0.6) s
4780 3775 mt 4794 3775 L
6255 3775 mt 6240 3775 L
4579 3819 mt 
(0.8) s
4780 3496 mt 4794 3496 L
6255 3496 mt 6240 3496 L
4679 3540 mt 
(1) s
4780 4615 mt 6255 4615 L
4780 3496 mt 6255 3496 L
4780 4615 mt 4780 3496 L
6255 4615 mt 6255 3496 L
gs 4780 3496 1476 1120 rc
24 w
18 66 19 -60 18 24 19 -25 18 60 19 -69 18 51 18 -51 
19 82 18 -77 19 37 18 -32 19 67 18 -65 18 32 19 -38 
18 81 19 -63 18 62 19 1 18 -72 19 57 18 -44 18 98 
19 -69 18 50 19 -33 18 102 19 -40 18 49 18 -20 19 125 
18 -69 19 108 18 -31 19 150 18 -76 19 95 18 136 18 -198 
19 50 18 -87 19 76 18 -157 19 35 18 -105 18 70 19 -122 
18 25 19 -55 18 38 19 -98 18 32 19 -53 18 80 18 -101 
19 44 18 -50 19 61 18 0 19 -66 18 72 18 -86 19 41 
18 -30 19 55 18 -66 19 37 18 -45 19 77 18 -83 18 49 
19 -39 18 58 19 -53 18 25 19 -31 18 62 18 -60 4780 4409 80 MP stroke
gr

24 w
%%IncludeResource: font Symbol
/Symbol /ISOLatin1Encoding 120 FMSR

4872 3799 mt 
(r) s
%%IncludeResource: font Helvetica
/Helvetica /ISOLatin1Encoding 96 FMSR

4937 3859 mt 
(ENV) s
%%IncludeResource: font Helvetica
/Helvetica /ISOLatin1Encoding 120 FMSR

5134 3799 mt 
( = 0+1.4915i) s
6 w

end %%Color Dict

eplot
%%EndObject

epage
end

showpage

%%Trailer
%%EOF
