%!PS-Adobe-3.0 EPSF-3.0
%%Creator: MATLAB, The MathWorks, Inc. Version 8.3.0.532 (R2014a). Operating System: Linux 3.13.0-57-generic #95-Ubuntu SMP Fri Jun 19 09:28:15 UTC 2015 x86_64.
%%Title: ./speechSacScc_CF539SNR0.eps
%%CreationDate: 10/09/2015  13:22:56
%%DocumentNeededFonts: Helvetica
%%DocumentProcessColors: Cyan Magenta Yellow Black
%%LanguageLevel: 2
%%Pages: 1
%%BoundingBox:    58   199   546   608
%%EndComments

%%BeginProlog
% MathWorks dictionary
/MathWorks 160 dict begin
% definition operators
/bdef {bind def} bind def
/ldef {load def} bind def
/xdef {exch def} bdef
/xstore {exch store} bdef
% operator abbreviations
/c  /clip ldef
/cc /concat ldef
/cp /closepath ldef
/gr /grestore ldef
/gs /gsave ldef
/mt /moveto ldef
/np /newpath ldef
/cm /currentmatrix ldef
/sm /setmatrix ldef
/rm /rmoveto ldef
/rl /rlineto ldef
/s {show newpath} bdef
/sc {setcmykcolor} bdef
/sr /setrgbcolor ldef
/sg /setgray ldef
/w /setlinewidth ldef
/j /setlinejoin ldef
/cap /setlinecap ldef
/rc {rectclip} bdef
/rf {rectfill} bdef
% page state control
/pgsv () def
/bpage {/pgsv save def} bdef
/epage {pgsv restore} bdef
/bplot /gsave ldef
/eplot {stroke grestore} bdef
% orientation switch
/portraitMode 0 def /landscapeMode 1 def /rotateMode 2 def
% coordinate system mappings
/dpi2point 0 def
% font control
/FontSize 0 def
/FMS {/FontSize xstore findfont [FontSize 0 0 FontSize neg 0 0]
  makefont setfont} bdef
/reencode {exch dup where {pop load} {pop StandardEncoding} ifelse
  exch dup 3 1 roll findfont dup length dict begin
  { 1 index /FID ne {def}{pop pop} ifelse } forall
  /Encoding exch def currentdict end definefont pop} bdef
/isroman {findfont /CharStrings get /Agrave known} bdef
/FMSR {3 1 roll 1 index dup isroman {reencode} {pop pop} ifelse
  exch FMS} bdef
/csm {1 dpi2point div -1 dpi2point div scale neg translate
 dup landscapeMode eq {pop -90 rotate}
  {rotateMode eq {90 rotate} if} ifelse} bdef
% line types: solid, dotted, dashed, dotdash
/SO { [] 0 setdash } bdef
/DO { [.5 dpi2point mul 4 dpi2point mul] 0 setdash } bdef
/DA { [6 dpi2point mul] 0 setdash } bdef
/DD { [.5 dpi2point mul 4 dpi2point mul 6 dpi2point mul 4
  dpi2point mul] 0 setdash } bdef
% macros for lines and objects
/L {lineto stroke} bdef
/MP {3 1 roll moveto 1 sub {rlineto} repeat} bdef
/AP {{rlineto} repeat} bdef
/PDlw -1 def
/W {/PDlw currentlinewidth def setlinewidth} def
/PP {closepath eofill} bdef
/DP {closepath stroke} bdef
/MR {4 -2 roll moveto dup  0 exch rlineto exch 0 rlineto
  neg 0 exch rlineto closepath} bdef
/FR {MR stroke} bdef
/PR {MR fill} bdef
/L1i {{currentfile picstr readhexstring pop} image} bdef
/tMatrix matrix def
/MakeOval {newpath tMatrix currentmatrix pop translate scale
0 0 1 0 360 arc tMatrix setmatrix} bdef
/FO {MakeOval stroke} bdef
/PO {MakeOval fill} bdef
/PD {currentlinewidth 2 div 0 360 arc fill
   PDlw -1 eq not {PDlw w /PDlw -1 def} if} def
/FA {newpath tMatrix currentmatrix pop translate scale
  0 0 1 5 -2 roll arc tMatrix setmatrix stroke} bdef
/PA {newpath tMatrix currentmatrix pop	translate 0 0 moveto scale
  0 0 1 5 -2 roll arc closepath tMatrix setmatrix fill} bdef
/FAn {newpath tMatrix currentmatrix pop translate scale
  0 0 1 5 -2 roll arcn tMatrix setmatrix stroke} bdef
/PAn {newpath tMatrix currentmatrix pop translate 0 0 moveto scale
  0 0 1 5 -2 roll arcn closepath tMatrix setmatrix fill} bdef
/vradius 0 def /hradius 0 def /lry 0 def
/lrx 0 def /uly 0 def /ulx 0 def /rad 0 def
/MRR {/vradius xdef /hradius xdef /lry xdef /lrx xdef /uly xdef
  /ulx xdef newpath tMatrix currentmatrix pop ulx hradius add uly
  vradius add translate hradius vradius scale 0 0 1 180 270 arc 
  tMatrix setmatrix lrx hradius sub uly vradius add translate
  hradius vradius scale 0 0 1 270 360 arc tMatrix setmatrix
  lrx hradius sub lry vradius sub translate hradius vradius scale
  0 0 1 0 90 arc tMatrix setmatrix ulx hradius add lry vradius sub
  translate hradius vradius scale 0 0 1 90 180 arc tMatrix setmatrix
  closepath} bdef
/FRR {MRR stroke } bdef
/PRR {MRR fill } bdef
/MlrRR {/lry xdef /lrx xdef /uly xdef /ulx xdef /rad lry uly sub 2 div def
  newpath tMatrix currentmatrix pop ulx rad add uly rad add translate
  rad rad scale 0 0 1 90 270 arc tMatrix setmatrix lrx rad sub lry rad
  sub translate rad rad scale 0 0 1 270 90 arc tMatrix setmatrix
  closepath} bdef
/FlrRR {MlrRR stroke } bdef
/PlrRR {MlrRR fill } bdef
/MtbRR {/lry xdef /lrx xdef /uly xdef /ulx xdef /rad lrx ulx sub 2 div def
  newpath tMatrix currentmatrix pop ulx rad add uly rad add translate
  rad rad scale 0 0 1 180 360 arc tMatrix setmatrix lrx rad sub lry rad
  sub translate rad rad scale 0 0 1 0 180 arc tMatrix setmatrix
  closepath} bdef
/FtbRR {MtbRR stroke } bdef
/PtbRR {MtbRR fill } bdef
/stri 6 array def /dtri 6 array def
/smat 6 array def /dmat 6 array def
/tmat1 6 array def /tmat2 6 array def /dif 3 array def
/asub {/ind2 exch def /ind1 exch def dup dup
  ind1 get exch ind2 get sub exch } bdef
/tri_to_matrix {
  2 0 asub 3 1 asub 4 0 asub 5 1 asub
  dup 0 get exch 1 get 7 -1 roll astore } bdef
/compute_transform {
  dmat dtri tri_to_matrix tmat1 invertmatrix 
  smat stri tri_to_matrix tmat2 concatmatrix } bdef
/ds {stri astore pop} bdef
/dt {dtri astore pop} bdef
/db {2 copy /cols xdef /rows xdef mul dup 3 mul string
  currentfile 
  3 index 0 eq {/ASCIIHexDecode filter}
  {/ASCII85Decode filter 3 index 2 eq {/RunLengthDecode filter} if }
  ifelse exch readstring pop
  dup 0 3 index getinterval /rbmap xdef
  dup 2 index dup getinterval /gbmap xdef
  1 index dup 2 mul exch getinterval /bbmap xdef pop pop}bdef
/it {gs np dtri aload pop moveto lineto lineto cp c
  cols rows 8 compute_transform 
  rbmap gbmap bbmap true 3 colorimage gr}bdef
/il {newpath moveto lineto stroke}bdef
currentdict end def
%%EndProlog

%%BeginSetup
MathWorks begin

0 cap

end
%%EndSetup

%%Page: 1 1
%%BeginPageSetup
%%PageBoundingBox:    58   199   546   608
MathWorks begin
bpage
%%EndPageSetup

%%BeginObject: obj1
bplot

/dpi2point 12 def
portraitMode 0216 7344 csm

  480    37  5865  4918 rc
85 dict begin %Colortable dictionary
/c0 { 0.000000 0.000000 0.000000 sr} bdef
/c1 { 1.000000 1.000000 1.000000 sr} bdef
/c2 { 0.900000 0.000000 0.000000 sr} bdef
/c3 { 0.000000 0.820000 0.000000 sr} bdef
/c4 { 0.000000 0.000000 0.800000 sr} bdef
/c5 { 0.910000 0.820000 0.320000 sr} bdef
/c6 { 1.000000 0.260000 0.820000 sr} bdef
/c7 { 0.000000 0.820000 0.820000 sr} bdef
c0
1 j
1 sg
   0    0 6913 5186 rf
6 w
0 sg
%%IncludeResource: font Helvetica
/Helvetica /ISOLatin1Encoding 120 FMSR

2365  221 mt 
(Neural Correlations at 0dB SNR, CF = 539Hz) s
1 sg
0 1118 1475 0 0 -1118 899 1507 4 MP
PP
-1475 0 0 1118 1475 0 0 -1118 899 1507 5 MP stroke
4 w
DO
SO
6 w
0 sg
 899 1507 mt 2374 1507 L
 899  389 mt 2374  389 L
 899 1507 mt  899  389 L
2374 1507 mt 2374  389 L
 899 1507 mt 2374 1507 L
 899 1507 mt  899  389 L
 899 1507 mt  899 1492 L
 899  389 mt  899  403 L
 796 1652 mt 
(-2) s
1636 1507 mt 1636 1492 L
1636  389 mt 1636  403 L
1603 1652 mt 
(0) s
2374 1507 mt 2374 1492 L
2374  389 mt 2374  403 L
2341 1652 mt 
(2) s
 899 1507 mt  913 1507 L
2374 1507 mt 2359 1507 L
 798 1551 mt 
(0) s
 899 1227 mt  913 1227 L
2374 1227 mt 2359 1227 L
 698 1271 mt 
(0.5) s
 899  948 mt  913  948 L
2374  948 mt 2359  948 L
 798  992 mt 
(1) s
 899  668 mt  913  668 L
2374  668 mt 2359  668 L
 698  712 mt 
(1.5) s
 899  389 mt  913  389 L
2374  389 mt 2359  389 L
 798  433 mt 
(2) s
 899 1507 mt 2374 1507 L
 899  389 mt 2374  389 L
 899 1507 mt  899  389 L
2374 1507 mt 2374  389 L
gs 899 389 1476 1119 rc
24 w
18 58 19 -62 18 17 19 -36 18 12 19 -83 18 -13 18 -59 
19 -8 18 -80 19 -29 18 -42 19 -24 18 -29 18 -15 19 -15 
18 -8 19 -9 18 -2 19 -3 18 -1 19 1 18 1 18 7 
19 4 18 18 19 13 18 35 19 32 18 55 18 46 19 107 
18 30 19 121 18 31 19 160 18 -9 19 94 18 136 18 -156 
19 20 18 -94 19 9 18 -160 19 -31 18 -121 18 -30 19 -107 
18 -46 19 -55 18 -32 19 -35 18 -13 19 -18 18 -4 18 -7 
19 -1 18 -1 19 1 18 3 19 2 18 9 18 8 19 15 
18 15 19 29 18 24 19 42 18 29 19 80 18 8 18 59 
19 13 18 83 19 -12 18 36 19 -17 18 62 18 -58 899 1069 80 MP stroke
6 w
/c8 { 1.000000 0.000000 0.000000 sr} bdef
c8
18 2 19 -8 18 5 19 1 18 15 19 2 18 30 18 7 
19 58 18 7 19 65 18 23 19 87 18 28 18 84 19 12 
18 119 19 -31 18 117 19 2 18 -92 19 21 18 -84 18 14 
19 -125 18 -42 19 -82 18 -44 19 -68 18 -51 18 -47 19 -20 
18 -33 19 -11 18 -9 19 -4 18 -2 19 -1 18 0 18 0 
19 0 18 1 19 3 18 5 19 10 18 16 18 31 19 29 
18 47 19 51 18 75 19 40 18 91 19 27 18 141 18 -24 
19 85 18 -31 19 104 18 0 19 -125 18 35 18 -126 19 -8 
18 -84 19 -15 18 -105 19 -24 18 -69 19 -11 18 -61 18 -12 
19 -31 18 -7 19 -18 18 -4 19 -5 18 4 18 -1 899 1471 80 MP stroke
gr

c8
0 sg
1433  294 mt 
(Speech) s
 882 1550 mt 
( ) s
2358  431 mt 
( ) s
1642  585 mt 
(SAC\(A+\)) s
gs 1142 449 1174 335 rc
24 w
385 0 1218 542 2 MP stroke
gr

24 w
1642  732 mt 
(SCC\(A+,A-\)) s
gs 1142 449 1174 335 rc
6 w
c8
385 0 1218 689 2 MP stroke
gr

6 w
c8
1 sg
0 1118 1475 0 0 -1118 2839 1507 4 MP
PP
-1475 0 0 1118 1475 0 0 -1118 2839 1507 5 MP stroke
4 w
DO
SO
6 w
0 sg
2839 1507 mt 4314 1507 L
2839  389 mt 4314  389 L
2839 1507 mt 2839  389 L
4314 1507 mt 4314  389 L
2839 1507 mt 4314 1507 L
2839 1507 mt 2839  389 L
2839 1507 mt 2839 1492 L
2839  389 mt 2839  403 L
2736 1652 mt 
(-2) s
3576 1507 mt 3576 1492 L
3576  389 mt 3576  403 L
3543 1652 mt 
(0) s
4314 1507 mt 4314 1492 L
4314  389 mt 4314  403 L
4281 1652 mt 
(2) s
2839 1507 mt 2853 1507 L
4314 1507 mt 4299 1507 L
2738 1551 mt 
(0) s
2839 1134 mt 2853 1134 L
4314 1134 mt 4299 1134 L
2638 1178 mt 
(0.5) s
2839  761 mt 2853  761 L
4314  761 mt 4299  761 L
2738  805 mt 
(1) s
2839  389 mt 2853  389 L
4314  389 mt 4299  389 L
2638  433 mt 
(1.5) s
2839 1507 mt 4314 1507 L
2839  389 mt 4314  389 L
2839 1507 mt 2839  389 L
4314 1507 mt 4314  389 L
gs 2839 389 1476 1119 rc
24 w
18 96 19 -32 18 44 19 -22 18 53 19 -87 18 0 18 -69 
19 12 18 -116 19 -41 18 -70 19 -27 18 -66 18 -39 19 -29 
18 -20 19 -22 18 -6 19 -9 18 -3 19 -1 18 0 18 3 
19 5 18 9 19 16 18 34 19 30 18 64 18 46 19 124 
18 51 19 142 18 52 19 200 18 0 19 123 18 162 18 -181 
19 19 18 -123 19 0 18 -200 19 -52 18 -142 18 -51 19 -124 
18 -46 19 -64 18 -30 19 -34 18 -16 19 -9 18 -5 18 -3 
19 0 18 1 19 3 18 9 19 6 18 22 18 20 19 29 
18 39 19 66 18 27 19 70 18 41 19 116 18 -12 18 69 
19 0 18 86 19 -52 18 22 19 -44 18 32 18 -96 2839 1049 80 MP stroke
6 w
c8
18 -2 19 -23 18 -4 19 -6 18 5 19 -4 18 15 18 5 
19 33 18 9 19 49 18 24 19 87 18 31 18 90 19 35 
18 144 19 3 18 163 19 42 18 -74 19 64 18 -76 18 47 
19 -161 18 -28 19 -114 18 -44 19 -115 18 -65 18 -75 19 -41 
18 -44 19 -23 18 -18 19 -6 18 -3 19 -2 18 0 18 0 
19 0 18 2 19 5 18 8 19 19 18 23 18 53 19 34 
18 73 19 64 18 113 19 35 18 116 19 37 18 151 18 -49 
19 81 18 -70 19 66 18 -46 19 -148 18 4 18 -144 19 -32 
18 -91 19 -30 18 -85 19 -28 18 -43 19 -9 18 -36 18 -5 
19 -14 18 3 19 -6 18 6 19 1 18 21 18 3 2839 1424 80 MP stroke
gr

c8
0 sg
3206  294 mt 
(Noisy Speech) s
2822 1550 mt 
( ) s
4298  431 mt 
( ) s
3581  585 mt 
(SAC\(B+\)) s
gs 3082 449 1173 335 rc
24 w
384 0 3158 542 2 MP stroke
gr

24 w
3581  732 mt 
(SCC\(B+,B-\)) s
gs 3082 449 1173 335 rc
6 w
c8
384 0 3158 689 2 MP stroke
gr

6 w
c8
1 sg
0 1118 1475 0 0 -1118 4780 1507 4 MP
PP
-1475 0 0 1118 1475 0 0 -1118 4780 1507 5 MP stroke
4 w
DO
SO
6 w
0 sg
4780 1507 mt 6255 1507 L
4780  389 mt 6255  389 L
4780 1507 mt 4780  389 L
6255 1507 mt 6255  389 L
4780 1507 mt 6255 1507 L
4780 1507 mt 4780  389 L
4780 1507 mt 4780 1492 L
4780  389 mt 4780  403 L
4677 1652 mt 
(-2) s
5517 1507 mt 5517 1492 L
5517  389 mt 5517  403 L
5484 1652 mt 
(0) s
6255 1507 mt 6255 1492 L
6255  389 mt 6255  403 L
6222 1652 mt 
(2) s
4780 1507 mt 4794 1507 L
6255 1507 mt 6240 1507 L
4679 1551 mt 
(0) s
4780 1134 mt 4794 1134 L
6255 1134 mt 6240 1134 L
4579 1178 mt 
(0.5) s
4780  761 mt 4794  761 L
6255  761 mt 6240  761 L
4679  805 mt 
(1) s
4780  389 mt 4794  389 L
6255  389 mt 6240  389 L
4579  433 mt 
(1.5) s
4780 1507 mt 6255 1507 L
4780  389 mt 6255  389 L
4780 1507 mt 4780  389 L
6255 1507 mt 6255  389 L
gs 4780 389 1476 1119 rc
24 w
18 -2 19 -23 18 -4 19 -6 18 5 19 -4 18 15 18 5 
19 33 18 9 19 49 18 24 19 87 18 31 18 90 19 35 
18 144 19 3 18 163 19 42 18 -74 19 64 18 -76 18 47 
19 -161 18 -28 19 -114 18 -44 19 -115 18 -65 18 -75 19 -41 
18 -44 19 -23 18 -18 19 -6 18 -3 19 -2 18 0 18 0 
19 0 18 2 19 5 18 8 19 19 18 23 18 53 19 34 
18 73 19 64 18 113 19 35 18 116 19 37 18 151 18 -49 
19 81 18 -70 19 66 18 -46 19 -148 18 4 18 -144 19 -32 
18 -91 19 -30 18 -85 19 -28 18 -43 19 -9 18 -36 18 -5 
19 -14 18 3 19 -6 18 6 19 1 18 21 18 3 4780 1424 80 MP stroke
6 w
c8
18 21 19 -21 18 16 19 0 18 25 19 -11 18 34 18 -4 
19 65 18 -17 19 57 18 2 19 82 18 2 18 67 19 -7 
18 104 19 -47 18 98 19 3 18 -74 19 26 18 -64 18 34 
19 -104 18 -18 19 -63 18 -16 19 -73 18 -33 18 -43 19 -9 
18 -47 19 -6 18 -22 19 -1 18 -11 19 3 18 9 18 -13 
19 8 18 0 19 19 18 -4 19 22 18 11 18 44 19 9 
18 49 19 33 18 71 19 10 18 71 19 15 18 111 18 -42 
19 63 18 -21 19 72 18 -1 19 -99 18 47 18 -109 19 5 
18 -69 19 8 18 -93 19 -9 18 -57 19 6 18 -64 18 -1 
19 -31 18 7 19 -27 18 4 19 -13 18 14 18 -12 4780 1391 80 MP stroke
gr

c8
0 sg
4893  294 mt 
(Speech / Noisy Speech) s
4763 1550 mt 
( ) s
6239  431 mt 
( ) s
5522  585 mt 
(SCC\(A+,B+\)) s
gs 5023 449 1173 335 rc
24 w
384 0 5099 542 2 MP stroke
gr

24 w
5522  732 mt 
(SCC\(A+,B-\)) s
gs 5023 449 1173 335 rc
6 w
c8
384 0 5099 689 2 MP stroke
gr

6 w
c8
1 sg
0 1119 1475 0 0 -1119 899 3061 4 MP
PP
-1475 0 0 1119 1475 0 0 -1119 899 3061 5 MP stroke
4 w
DO
SO
6 w
0 sg
 899 3061 mt 2374 3061 L
 899 1942 mt 2374 1942 L
 899 3061 mt  899 1942 L
2374 3061 mt 2374 1942 L
 899 3061 mt 2374 3061 L
 899 3061 mt  899 1942 L
 899 3061 mt  899 3046 L
 899 1942 mt  899 1956 L
 796 3206 mt 
(-2) s
1636 3061 mt 1636 3046 L
1636 1942 mt 1636 1956 L
1603 3206 mt 
(0) s
2374 3061 mt 2374 3046 L
2374 1942 mt 2374 1956 L
2341 3206 mt 
(2) s
 899 3061 mt  913 3061 L
2374 3061 mt 2359 3061 L
 728 3105 mt 
(-2) s
 899 2781 mt  913 2781 L
2374 2781 mt 2359 2781 L
 728 2825 mt 
(-1) s
 899 2501 mt  913 2501 L
2374 2501 mt 2359 2501 L
 798 2545 mt 
(0) s
 899 2221 mt  913 2221 L
2374 2221 mt 2359 2221 L
 798 2265 mt 
(1) s
 899 1942 mt  913 1942 L
2374 1942 mt 2359 1942 L
 798 1986 mt 
(2) s
 899 3061 mt 2374 3061 L
 899 1942 mt 2374 1942 L
 899 3061 mt  899 1942 L
2374 3061 mt 2374 1942 L
gs 899 1942 1476 1120 rc
24 w
18 28 19 -27 18 6 19 -19 18 -1 19 -43 18 -22 18 -32 
19 -33 18 -44 19 -47 18 -33 19 -55 18 -29 18 -49 19 -13 
18 -64 19 11 18 -60 19 -2 18 45 19 -10 18 43 18 -4 
19 65 18 30 19 47 18 40 19 50 18 53 18 46 19 64 
18 32 19 66 18 20 19 82 18 -3 19 47 18 68 18 -78 
19 10 18 -48 19 3 18 -82 19 -21 18 -68 18 -31 19 -68 
18 -46 19 -54 18 -53 19 -38 18 -51 19 -23 18 -73 18 8 
19 -42 18 15 19 -52 18 2 19 63 18 -13 18 67 19 12 
18 49 19 22 18 65 19 33 18 49 19 46 18 34 18 35 
19 22 18 46 19 3 18 20 19 -6 18 29 18 -29 899 2300 80 MP stroke
gr

24 w
 646 2732 mt  -90 rotate
(DIFCOR) s
90 rotate
6 w
1 sg
0 1119 1475 0 0 -1119 2839 3061 4 MP
PP
-1475 0 0 1119 1475 0 0 -1119 2839 3061 5 MP stroke
4 w
DO
SO
6 w
0 sg
2839 3061 mt 4314 3061 L
2839 1942 mt 4314 1942 L
2839 3061 mt 2839 1942 L
4314 3061 mt 4314 1942 L
2839 3061 mt 4314 3061 L
2839 3061 mt 2839 1942 L
2839 3061 mt 2839 3046 L
2839 1942 mt 2839 1956 L
2736 3206 mt 
(-2) s
3576 3061 mt 3576 3046 L
3576 1942 mt 3576 1956 L
3543 3206 mt 
(0) s
4314 3061 mt 4314 3046 L
4314 1942 mt 4314 1956 L
4281 3206 mt 
(2) s
2839 3061 mt 2853 3061 L
4314 3061 mt 4299 3061 L
2668 3105 mt 
(-2) s
2839 2781 mt 2853 2781 L
4314 2781 mt 4299 2781 L
2668 2825 mt 
(-1) s
2839 2501 mt 2853 2501 L
4314 2501 mt 4299 2501 L
2738 2545 mt 
(0) s
2839 2221 mt 2853 2221 L
4314 2221 mt 4299 2221 L
2738 2265 mt 
(1) s
2839 1942 mt 2853 1942 L
4314 1942 mt 4299 1942 L
2738 1986 mt 
(2) s
2839 3061 mt 4314 3061 L
2839 1942 mt 4314 1942 L
2839 3061 mt 2839 1942 L
4314 3061 mt 4314 1942 L
gs 2839 1942 1476 1120 rc
24 w
18 37 19 -4 18 18 19 -6 18 18 19 -31 18 -6 18 -27 
19 -8 18 -47 19 -34 18 -35 19 -43 18 -37 18 -48 19 -24 
18 -61 19 -10 18 -63 19 -19 18 27 19 -25 18 29 18 -17 
19 62 18 14 19 49 18 29 19 55 18 48 18 46 19 61 
18 36 19 62 18 26 19 77 18 2 19 46 18 62 18 -69 
19 7 18 -46 19 -2 18 -78 19 -27 18 -62 18 -39 19 -59 
18 -45 19 -48 18 -53 19 -26 18 -50 19 -17 18 -59 18 17 
19 -30 18 27 19 -24 18 21 19 58 18 6 18 61 19 24 
18 48 19 37 18 42 19 36 18 32 19 47 18 9 18 28 
19 5 18 31 19 -17 18 5 19 -16 18 4 18 -37 2839 2360 80 MP stroke
6 w
gr

1 sg
0 1119 1475 0 0 -1119 4780 3061 4 MP
PP
-1475 0 0 1119 1475 0 0 -1119 4780 3061 5 MP stroke
4 w
DO
SO
6 w
0 sg
4780 3061 mt 6255 3061 L
4780 1942 mt 6255 1942 L
4780 3061 mt 4780 1942 L
6255 3061 mt 6255 1942 L
4780 3061 mt 6255 3061 L
4780 3061 mt 4780 1942 L
4780 3061 mt 4780 3046 L
4780 1942 mt 4780 1956 L
4677 3206 mt 
(-2) s
5517 3061 mt 5517 3046 L
5517 1942 mt 5517 1956 L
5484 3206 mt 
(0) s
6255 3061 mt 6255 3046 L
6255 1942 mt 6255 1956 L
6222 3206 mt 
(2) s
4780 3061 mt 4794 3061 L
6255 3061 mt 6240 3061 L
4609 3105 mt 
(-1) s
4780 2688 mt 4794 2688 L
6255 2688 mt 6240 2688 L
4679 2732 mt 
(0) s
4780 2315 mt 4794 2315 L
6255 2315 mt 6240 2315 L
4679 2359 mt 
(1) s
4780 1942 mt 4794 1942 L
6255 1942 mt 6240 1942 L
4679 1986 mt 
(2) s
4780 3061 mt 6255 3061 L
4780 1942 mt 6255 1942 L
4780 3061 mt 4780 1942 L
6255 3061 mt 6255 1942 L
gs 4780 1942 1476 1120 rc
24 w
18 28 19 -30 18 3 19 -25 18 -4 19 -50 18 -26 18 -37 
19 -38 18 -45 19 -47 18 -29 19 -57 18 -21 18 -44 19 -5 
18 -58 19 17 18 -50 19 -4 18 37 19 -12 18 32 18 -12 
19 55 18 21 19 39 18 32 19 58 18 54 18 51 19 76 
18 44 19 84 18 31 19 108 18 -1 19 61 18 87 18 -98 
19 10 18 -63 19 -4 18 -105 19 -31 18 -87 18 -41 19 -76 
18 -56 19 -53 18 -57 19 -29 18 -43 19 -19 18 -59 18 16 
19 -32 18 10 19 -36 18 3 19 51 18 -18 18 60 19 7 
18 45 19 15 18 63 19 33 18 47 19 51 18 37 18 40 
19 24 18 52 19 5 18 23 19 -5 18 35 18 -33 4780 2453 80 MP stroke
gr

24 w
%%IncludeResource: font Symbol
/Symbol /ISOLatin1Encoding 120 FMSR

4872 2123 mt 
(r) s
%%IncludeResource: font Helvetica
/Helvetica /ISOLatin1Encoding 96 FMSR

4937 2183 mt 
(TFS) s
%%IncludeResource: font Helvetica
/Helvetica /ISOLatin1Encoding 120 FMSR

5118 2123 mt 
( = 0.98369) s
6 w
1 sg
0 1119 1475 0 0 -1119 899 4615 4 MP
PP
-1475 0 0 1119 1475 0 0 -1119 899 4615 5 MP stroke
4 w
DO
SO
6 w
0 sg
 899 4615 mt 2374 4615 L
 899 3496 mt 2374 3496 L
 899 4615 mt  899 3496 L
2374 4615 mt 2374 3496 L
 899 4615 mt 2374 4615 L
 899 4615 mt  899 3496 L
 899 4615 mt  899 4600 L
 899 3496 mt  899 3510 L
 796 4760 mt 
(-2) s
1636 4615 mt 1636 4600 L
1636 3496 mt 1636 3510 L
1603 4760 mt 
(0) s
2374 4615 mt 2374 4600 L
2374 3496 mt 2374 3510 L
2341 4760 mt 
(2) s
 899 4615 mt  913 4615 L
2374 4615 mt 2359 4615 L
 698 4659 mt 
(0.2) s
 899 4335 mt  913 4335 L
2374 4335 mt 2359 4335 L
 698 4379 mt 
(0.4) s
 899 4055 mt  913 4055 L
2374 4055 mt 2359 4055 L
 698 4099 mt 
(0.6) s
 899 3775 mt  913 3775 L
2374 3775 mt 2359 3775 L
 698 3819 mt 
(0.8) s
 899 3496 mt  913 3496 L
2374 3496 mt 2359 3496 L
 798 3540 mt 
(1) s
 899 4615 mt 2374 4615 L
 899 3496 mt 2374 3496 L
 899 4615 mt  899 3496 L
2374 4615 mt 2374 3496 L
gs 899 3496 1476 1120 rc
24 w
18 75 19 -87 18 27 19 -44 18 34 19 -102 18 21 18 -65 
19 63 18 -92 19 45 18 -22 19 78 18 -1 18 85 19 -3 
18 138 19 -48 18 142 19 -1 18 -115 19 26 18 -104 18 27 
19 -151 18 -29 19 -88 18 -10 19 -46 18 6 18 -1 19 108 
18 -5 19 138 18 28 19 196 18 -15 19 117 18 171 18 -196 
19 25 18 -116 19 15 18 -194 19 -26 18 -133 18 2 19 -97 
18 2 19 -6 18 55 19 4 18 99 19 12 18 171 18 -39 
19 104 18 -39 19 131 18 3 19 -153 18 54 18 -146 19 7 
18 -86 19 18 18 -101 19 22 18 -50 19 86 18 -66 18 59 
19 -22 18 95 19 -39 18 41 19 -27 18 82 18 -73 899 4302 80 MP stroke
gr

24 w
 616 4323 mt  -90 rotate
(SUMCOR) s
90 rotate
6 w
1 sg
0 1119 1475 0 0 -1119 2839 4615 4 MP
PP
-1475 0 0 1119 1475 0 0 -1119 2839 4615 5 MP stroke
4 w
DO
SO
6 w
0 sg
2839 4615 mt 4314 4615 L
2839 3496 mt 4314 3496 L
2839 4615 mt 2839 3496 L
4314 4615 mt 4314 3496 L
2839 4615 mt 4314 4615 L
2839 4615 mt 2839 3496 L
2839 4615 mt 2839 4600 L
2839 3496 mt 2839 3510 L
2736 4760 mt 
(-2) s
3576 4615 mt 3576 4600 L
3576 3496 mt 3576 3510 L
3543 4760 mt 
(0) s
4314 4615 mt 4314 4600 L
4314 3496 mt 4314 3510 L
4281 4760 mt 
(2) s
2839 4615 mt 2853 4615 L
4314 4615 mt 4299 4615 L
2638 4659 mt 
(0.2) s
2839 4335 mt 2853 4335 L
4314 4335 mt 4299 4335 L
2638 4379 mt 
(0.4) s
2839 4055 mt 2853 4055 L
4314 4055 mt 4299 4055 L
2638 4099 mt 
(0.6) s
2839 3775 mt 2853 3775 L
4314 3775 mt 4299 3775 L
2638 3819 mt 
(0.8) s
2839 3496 mt 2853 3496 L
4314 3496 mt 4299 3496 L
2738 3540 mt 
(1) s
2839 4615 mt 4314 4615 L
2839 3496 mt 4314 3496 L
2839 4615 mt 2839 3496 L
4314 4615 mt 4314 3496 L
gs 2839 3496 1476 1120 rc
24 w
18 87 19 -51 18 37 19 -26 18 55 19 -86 18 15 18 -60 
19 41 18 -100 19 8 18 -43 19 56 18 -33 18 48 19 5 
18 117 19 -18 18 148 19 30 18 -72 19 60 18 -72 18 47 
19 -146 18 -18 19 -92 18 -10 19 -79 18 -1 18 -28 19 78 
18 7 19 111 18 33 19 182 18 -3 19 113 18 152 18 -171 
19 19 18 -114 19 6 18 -181 19 -32 18 -110 18 1 19 -84 
18 26 19 0 18 77 19 2 18 93 19 26 18 137 18 -48 
19 75 18 -64 19 64 18 -34 19 -133 18 24 18 -116 19 -3 
18 -50 19 34 18 -53 19 38 18 -2 19 100 18 -44 18 60 
19 -12 18 83 19 -55 18 26 19 -39 18 49 18 -88 2839 4388 80 MP stroke
gr

24 w
3293 4903 mt 
(Delay [ms]) s
6 w
1 sg
0 1119 1475 0 0 -1119 4780 4615 4 MP
PP
-1475 0 0 1119 1475 0 0 -1119 4780 4615 5 MP stroke
4 w
DO
SO
6 w
0 sg
4780 4615 mt 6255 4615 L
4780 3496 mt 6255 3496 L
4780 4615 mt 4780 3496 L
6255 4615 mt 6255 3496 L
4780 4615 mt 6255 4615 L
4780 4615 mt 4780 3496 L
4780 4615 mt 4780 4600 L
4780 3496 mt 4780 3510 L
4677 4760 mt 
(-2) s
5517 4615 mt 5517 4600 L
5517 3496 mt 5517 3510 L
5484 4760 mt 
(0) s
6255 4615 mt 6255 4600 L
6255 3496 mt 6255 3510 L
6222 4760 mt 
(2) s
4780 4615 mt 4794 4615 L
6255 4615 mt 6240 4615 L
4579 4659 mt 
(0.2) s
4780 4335 mt 4794 4335 L
6255 4335 mt 6240 4335 L
4579 4379 mt 
(0.4) s
4780 4055 mt 4794 4055 L
6255 4055 mt 6240 4055 L
4579 4099 mt 
(0.6) s
4780 3775 mt 4794 3775 L
6255 3775 mt 6240 3775 L
4579 3819 mt 
(0.8) s
4780 3496 mt 4794 3496 L
6255 3496 mt 6240 3496 L
4679 3540 mt 
(1) s
4780 4615 mt 6255 4615 L
4780 3496 mt 6255 3496 L
4780 4615 mt 4780 3496 L
6255 4615 mt 6255 3496 L
gs 4780 3496 1476 1120 rc
24 w
18 92 19 -97 18 36 19 -45 18 39 19 -115 18 16 18 -77 
19 51 18 -117 19 17 18 -49 19 46 18 -35 18 44 19 -24 
18 86 19 -54 18 89 19 -1 18 -71 19 25 18 -58 18 41 
19 -92 18 6 19 -44 18 29 19 -28 18 37 18 18 19 125 
18 -7 19 146 18 19 19 199 18 -22 19 120 18 179 18 -208 
19 33 18 -117 19 29 18 -204 19 -19 18 -141 18 4 19 -126 
18 -10 19 -39 18 28 19 -36 18 52 19 -10 18 100 18 -49 
19 58 18 -21 19 69 18 2 19 -90 18 55 18 -91 19 23 
18 -47 19 45 18 -57 19 43 18 -17 19 106 18 -50 18 73 
19 -13 18 111 19 -41 18 49 19 -33 18 90 18 -84 4780 4239 80 MP stroke
gr

24 w
%%IncludeResource: font Symbol
/Symbol /ISOLatin1Encoding 120 FMSR

4872 3694 mt 
(r) s
%%IncludeResource: font Helvetica
/Helvetica /ISOLatin1Encoding 96 FMSR

4937 3754 mt 
(ENV) s
%%IncludeResource: font Helvetica
/Helvetica /ISOLatin1Encoding 120 FMSR

5134 3694 mt 
( = -0.62419) s
6 w

end %%Color Dict

eplot
%%EndObject

epage
end

showpage

%%Trailer
%%EOF
