%!PS-Adobe-3.0 EPSF-3.0
%%Creator: MATLAB, The MathWorks, Inc. Version 8.3.0.532 (R2014a). Operating System: Linux 3.13.0-57-generic #95-Ubuntu SMP Fri Jun 19 09:28:15 UTC 2015 x86_64.
%%Title: ./samNoisefm25.eps
%%CreationDate: 10/09/2015  11:06:27
%%DocumentNeededFonts: Helvetica
%%DocumentProcessColors: Cyan Magenta Yellow Black
%%LanguageLevel: 2
%%Pages: 1
%%BoundingBox:    55   199   560   586
%%EndComments

%%BeginProlog
% MathWorks dictionary
/MathWorks 160 dict begin
% definition operators
/bdef {bind def} bind def
/ldef {load def} bind def
/xdef {exch def} bdef
/xstore {exch store} bdef
% operator abbreviations
/c  /clip ldef
/cc /concat ldef
/cp /closepath ldef
/gr /grestore ldef
/gs /gsave ldef
/mt /moveto ldef
/np /newpath ldef
/cm /currentmatrix ldef
/sm /setmatrix ldef
/rm /rmoveto ldef
/rl /rlineto ldef
/s {show newpath} bdef
/sc {setcmykcolor} bdef
/sr /setrgbcolor ldef
/sg /setgray ldef
/w /setlinewidth ldef
/j /setlinejoin ldef
/cap /setlinecap ldef
/rc {rectclip} bdef
/rf {rectfill} bdef
% page state control
/pgsv () def
/bpage {/pgsv save def} bdef
/epage {pgsv restore} bdef
/bplot /gsave ldef
/eplot {stroke grestore} bdef
% orientation switch
/portraitMode 0 def /landscapeMode 1 def /rotateMode 2 def
% coordinate system mappings
/dpi2point 0 def
% font control
/FontSize 0 def
/FMS {/FontSize xstore findfont [FontSize 0 0 FontSize neg 0 0]
  makefont setfont} bdef
/reencode {exch dup where {pop load} {pop StandardEncoding} ifelse
  exch dup 3 1 roll findfont dup length dict begin
  { 1 index /FID ne {def}{pop pop} ifelse } forall
  /Encoding exch def currentdict end definefont pop} bdef
/isroman {findfont /CharStrings get /Agrave known} bdef
/FMSR {3 1 roll 1 index dup isroman {reencode} {pop pop} ifelse
  exch FMS} bdef
/csm {1 dpi2point div -1 dpi2point div scale neg translate
 dup landscapeMode eq {pop -90 rotate}
  {rotateMode eq {90 rotate} if} ifelse} bdef
% line types: solid, dotted, dashed, dotdash
/SO { [] 0 setdash } bdef
/DO { [.5 dpi2point mul 4 dpi2point mul] 0 setdash } bdef
/DA { [6 dpi2point mul] 0 setdash } bdef
/DD { [.5 dpi2point mul 4 dpi2point mul 6 dpi2point mul 4
  dpi2point mul] 0 setdash } bdef
% macros for lines and objects
/L {lineto stroke} bdef
/MP {3 1 roll moveto 1 sub {rlineto} repeat} bdef
/AP {{rlineto} repeat} bdef
/PDlw -1 def
/W {/PDlw currentlinewidth def setlinewidth} def
/PP {closepath eofill} bdef
/DP {closepath stroke} bdef
/MR {4 -2 roll moveto dup  0 exch rlineto exch 0 rlineto
  neg 0 exch rlineto closepath} bdef
/FR {MR stroke} bdef
/PR {MR fill} bdef
/L1i {{currentfile picstr readhexstring pop} image} bdef
/tMatrix matrix def
/MakeOval {newpath tMatrix currentmatrix pop translate scale
0 0 1 0 360 arc tMatrix setmatrix} bdef
/FO {MakeOval stroke} bdef
/PO {MakeOval fill} bdef
/PD {currentlinewidth 2 div 0 360 arc fill
   PDlw -1 eq not {PDlw w /PDlw -1 def} if} def
/FA {newpath tMatrix currentmatrix pop translate scale
  0 0 1 5 -2 roll arc tMatrix setmatrix stroke} bdef
/PA {newpath tMatrix currentmatrix pop	translate 0 0 moveto scale
  0 0 1 5 -2 roll arc closepath tMatrix setmatrix fill} bdef
/FAn {newpath tMatrix currentmatrix pop translate scale
  0 0 1 5 -2 roll arcn tMatrix setmatrix stroke} bdef
/PAn {newpath tMatrix currentmatrix pop translate 0 0 moveto scale
  0 0 1 5 -2 roll arcn closepath tMatrix setmatrix fill} bdef
/vradius 0 def /hradius 0 def /lry 0 def
/lrx 0 def /uly 0 def /ulx 0 def /rad 0 def
/MRR {/vradius xdef /hradius xdef /lry xdef /lrx xdef /uly xdef
  /ulx xdef newpath tMatrix currentmatrix pop ulx hradius add uly
  vradius add translate hradius vradius scale 0 0 1 180 270 arc 
  tMatrix setmatrix lrx hradius sub uly vradius add translate
  hradius vradius scale 0 0 1 270 360 arc tMatrix setmatrix
  lrx hradius sub lry vradius sub translate hradius vradius scale
  0 0 1 0 90 arc tMatrix setmatrix ulx hradius add lry vradius sub
  translate hradius vradius scale 0 0 1 90 180 arc tMatrix setmatrix
  closepath} bdef
/FRR {MRR stroke } bdef
/PRR {MRR fill } bdef
/MlrRR {/lry xdef /lrx xdef /uly xdef /ulx xdef /rad lry uly sub 2 div def
  newpath tMatrix currentmatrix pop ulx rad add uly rad add translate
  rad rad scale 0 0 1 90 270 arc tMatrix setmatrix lrx rad sub lry rad
  sub translate rad rad scale 0 0 1 270 90 arc tMatrix setmatrix
  closepath} bdef
/FlrRR {MlrRR stroke } bdef
/PlrRR {MlrRR fill } bdef
/MtbRR {/lry xdef /lrx xdef /uly xdef /ulx xdef /rad lrx ulx sub 2 div def
  newpath tMatrix currentmatrix pop ulx rad add uly rad add translate
  rad rad scale 0 0 1 180 360 arc tMatrix setmatrix lrx rad sub lry rad
  sub translate rad rad scale 0 0 1 0 180 arc tMatrix setmatrix
  closepath} bdef
/FtbRR {MtbRR stroke } bdef
/PtbRR {MtbRR fill } bdef
/stri 6 array def /dtri 6 array def
/smat 6 array def /dmat 6 array def
/tmat1 6 array def /tmat2 6 array def /dif 3 array def
/asub {/ind2 exch def /ind1 exch def dup dup
  ind1 get exch ind2 get sub exch } bdef
/tri_to_matrix {
  2 0 asub 3 1 asub 4 0 asub 5 1 asub
  dup 0 get exch 1 get 7 -1 roll astore } bdef
/compute_transform {
  dmat dtri tri_to_matrix tmat1 invertmatrix 
  smat stri tri_to_matrix tmat2 concatmatrix } bdef
/ds {stri astore pop} bdef
/dt {dtri astore pop} bdef
/db {2 copy /cols xdef /rows xdef mul dup 3 mul string
  currentfile 
  3 index 0 eq {/ASCIIHexDecode filter}
  {/ASCII85Decode filter 3 index 2 eq {/RunLengthDecode filter} if }
  ifelse exch readstring pop
  dup 0 3 index getinterval /rbmap xdef
  dup 2 index dup getinterval /gbmap xdef
  1 index dup 2 mul exch getinterval /bbmap xdef pop pop}bdef
/it {gs np dtri aload pop moveto lineto lineto cp c
  cols rows 8 compute_transform 
  rbmap gbmap bbmap true 3 colorimage gr}bdef
/il {newpath moveto lineto stroke}bdef
currentdict end def
%%EndProlog

%%BeginSetup
MathWorks begin

0 cap

end
%%EndSetup

%%Page: 1 1
%%BeginPageSetup
%%PageBoundingBox:    55   199   560   586
MathWorks begin
bpage
%%EndPageSetup

%%BeginObject: obj1
bplot

/dpi2point 12 def
portraitMode 0216 7344 csm

  446   308  6058  4647 rc
85 dict begin %Colortable dictionary
/c0 { 0.000000 0.000000 0.000000 sr} bdef
/c1 { 1.000000 1.000000 1.000000 sr} bdef
/c2 { 0.900000 0.000000 0.000000 sr} bdef
/c3 { 0.000000 0.820000 0.000000 sr} bdef
/c4 { 0.000000 0.000000 0.800000 sr} bdef
/c5 { 0.910000 0.820000 0.320000 sr} bdef
/c6 { 1.000000 0.260000 0.820000 sr} bdef
/c7 { 0.000000 0.820000 0.820000 sr} bdef
c0
1 j
1 sg
   0    0 6913 5186 rf
6 w
0 645 5356 0 0 -645 899 1033 4 MP
PP
-5356 0 0 645 5356 0 0 -645 899 1033 5 MP stroke
4 w
DO
SO
6 w
0 sg
 899 1033 mt 6255 1033 L
 899  388 mt 6255  388 L
/c8 { 0.000000 0.000000 1.000000 sr} bdef
c8
 899 1033 mt  899  388 L
6255 1033 mt 6255  388 L
0 sg
 899 1033 mt 6255 1033 L
c8
 899 1033 mt  899  388 L
0 sg
 899 1033 mt  899  979 L
 899  389 mt  899  442 L
%%IncludeResource: font Helvetica
/Helvetica /ISOLatin1Encoding 120 FMSR

 763 1178 mt 
(-20) s
1529 1033 mt 1529  979 L
1529  389 mt 1529  442 L
1496 1178 mt 
(0) s
2159 1033 mt 2159  979 L
2159  389 mt 2159  442 L
2093 1178 mt 
(20) s
2789 1033 mt 2789  979 L
2789  389 mt 2789  442 L
2723 1178 mt 
(40) s
3419 1033 mt 3419  979 L
3419  389 mt 3419  442 L
3353 1178 mt 
(60) s
4049 1033 mt 4049  979 L
4049  389 mt 4049  442 L
3983 1178 mt 
(80) s
4679 1033 mt 4679  979 L
4679  389 mt 4679  442 L
4579 1178 mt 
(100) s
5309 1033 mt 5309  979 L
5309  389 mt 5309  442 L
5209 1178 mt 
(120) s
5939 1033 mt 5939  979 L
5939  389 mt 5939  442 L
5839 1178 mt 
(140) s
c8
 899  865 mt  952  865 L
6255  865 mt 6201  865 L
 664  909 mt 
(100) s
 899  423 mt  952  423 L
6255  423 mt 6201  423 L
 664  467 mt 
(200) s
0 sg
 899 1033 mt 6255 1033 L
 899  388 mt 6255  388 L
c8
 899 1033 mt  899  388 L
6255 1033 mt 6255  388 L
gs 899 388 5357 646 rc
158 -10 158 3 157 11 158 -13 157 3 158 -19 157 -13 158 -19 
157 0 158 -10 157 -23 158 -26 157 -50 158 -38 157 -63 158 -56 
157 -53 158 -72 158 -23 157 -19 158 -40 157 16 158 -12 157 7 
158 -7 157 7 158 -2 157 19 158 -29 157 20 158 -2 157 7 
158 -16 157 7 899 1011 35 MP stroke
gr

 582  902 mt  -90 rotate
(192 Hz) s
90 rotate
4 w
DO
SO
6 w
0 sg
 899 1033 mt 6255 1033 L
/c9 { 0.000000 0.500000 0.000000 sr} bdef
c9
6255 1033 mt 6255  389 L
0 sg
 899 1033 mt  899  979 L
 763 1178 mt 
(-20) s
1529 1033 mt 1529  979 L
1496 1178 mt 
(0) s
2159 1033 mt 2159  979 L
2093 1178 mt 
(20) s
2789 1033 mt 2789  979 L
2723 1178 mt 
(40) s
3419 1033 mt 3419  979 L
3353 1178 mt 
(60) s
4049 1033 mt 4049  979 L
3983 1178 mt 
(80) s
4679 1033 mt 4679  979 L
4579 1178 mt 
(100) s
5309 1033 mt 5309  979 L
5209 1178 mt 
(120) s
5939 1033 mt 5939  979 L
5839 1178 mt 
(140) s
c9
6255  479 mt 6201  479 L
6289  523 mt 
(5) s
gs 899 389 5357 645 rc
158 -78 158 -132 157 -60 158 -61 157 13 158 100 157 58 158 -31 
157 -78 158 -51 157 -22 158 -39 157 -22 158 -25 157 2 158 -13 
157 -32 158 -42 158 -45 157 -60 158 -17 157 1 158 -1 157 -3 
158 1 157 1 158 -3 157 9 158 6 157 -16 158 -3 157 15 
158 -13 157 5 899 1025 35 MP stroke
gr

1 sg
0 645 5356 0 0 -645 899 1929 4 MP
PP
-5356 0 0 645 5356 0 0 -645 899 1929 5 MP stroke
4 w
DO
SO
6 w
0 sg
 899 1929 mt 6255 1929 L
 899 1284 mt 6255 1284 L
c8
 899 1929 mt  899 1284 L
6255 1929 mt 6255 1284 L
0 sg
 899 1929 mt 6255 1929 L
c8
 899 1929 mt  899 1284 L
0 sg
 899 1929 mt  899 1875 L
 899 1284 mt  899 1337 L
 763 2074 mt 
(-20) s
1529 1929 mt 1529 1875 L
1529 1284 mt 1529 1337 L
1496 2074 mt 
(0) s
2159 1929 mt 2159 1875 L
2159 1284 mt 2159 1337 L
2093 2074 mt 
(20) s
2789 1929 mt 2789 1875 L
2789 1284 mt 2789 1337 L
2723 2074 mt 
(40) s
3419 1929 mt 3419 1875 L
3419 1284 mt 3419 1337 L
3353 2074 mt 
(60) s
4049 1929 mt 4049 1875 L
4049 1284 mt 4049 1337 L
3983 2074 mt 
(80) s
4679 1929 mt 4679 1875 L
4679 1284 mt 4679 1337 L
4579 2074 mt 
(100) s
5309 1929 mt 5309 1875 L
5309 1284 mt 5309 1337 L
5209 2074 mt 
(120) s
5939 1929 mt 5939 1875 L
5939 1284 mt 5939 1337 L
5839 2074 mt 
(140) s
c8
 899 1761 mt  952 1761 L
6255 1761 mt 6201 1761 L
 664 1805 mt 
(100) s
 899 1318 mt  952 1318 L
6255 1318 mt 6201 1318 L
 664 1362 mt 
(200) s
0 sg
 899 1929 mt 6255 1929 L
 899 1284 mt 6255 1284 L
c8
 899 1929 mt  899 1284 L
6255 1929 mt 6255 1284 L
gs 899 1284 5357 646 rc
158 -10 158 -5 157 -13 158 2 157 -19 158 -1 157 19 158 0 
157 19 158 8 157 -25 158 -2 157 -60 158 -19 157 -44 158 -46 
157 -59 158 -61 158 -72 157 -63 158 -84 157 -29 158 -42 157 2 
158 -20 157 -15 158 34 157 -21 158 13 157 -20 158 20 157 -16 
158 5 157 23 899 1885 35 MP stroke
gr

 582 1797 mt  -90 rotate
(539 Hz) s
90 rotate
4 w
DO
SO
6 w
0 sg
 899 1929 mt 6255 1929 L
c9
6255 1929 mt 6255 1284 L
0 sg
 899 1929 mt  899 1875 L
 763 2074 mt 
(-20) s
1529 1929 mt 1529 1875 L
1496 2074 mt 
(0) s
2159 1929 mt 2159 1875 L
2093 2074 mt 
(20) s
2789 1929 mt 2789 1875 L
2723 2074 mt 
(40) s
3419 1929 mt 3419 1875 L
3353 2074 mt 
(60) s
4049 1929 mt 4049 1875 L
3983 2074 mt 
(80) s
4679 1929 mt 4679 1875 L
4579 2074 mt 
(100) s
5309 1929 mt 5309 1875 L
5209 2074 mt 
(120) s
5939 1929 mt 5939 1875 L
5839 2074 mt 
(140) s
c9
6255 1802 mt 6201 1802 L
6289 1846 mt 
(2) s
6255 1660 mt 6201 1660 L
6289 1704 mt 
(3) s
6255 1517 mt 6201 1517 L
6289 1561 mt 
(4) s
gs 899 1284 5357 646 rc
158 -25 158 -30 157 -33 158 -27 157 -53 158 -34 157 -24 158 22 
157 0 158 0 157 2 158 -3 157 5 158 2 157 4 158 22 
157 -2 158 23 158 -7 157 -27 158 -26 157 -51 158 -57 157 -29 
158 2 157 -11 158 -1 157 -5 158 5 157 -3 158 11 157 -5 
158 5 157 -10 899 1926 35 MP stroke
gr

1 sg
0 645 5356 0 0 -645 899 2824 4 MP
PP
-5356 0 0 645 5356 0 0 -645 899 2824 5 MP stroke
4 w
DO
SO
6 w
0 sg
 899 2824 mt 6255 2824 L
 899 2179 mt 6255 2179 L
c8
 899 2824 mt  899 2179 L
6255 2824 mt 6255 2179 L
0 sg
 899 2824 mt 6255 2824 L
c8
 899 2824 mt  899 2179 L
0 sg
 899 2824 mt  899 2770 L
 899 2179 mt  899 2232 L
 763 2969 mt 
(-20) s
1529 2824 mt 1529 2770 L
1529 2179 mt 1529 2232 L
1496 2969 mt 
(0) s
2159 2824 mt 2159 2770 L
2159 2179 mt 2159 2232 L
2093 2969 mt 
(20) s
2789 2824 mt 2789 2770 L
2789 2179 mt 2789 2232 L
2723 2969 mt 
(40) s
3419 2824 mt 3419 2770 L
3419 2179 mt 3419 2232 L
3353 2969 mt 
(60) s
4049 2824 mt 4049 2770 L
4049 2179 mt 4049 2232 L
3983 2969 mt 
(80) s
4679 2824 mt 4679 2770 L
4679 2179 mt 4679 2232 L
4579 2969 mt 
(100) s
5309 2824 mt 5309 2770 L
5309 2179 mt 5309 2232 L
5209 2969 mt 
(120) s
5939 2824 mt 5939 2770 L
5939 2179 mt 5939 2232 L
5839 2969 mt 
(140) s
c8
 899 2656 mt  952 2656 L
6255 2656 mt 6201 2656 L
 664 2700 mt 
(100) s
 899 2213 mt  952 2213 L
6255 2213 mt 6201 2213 L
 664 2257 mt 
(200) s
0 sg
 899 2824 mt 6255 2824 L
 899 2179 mt 6255 2179 L
c8
 899 2824 mt  899 2179 L
6255 2824 mt 6255 2179 L
gs 899 2179 5357 646 rc
158 2 158 -2 157 6 158 -5 157 -10 158 -15 157 -9 158 6 
157 2 158 14 157 2 158 -18 157 -28 158 -7 157 -11 158 -47 
157 -16 158 -45 158 -34 157 -94 158 -62 157 -42 158 -88 157 -54 
158 -17 157 -44 158 19 157 -1 158 13 157 -14 158 5 157 -18 
158 -5 157 8 899 2802 35 MP stroke
gr

 582 2725 mt  -90 rotate
(1260 Hz) s
90 rotate
4 w
DO
SO
6 w
0 sg
 899 2824 mt 6255 2824 L
c9
6255 2824 mt 6255 2179 L
0 sg
 899 2824 mt  899 2770 L
 763 2969 mt 
(-20) s
1529 2824 mt 1529 2770 L
1496 2969 mt 
(0) s
2159 2824 mt 2159 2770 L
2093 2969 mt 
(20) s
2789 2824 mt 2789 2770 L
2723 2969 mt 
(40) s
3419 2824 mt 3419 2770 L
3353 2969 mt 
(60) s
4049 2824 mt 4049 2770 L
3983 2969 mt 
(80) s
4679 2824 mt 4679 2770 L
4579 2969 mt 
(100) s
5309 2824 mt 5309 2770 L
5209 2969 mt 
(120) s
5939 2824 mt 5939 2770 L
5839 2969 mt 
(140) s
c9
6255 2769 mt 6201 2769 L
6289 2813 mt 
(1.5) s
6255 2697 mt 6201 2697 L
6289 2741 mt 
(2) s
6255 2626 mt 6201 2626 L
6289 2670 mt 
(2.5) s
6255 2555 mt 6201 2555 L
6289 2599 mt 
(3) s
gs 899 2179 5357 646 rc
158 -2 158 3 157 -11 158 -10 157 -20 158 -12 157 -29 158 -3 
157 14 158 3 157 5 158 -2 157 2 158 7 157 -1 158 10 
157 7 158 12 158 7 157 19 158 2 157 -19 158 -14 157 -52 
158 -33 157 -11 158 -23 157 5 158 -2 157 -1 158 -5 157 0 
158 7 157 -11 899 2823 35 MP stroke
gr

1 sg
0 644 5356 0 0 -644 899 3719 4 MP
PP
-5356 0 0 644 5356 0 0 -644 899 3719 5 MP stroke
4 w
DO
SO
6 w
0 sg
 899 3719 mt 6255 3719 L
 899 3075 mt 6255 3075 L
c8
 899 3719 mt  899 3075 L
6255 3719 mt 6255 3075 L
0 sg
 899 3719 mt 6255 3719 L
c8
 899 3719 mt  899 3075 L
0 sg
 899 3719 mt  899 3665 L
 899 3075 mt  899 3128 L
 763 3864 mt 
(-20) s
1529 3719 mt 1529 3665 L
1529 3075 mt 1529 3128 L
1496 3864 mt 
(0) s
2159 3719 mt 2159 3665 L
2159 3075 mt 2159 3128 L
2093 3864 mt 
(20) s
2789 3719 mt 2789 3665 L
2789 3075 mt 2789 3128 L
2723 3864 mt 
(40) s
3419 3719 mt 3419 3665 L
3419 3075 mt 3419 3128 L
3353 3864 mt 
(60) s
4049 3719 mt 4049 3665 L
4049 3075 mt 4049 3128 L
3983 3864 mt 
(80) s
4679 3719 mt 4679 3665 L
4679 3075 mt 4679 3128 L
4579 3864 mt 
(100) s
5309 3719 mt 5309 3665 L
5309 3075 mt 5309 3128 L
5209 3864 mt 
(120) s
5939 3719 mt 5939 3665 L
5939 3075 mt 5939 3128 L
5839 3864 mt 
(140) s
c8
 899 3551 mt  952 3551 L
6255 3551 mt 6201 3551 L
 664 3595 mt 
(100) s
 899 3109 mt  952 3109 L
6255 3109 mt 6201 3109 L
 664 3153 mt 
(200) s
0 sg
 899 3719 mt 6255 3719 L
 899 3075 mt 6255 3075 L
c8
 899 3719 mt  899 3075 L
6255 3719 mt 6255 3075 L
gs 899 3075 5357 645 rc
158 6 158 -16 157 15 158 -2 157 -6 158 2 157 -37 158 -15 
157 3 158 -14 157 -13 158 14 157 -21 158 4 157 -44 158 -4 
157 -14 158 -48 158 -9 157 -84 158 -17 157 -69 158 -70 157 -75 
158 -21 157 -26 158 -20 157 26 158 -30 157 -16 158 24 157 -6 
158 -13 157 24 899 3682 35 MP stroke
gr

 582 3621 mt  -90 rotate
(2762 Hz) s
90 rotate
4 w
DO
SO
6 w
0 sg
 899 3719 mt 6255 3719 L
c9
6255 3719 mt 6255 3075 L
0 sg
 899 3719 mt  899 3665 L
 763 3864 mt 
(-20) s
1529 3719 mt 1529 3665 L
1496 3864 mt 
(0) s
2159 3719 mt 2159 3665 L
2093 3864 mt 
(20) s
2789 3719 mt 2789 3665 L
2723 3864 mt 
(40) s
3419 3719 mt 3419 3665 L
3353 3864 mt 
(60) s
4049 3719 mt 4049 3665 L
3983 3864 mt 
(80) s
4679 3719 mt 4679 3665 L
4579 3864 mt 
(100) s
5309 3719 mt 5309 3665 L
5209 3864 mt 
(120) s
5939 3719 mt 5939 3665 L
5839 3864 mt 
(140) s
c9
6255 3664 mt 6201 3664 L
6289 3708 mt 
(1.5) s
6255 3592 mt 6201 3592 L
6289 3636 mt 
(2) s
6255 3521 mt 6201 3521 L
6289 3565 mt 
(2.5) s
6255 3450 mt 6201 3450 L
6289 3494 mt 
(3) s
gs 899 3075 5357 645 rc
158 -10 158 9 157 -6 158 1 157 -6 158 -11 157 -13 158 -5 
157 -9 158 10 157 -3 158 2 157 10 158 5 157 9 158 13 
157 7 158 9 158 23 157 26 158 31 157 3 158 -26 157 -38 
158 -94 157 -24 158 -9 157 -2 158 1 157 6 158 -8 157 6 
158 -4 157 3 899 3710 35 MP stroke
gr

1 sg
0 645 5356 0 0 -645 899 4615 4 MP
PP
-5356 0 0 645 5356 0 0 -645 899 4615 5 MP stroke
4 w
DO
SO
6 w
0 sg
 899 4615 mt 6255 4615 L
 899 3970 mt 6255 3970 L
c8
 899 4615 mt  899 3970 L
6255 4615 mt 6255 3970 L
0 sg
 899 4615 mt 6255 4615 L
c8
 899 4615 mt  899 3970 L
0 sg
 899 4615 mt  899 4561 L
 899 3970 mt  899 4023 L
 763 4760 mt 
(-20) s
1529 4615 mt 1529 4561 L
1529 3970 mt 1529 4023 L
1496 4760 mt 
(0) s
2159 4615 mt 2159 4561 L
2159 3970 mt 2159 4023 L
2093 4760 mt 
(20) s
2789 4615 mt 2789 4561 L
2789 3970 mt 2789 4023 L
2723 4760 mt 
(40) s
3419 4615 mt 3419 4561 L
3419 3970 mt 3419 4023 L
3353 4760 mt 
(60) s
4049 4615 mt 4049 4561 L
4049 3970 mt 4049 4023 L
3983 4760 mt 
(80) s
4679 4615 mt 4679 4561 L
4679 3970 mt 4679 4023 L
4579 4760 mt 
(100) s
5309 4615 mt 5309 4561 L
5309 3970 mt 5309 4023 L
5209 4760 mt 
(120) s
5939 4615 mt 5939 4561 L
5939 3970 mt 5939 4023 L
5839 4760 mt 
(140) s
c8
 899 4447 mt  952 4447 L
6255 4447 mt 6201 4447 L
 664 4491 mt 
(100) s
 899 4004 mt  952 4004 L
6255 4004 mt 6201 4004 L
 664 4048 mt 
(200) s
0 sg
 899 4615 mt 6255 4615 L
 899 3970 mt 6255 3970 L
c8
 899 4615 mt  899 3970 L
6255 4615 mt 6255 3970 L
gs 899 3970 5357 646 rc
158 13 158 -69 157 16 158 32 157 -36 158 -5 157 24 158 18 
157 -34 158 -18 157 26 158 7 157 -54 158 28 157 2 158 -24 
157 -5 158 -10 158 -19 157 -41 158 -25 157 -34 158 -74 157 -96 
158 -56 157 -105 158 -15 157 -29 158 18 157 -15 158 -20 157 -4 
158 42 157 -23 899 4596 35 MP stroke
gr

 582 4516 mt  -90 rotate
(5888 Hz) s
90 rotate
0 sg
3346 4903 mt 
(Level dB) s
 882 4658 mt 
( ) s
6239 4012 mt 
( ) s
4 w
DO
SO
6 w
 899 4615 mt 6255 4615 L
c9
6255 4615 mt 6255 3970 L
0 sg
 899 4615 mt  899 4561 L
 763 4760 mt 
(-20) s
1529 4615 mt 1529 4561 L
1496 4760 mt 
(0) s
2159 4615 mt 2159 4561 L
2093 4760 mt 
(20) s
2789 4615 mt 2789 4561 L
2723 4760 mt 
(40) s
3419 4615 mt 3419 4561 L
3353 4760 mt 
(60) s
4049 4615 mt 4049 4561 L
3983 4760 mt 
(80) s
4679 4615 mt 4679 4561 L
4579 4760 mt 
(100) s
5309 4615 mt 5309 4561 L
5209 4760 mt 
(120) s
5939 4615 mt 5939 4561 L
5839 4760 mt 
(140) s
c9
6255 4488 mt 6201 4488 L
6289 4532 mt 
(2) s
6255 4346 mt 6201 4346 L
6289 4390 mt 
(3) s
6255 4203 mt 6201 4203 L
6289 4247 mt 
(4) s
gs 899 3970 5357 646 rc
158 4 158 2 157 6 158 -3 157 4 158 -1 157 -2 158 -20 
157 -9 158 -4 157 3 158 7 157 14 158 11 157 12 158 18 
157 11 158 16 158 34 157 37 158 31 157 48 158 63 157 71 
158 -48 157 -127 158 -186 157 -18 158 -2 157 -6 158 4 157 3 
158 -2 157 -4 899 4608 35 MP stroke
gr

1 sg
0 334 1427 0 0 -334 4768 4364 4 MP
PP
-1427 0 0 334 1427 0 0 -334 4768 4364 5 MP stroke
4 w
DO
SO
6 w
0 sg
4768 4364 mt 6195 4364 L
4768 4030 mt 6195 4030 L
4768 4364 mt 4768 4030 L
6195 4364 mt 6195 4030 L
4768 4364 mt 6195 4364 L
4768 4364 mt 4768 4030 L
4768 4364 mt 6195 4364 L
4768 4030 mt 6195 4030 L
4768 4364 mt 4768 4030 L
6195 4364 mt 6195 4030 L
5196 4166 mt 
(Firing Rate \(sp/s\)) s
gs 4768 4030 1428 335 rc
c8
330 0 4833 4123 2 MP stroke
gr

c8
0 sg
5196 4313 mt 
(max SC) s
gs 4768 4030 1428 335 rc
c9
330 0 4833 4270 2 MP stroke
gr

c9

end %%Color Dict

eplot
%%EndObject

epage
end

showpage

%%Trailer
%%EOF
