%!PS-Adobe-3.0 EPSF-3.0
%%Creator: MATLAB, The MathWorks, Inc. Version 8.3.0.532 (R2014a). Operating System: Linux 3.13.0-57-generic #95-Ubuntu SMP Fri Jun 19 09:28:15 UTC 2015 x86_64.
%%Title: ./samNoisefm50.eps
%%CreationDate: 10/09/2015  11:06:51
%%DocumentNeededFonts: Helvetica
%%DocumentProcessColors: Cyan Magenta Yellow Black
%%LanguageLevel: 2
%%Pages: 1
%%BoundingBox:    55   199   560   585
%%EndComments

%%BeginProlog
% MathWorks dictionary
/MathWorks 160 dict begin
% definition operators
/bdef {bind def} bind def
/ldef {load def} bind def
/xdef {exch def} bdef
/xstore {exch store} bdef
% operator abbreviations
/c  /clip ldef
/cc /concat ldef
/cp /closepath ldef
/gr /grestore ldef
/gs /gsave ldef
/mt /moveto ldef
/np /newpath ldef
/cm /currentmatrix ldef
/sm /setmatrix ldef
/rm /rmoveto ldef
/rl /rlineto ldef
/s {show newpath} bdef
/sc {setcmykcolor} bdef
/sr /setrgbcolor ldef
/sg /setgray ldef
/w /setlinewidth ldef
/j /setlinejoin ldef
/cap /setlinecap ldef
/rc {rectclip} bdef
/rf {rectfill} bdef
% page state control
/pgsv () def
/bpage {/pgsv save def} bdef
/epage {pgsv restore} bdef
/bplot /gsave ldef
/eplot {stroke grestore} bdef
% orientation switch
/portraitMode 0 def /landscapeMode 1 def /rotateMode 2 def
% coordinate system mappings
/dpi2point 0 def
% font control
/FontSize 0 def
/FMS {/FontSize xstore findfont [FontSize 0 0 FontSize neg 0 0]
  makefont setfont} bdef
/reencode {exch dup where {pop load} {pop StandardEncoding} ifelse
  exch dup 3 1 roll findfont dup length dict begin
  { 1 index /FID ne {def}{pop pop} ifelse } forall
  /Encoding exch def currentdict end definefont pop} bdef
/isroman {findfont /CharStrings get /Agrave known} bdef
/FMSR {3 1 roll 1 index dup isroman {reencode} {pop pop} ifelse
  exch FMS} bdef
/csm {1 dpi2point div -1 dpi2point div scale neg translate
 dup landscapeMode eq {pop -90 rotate}
  {rotateMode eq {90 rotate} if} ifelse} bdef
% line types: solid, dotted, dashed, dotdash
/SO { [] 0 setdash } bdef
/DO { [.5 dpi2point mul 4 dpi2point mul] 0 setdash } bdef
/DA { [6 dpi2point mul] 0 setdash } bdef
/DD { [.5 dpi2point mul 4 dpi2point mul 6 dpi2point mul 4
  dpi2point mul] 0 setdash } bdef
% macros for lines and objects
/L {lineto stroke} bdef
/MP {3 1 roll moveto 1 sub {rlineto} repeat} bdef
/AP {{rlineto} repeat} bdef
/PDlw -1 def
/W {/PDlw currentlinewidth def setlinewidth} def
/PP {closepath eofill} bdef
/DP {closepath stroke} bdef
/MR {4 -2 roll moveto dup  0 exch rlineto exch 0 rlineto
  neg 0 exch rlineto closepath} bdef
/FR {MR stroke} bdef
/PR {MR fill} bdef
/L1i {{currentfile picstr readhexstring pop} image} bdef
/tMatrix matrix def
/MakeOval {newpath tMatrix currentmatrix pop translate scale
0 0 1 0 360 arc tMatrix setmatrix} bdef
/FO {MakeOval stroke} bdef
/PO {MakeOval fill} bdef
/PD {currentlinewidth 2 div 0 360 arc fill
   PDlw -1 eq not {PDlw w /PDlw -1 def} if} def
/FA {newpath tMatrix currentmatrix pop translate scale
  0 0 1 5 -2 roll arc tMatrix setmatrix stroke} bdef
/PA {newpath tMatrix currentmatrix pop	translate 0 0 moveto scale
  0 0 1 5 -2 roll arc closepath tMatrix setmatrix fill} bdef
/FAn {newpath tMatrix currentmatrix pop translate scale
  0 0 1 5 -2 roll arcn tMatrix setmatrix stroke} bdef
/PAn {newpath tMatrix currentmatrix pop translate 0 0 moveto scale
  0 0 1 5 -2 roll arcn closepath tMatrix setmatrix fill} bdef
/vradius 0 def /hradius 0 def /lry 0 def
/lrx 0 def /uly 0 def /ulx 0 def /rad 0 def
/MRR {/vradius xdef /hradius xdef /lry xdef /lrx xdef /uly xdef
  /ulx xdef newpath tMatrix currentmatrix pop ulx hradius add uly
  vradius add translate hradius vradius scale 0 0 1 180 270 arc 
  tMatrix setmatrix lrx hradius sub uly vradius add translate
  hradius vradius scale 0 0 1 270 360 arc tMatrix setmatrix
  lrx hradius sub lry vradius sub translate hradius vradius scale
  0 0 1 0 90 arc tMatrix setmatrix ulx hradius add lry vradius sub
  translate hradius vradius scale 0 0 1 90 180 arc tMatrix setmatrix
  closepath} bdef
/FRR {MRR stroke } bdef
/PRR {MRR fill } bdef
/MlrRR {/lry xdef /lrx xdef /uly xdef /ulx xdef /rad lry uly sub 2 div def
  newpath tMatrix currentmatrix pop ulx rad add uly rad add translate
  rad rad scale 0 0 1 90 270 arc tMatrix setmatrix lrx rad sub lry rad
  sub translate rad rad scale 0 0 1 270 90 arc tMatrix setmatrix
  closepath} bdef
/FlrRR {MlrRR stroke } bdef
/PlrRR {MlrRR fill } bdef
/MtbRR {/lry xdef /lrx xdef /uly xdef /ulx xdef /rad lrx ulx sub 2 div def
  newpath tMatrix currentmatrix pop ulx rad add uly rad add translate
  rad rad scale 0 0 1 180 360 arc tMatrix setmatrix lrx rad sub lry rad
  sub translate rad rad scale 0 0 1 0 180 arc tMatrix setmatrix
  closepath} bdef
/FtbRR {MtbRR stroke } bdef
/PtbRR {MtbRR fill } bdef
/stri 6 array def /dtri 6 array def
/smat 6 array def /dmat 6 array def
/tmat1 6 array def /tmat2 6 array def /dif 3 array def
/asub {/ind2 exch def /ind1 exch def dup dup
  ind1 get exch ind2 get sub exch } bdef
/tri_to_matrix {
  2 0 asub 3 1 asub 4 0 asub 5 1 asub
  dup 0 get exch 1 get 7 -1 roll astore } bdef
/compute_transform {
  dmat dtri tri_to_matrix tmat1 invertmatrix 
  smat stri tri_to_matrix tmat2 concatmatrix } bdef
/ds {stri astore pop} bdef
/dt {dtri astore pop} bdef
/db {2 copy /cols xdef /rows xdef mul dup 3 mul string
  currentfile 
  3 index 0 eq {/ASCIIHexDecode filter}
  {/ASCII85Decode filter 3 index 2 eq {/RunLengthDecode filter} if }
  ifelse exch readstring pop
  dup 0 3 index getinterval /rbmap xdef
  dup 2 index dup getinterval /gbmap xdef
  1 index dup 2 mul exch getinterval /bbmap xdef pop pop}bdef
/it {gs np dtri aload pop moveto lineto lineto cp c
  cols rows 8 compute_transform 
  rbmap gbmap bbmap true 3 colorimage gr}bdef
/il {newpath moveto lineto stroke}bdef
currentdict end def
%%EndProlog

%%BeginSetup
MathWorks begin

0 cap

end
%%EndSetup

%%Page: 1 1
%%BeginPageSetup
%%PageBoundingBox:    55   199   560   585
MathWorks begin
bpage
%%EndPageSetup

%%BeginObject: obj1
bplot

/dpi2point 12 def
portraitMode 0216 7344 csm

  446   313  6058  4642 rc
85 dict begin %Colortable dictionary
/c0 { 0.000000 0.000000 0.000000 sr} bdef
/c1 { 1.000000 1.000000 1.000000 sr} bdef
/c2 { 0.900000 0.000000 0.000000 sr} bdef
/c3 { 0.000000 0.820000 0.000000 sr} bdef
/c4 { 0.000000 0.000000 0.800000 sr} bdef
/c5 { 0.910000 0.820000 0.320000 sr} bdef
/c6 { 1.000000 0.260000 0.820000 sr} bdef
/c7 { 0.000000 0.820000 0.820000 sr} bdef
c0
1 j
1 sg
   0    0 6913 5186 rf
6 w
0 644 5356 0 0 -644 899 1033 4 MP
PP
-5356 0 0 644 5356 0 0 -644 899 1033 5 MP stroke
4 w
DO
SO
6 w
0 sg
 899 1033 mt 6255 1033 L
 899  389 mt 6255  389 L
/c8 { 0.000000 0.000000 1.000000 sr} bdef
c8
 899 1033 mt  899  389 L
6255 1033 mt 6255  389 L
0 sg
 899 1033 mt 6255 1033 L
c8
 899 1033 mt  899  389 L
0 sg
 899 1033 mt  899  979 L
 899  389 mt  899  442 L
%%IncludeResource: font Helvetica
/Helvetica /ISOLatin1Encoding 120 FMSR

 763 1178 mt 
(-20) s
1529 1033 mt 1529  979 L
1529  389 mt 1529  442 L
1496 1178 mt 
(0) s
2159 1033 mt 2159  979 L
2159  389 mt 2159  442 L
2093 1178 mt 
(20) s
2789 1033 mt 2789  979 L
2789  389 mt 2789  442 L
2723 1178 mt 
(40) s
3419 1033 mt 3419  979 L
3419  389 mt 3419  442 L
3353 1178 mt 
(60) s
4049 1033 mt 4049  979 L
4049  389 mt 4049  442 L
3983 1178 mt 
(80) s
4679 1033 mt 4679  979 L
4679  389 mt 4679  442 L
4579 1178 mt 
(100) s
5309 1033 mt 5309  979 L
5309  389 mt 5309  442 L
5209 1178 mt 
(120) s
5939 1033 mt 5939  979 L
5939  389 mt 5939  442 L
5839 1178 mt 
(140) s
c8
 899  861 mt  952  861 L
6255  861 mt 6201  861 L
 664  905 mt 
(100) s
 899  428 mt  952  428 L
6255  428 mt 6201  428 L
 664  472 mt 
(200) s
0 sg
 899 1033 mt 6255 1033 L
 899  389 mt 6255  389 L
c8
 899 1033 mt  899  389 L
6255 1033 mt 6255  389 L
gs 899 388 5357 646 rc
158 -4 158 -12 157 15 158 -4 157 -12 158 -7 157 -27 158 -9 
157 2 158 -20 157 -3 158 -34 157 -24 158 -28 157 -61 158 -59 
157 -78 158 -40 158 -68 157 -10 158 -18 157 -6 158 2 157 -5 
158 21 157 -20 158 -17 157 3 158 21 157 -4 158 7 157 -10 
158 -16 157 9 899 1011 35 MP stroke
gr

 582  902 mt  -90 rotate
(192 Hz) s
90 rotate
4 w
DO
SO
6 w
0 sg
 899 1033 mt 6255 1033 L
/c9 { 0.000000 0.500000 0.000000 sr} bdef
c9
6255 1033 mt 6255  389 L
0 sg
 899 1033 mt  899  979 L
 763 1178 mt 
(-20) s
1529 1033 mt 1529  979 L
1496 1178 mt 
(0) s
2159 1033 mt 2159  979 L
2093 1178 mt 
(20) s
2789 1033 mt 2789  979 L
2723 1178 mt 
(40) s
3419 1033 mt 3419  979 L
3353 1178 mt 
(60) s
4049 1033 mt 4049  979 L
3983 1178 mt 
(80) s
4679 1033 mt 4679  979 L
4579 1178 mt 
(100) s
5309 1033 mt 5309  979 L
5209 1178 mt 
(120) s
5939 1033 mt 5939  979 L
5839 1178 mt 
(140) s
c9
6255  510 mt 6201  510 L
6289  554 mt 
(5) s
gs 899 389 5357 645 rc
158 -128 158 -109 157 -98 158 -20 157 40 158 95 157 51 158 -28 
157 -53 158 -58 157 -53 158 -29 157 -42 158 -15 157 -16 158 -7 
157 -12 158 -46 158 -40 157 -37 158 -12 157 -18 158 1 157 5 
158 -6 157 0 158 -2 157 0 158 6 157 4 158 -5 157 1 
158 5 157 -1 899 1016 35 MP stroke
gr

1 sg
0 645 5356 0 0 -645 899 1929 4 MP
PP
-5356 0 0 645 5356 0 0 -645 899 1929 5 MP stroke
4 w
DO
SO
6 w
0 sg
 899 1929 mt 6255 1929 L
 899 1284 mt 6255 1284 L
c8
 899 1929 mt  899 1284 L
6255 1929 mt 6255 1284 L
0 sg
 899 1929 mt 6255 1929 L
c8
 899 1929 mt  899 1284 L
0 sg
 899 1929 mt  899 1875 L
 899 1284 mt  899 1337 L
 763 2074 mt 
(-20) s
1529 1929 mt 1529 1875 L
1529 1284 mt 1529 1337 L
1496 2074 mt 
(0) s
2159 1929 mt 2159 1875 L
2159 1284 mt 2159 1337 L
2093 2074 mt 
(20) s
2789 1929 mt 2789 1875 L
2789 1284 mt 2789 1337 L
2723 2074 mt 
(40) s
3419 1929 mt 3419 1875 L
3419 1284 mt 3419 1337 L
3353 2074 mt 
(60) s
4049 1929 mt 4049 1875 L
4049 1284 mt 4049 1337 L
3983 2074 mt 
(80) s
4679 1929 mt 4679 1875 L
4679 1284 mt 4679 1337 L
4579 2074 mt 
(100) s
5309 1929 mt 5309 1875 L
5309 1284 mt 5309 1337 L
5209 2074 mt 
(120) s
5939 1929 mt 5939 1875 L
5939 1284 mt 5939 1337 L
5839 2074 mt 
(140) s
c8
 899 1757 mt  952 1757 L
6255 1757 mt 6201 1757 L
 664 1801 mt 
(100) s
 899 1324 mt  952 1324 L
6255 1324 mt 6201 1324 L
 664 1368 mt 
(200) s
0 sg
 899 1929 mt 6255 1929 L
 899 1284 mt 6255 1284 L
c8
 899 1929 mt  899 1284 L
6255 1929 mt 6255 1284 L
gs 899 1284 5357 646 rc
158 -25 158 10 157 -8 158 12 157 -38 158 12 157 -1 158 8 
157 11 158 18 157 -12 158 -36 157 -9 158 -29 157 -39 158 -52 
157 -44 158 -65 158 -79 157 -66 158 -62 157 -55 158 -47 157 -3 
158 -22 157 -15 158 40 157 -37 158 10 157 12 158 6 157 -40 
158 18 157 -3 899 1914 35 MP stroke
gr

 582 1797 mt  -90 rotate
(539 Hz) s
90 rotate
4 w
DO
SO
6 w
0 sg
 899 1929 mt 6255 1929 L
c9
6255 1929 mt 6255 1284 L
0 sg
 899 1929 mt  899 1875 L
 763 2074 mt 
(-20) s
1529 1929 mt 1529 1875 L
1496 2074 mt 
(0) s
2159 1929 mt 2159 1875 L
2093 2074 mt 
(20) s
2789 1929 mt 2789 1875 L
2723 2074 mt 
(40) s
3419 1929 mt 3419 1875 L
3353 2074 mt 
(60) s
4049 1929 mt 4049 1875 L
3983 2074 mt 
(80) s
4679 1929 mt 4679 1875 L
4579 2074 mt 
(100) s
5309 1929 mt 5309 1875 L
5209 2074 mt 
(120) s
5939 1929 mt 5939 1875 L
5839 2074 mt 
(140) s
c9
6255 1809 mt 6201 1809 L
6289 1853 mt 
(2) s
6255 1674 mt 6201 1674 L
6289 1718 mt 
(3) s
6255 1539 mt 6201 1539 L
6289 1583 mt 
(4) s
gs 899 1284 5357 646 rc
158 7 158 -32 157 -41 158 -47 157 -29 158 -37 157 -27 158 14 
157 11 158 2 157 -7 158 6 157 5 158 -4 157 13 158 20 
157 -4 158 10 158 1 157 -10 158 -28 157 -76 158 -27 157 -31 
158 -6 157 0 158 -8 157 -5 158 14 157 -12 158 6 157 7 
158 -5 157 2 899 1916 35 MP stroke
gr

1 sg
0 645 5356 0 0 -645 899 2824 4 MP
PP
-5356 0 0 645 5356 0 0 -645 899 2824 5 MP stroke
4 w
DO
SO
6 w
0 sg
 899 2824 mt 6255 2824 L
 899 2179 mt 6255 2179 L
c8
 899 2824 mt  899 2179 L
6255 2824 mt 6255 2179 L
0 sg
 899 2824 mt 6255 2824 L
c8
 899 2824 mt  899 2179 L
0 sg
 899 2824 mt  899 2770 L
 899 2179 mt  899 2232 L
 763 2969 mt 
(-20) s
1529 2824 mt 1529 2770 L
1529 2179 mt 1529 2232 L
1496 2969 mt 
(0) s
2159 2824 mt 2159 2770 L
2159 2179 mt 2159 2232 L
2093 2969 mt 
(20) s
2789 2824 mt 2789 2770 L
2789 2179 mt 2789 2232 L
2723 2969 mt 
(40) s
3419 2824 mt 3419 2770 L
3419 2179 mt 3419 2232 L
3353 2969 mt 
(60) s
4049 2824 mt 4049 2770 L
4049 2179 mt 4049 2232 L
3983 2969 mt 
(80) s
4679 2824 mt 4679 2770 L
4679 2179 mt 4679 2232 L
4579 2969 mt 
(100) s
5309 2824 mt 5309 2770 L
5309 2179 mt 5309 2232 L
5209 2969 mt 
(120) s
5939 2824 mt 5939 2770 L
5939 2179 mt 5939 2232 L
5839 2969 mt 
(140) s
c8
 899 2652 mt  952 2652 L
6255 2652 mt 6201 2652 L
 664 2696 mt 
(100) s
 899 2219 mt  952 2219 L
6255 2219 mt 6201 2219 L
 664 2263 mt 
(200) s
0 sg
 899 2824 mt 6255 2824 L
 899 2179 mt 6255 2179 L
c8
 899 2824 mt  899 2179 L
6255 2824 mt 6255 2179 L
gs 899 2179 5357 646 rc
158 0 158 31 157 -4 158 -29 157 -7 158 -18 157 -2 158 -5 
157 35 158 30 157 -16 158 -4 157 -24 158 -18 157 -19 158 -37 
157 -26 158 -40 158 -50 157 -50 158 -61 157 -72 158 -65 157 -66 
158 -39 157 -16 158 -19 157 22 158 -30 157 -4 158 12 157 0 
158 -1 157 18 899 2787 35 MP stroke
gr

 582 2725 mt  -90 rotate
(1260 Hz) s
90 rotate
4 w
DO
SO
6 w
0 sg
 899 2824 mt 6255 2824 L
c9
6255 2824 mt 6255 2179 L
0 sg
 899 2824 mt  899 2770 L
 763 2969 mt 
(-20) s
1529 2824 mt 1529 2770 L
1496 2969 mt 
(0) s
2159 2824 mt 2159 2770 L
2093 2969 mt 
(20) s
2789 2824 mt 2789 2770 L
2723 2969 mt 
(40) s
3419 2824 mt 3419 2770 L
3353 2969 mt 
(60) s
4049 2824 mt 4049 2770 L
3983 2969 mt 
(80) s
4679 2824 mt 4679 2770 L
4579 2969 mt 
(100) s
5309 2824 mt 5309 2770 L
5209 2969 mt 
(120) s
5939 2824 mt 5939 2770 L
5839 2969 mt 
(140) s
c9
6255 2771 mt 6201 2771 L
6289 2815 mt 
(1.5) s
6255 2704 mt 6201 2704 L
6289 2748 mt 
(2) s
6255 2636 mt 6201 2636 L
6289 2680 mt 
(2.5) s
6255 2569 mt 6201 2569 L
6289 2613 mt 
(3) s
gs 899 2179 5357 646 rc
158 1 158 -5 157 -3 158 -11 157 -15 158 -17 157 -22 158 -2 
157 7 158 4 157 -3 158 -6 157 7 158 7 157 5 158 -6 
157 12 158 25 158 2 157 19 158 0 157 -1 158 -25 157 -50 
158 -55 157 -8 158 -4 157 1 158 -4 157 5 158 -1 157 -3 
158 -5 157 3 899 2817 35 MP stroke
gr

1 sg
0 644 5356 0 0 -644 899 3719 4 MP
PP
-5356 0 0 644 5356 0 0 -644 899 3719 5 MP stroke
4 w
DO
SO
6 w
0 sg
 899 3719 mt 6255 3719 L
 899 3075 mt 6255 3075 L
c8
 899 3719 mt  899 3075 L
6255 3719 mt 6255 3075 L
0 sg
 899 3719 mt 6255 3719 L
c8
 899 3719 mt  899 3075 L
0 sg
 899 3719 mt  899 3665 L
 899 3075 mt  899 3128 L
 763 3864 mt 
(-20) s
1529 3719 mt 1529 3665 L
1529 3075 mt 1529 3128 L
1496 3864 mt 
(0) s
2159 3719 mt 2159 3665 L
2159 3075 mt 2159 3128 L
2093 3864 mt 
(20) s
2789 3719 mt 2789 3665 L
2789 3075 mt 2789 3128 L
2723 3864 mt 
(40) s
3419 3719 mt 3419 3665 L
3419 3075 mt 3419 3128 L
3353 3864 mt 
(60) s
4049 3719 mt 4049 3665 L
4049 3075 mt 4049 3128 L
3983 3864 mt 
(80) s
4679 3719 mt 4679 3665 L
4679 3075 mt 4679 3128 L
4579 3864 mt 
(100) s
5309 3719 mt 5309 3665 L
5309 3075 mt 5309 3128 L
5209 3864 mt 
(120) s
5939 3719 mt 5939 3665 L
5939 3075 mt 5939 3128 L
5839 3864 mt 
(140) s
c8
 899 3547 mt  952 3547 L
6255 3547 mt 6201 3547 L
 664 3591 mt 
(100) s
 899 3114 mt  952 3114 L
6255 3114 mt 6201 3114 L
 664 3158 mt 
(200) s
0 sg
 899 3719 mt 6255 3719 L
 899 3075 mt 6255 3075 L
c8
 899 3719 mt  899 3075 L
6255 3719 mt 6255 3075 L
gs 899 3075 5357 645 rc
158 12 158 -4 157 0 158 23 157 -14 158 -2 157 -38 158 -11 
157 0 158 2 157 0 158 -17 157 -31 158 9 157 -3 158 -13 
157 -34 158 -10 158 -46 157 -34 158 -61 157 -76 158 -57 157 -66 
158 -60 157 -18 158 7 157 -12 158 12 157 -17 158 -12 157 29 
158 -15 157 -3 899 3699 35 MP stroke
gr

 582 3621 mt  -90 rotate
(2762 Hz) s
90 rotate
4 w
DO
SO
6 w
0 sg
 899 3719 mt 6255 3719 L
c9
6255 3719 mt 6255 3075 L
0 sg
 899 3719 mt  899 3665 L
 763 3864 mt 
(-20) s
1529 3719 mt 1529 3665 L
1496 3864 mt 
(0) s
2159 3719 mt 2159 3665 L
2093 3864 mt 
(20) s
2789 3719 mt 2789 3665 L
2723 3864 mt 
(40) s
3419 3719 mt 3419 3665 L
3353 3864 mt 
(60) s
4049 3719 mt 4049 3665 L
3983 3864 mt 
(80) s
4679 3719 mt 4679 3665 L
4579 3864 mt 
(100) s
5309 3719 mt 5309 3665 L
5209 3864 mt 
(120) s
5939 3719 mt 5939 3665 L
5839 3864 mt 
(140) s
c9
6255 3666 mt 6201 3666 L
6289 3710 mt 
(1.5) s
6255 3599 mt 6201 3599 L
6289 3643 mt 
(2) s
6255 3532 mt 6201 3532 L
6289 3576 mt 
(2.5) s
6255 3464 mt 6201 3464 L
6289 3508 mt 
(3) s
gs 899 3075 5357 645 rc
158 -1 158 9 157 5 158 -13 157 0 158 -10 157 -3 158 -27 
157 1 158 -4 157 5 158 2 157 12 158 5 157 5 158 10 
157 16 158 7 158 23 157 29 158 19 157 26 158 -23 157 -55 
158 -78 157 -40 158 3 157 -6 158 -10 157 7 158 -11 157 15 
158 -2 157 7 899 3699 35 MP stroke
gr

1 sg
0 645 5356 0 0 -645 899 4615 4 MP
PP
-5356 0 0 645 5356 0 0 -645 899 4615 5 MP stroke
4 w
DO
SO
6 w
0 sg
 899 4615 mt 6255 4615 L
 899 3970 mt 6255 3970 L
c8
 899 4615 mt  899 3970 L
6255 4615 mt 6255 3970 L
0 sg
 899 4615 mt 6255 4615 L
c8
 899 4615 mt  899 3970 L
0 sg
 899 4615 mt  899 4561 L
 899 3970 mt  899 4023 L
 763 4760 mt 
(-20) s
1529 4615 mt 1529 4561 L
1529 3970 mt 1529 4023 L
1496 4760 mt 
(0) s
2159 4615 mt 2159 4561 L
2159 3970 mt 2159 4023 L
2093 4760 mt 
(20) s
2789 4615 mt 2789 4561 L
2789 3970 mt 2789 4023 L
2723 4760 mt 
(40) s
3419 4615 mt 3419 4561 L
3419 3970 mt 3419 4023 L
3353 4760 mt 
(60) s
4049 4615 mt 4049 4561 L
4049 3970 mt 4049 4023 L
3983 4760 mt 
(80) s
4679 4615 mt 4679 4561 L
4679 3970 mt 4679 4023 L
4579 4760 mt 
(100) s
5309 4615 mt 5309 4561 L
5309 3970 mt 5309 4023 L
5209 4760 mt 
(120) s
5939 4615 mt 5939 4561 L
5939 3970 mt 5939 4023 L
5839 4760 mt 
(140) s
c8
 899 4010 mt  952 4010 L
6255 4010 mt 6201 4010 L
 664 4054 mt 
(200) s
0 sg
 899 4615 mt 6255 4615 L
 899 3970 mt 6255 3970 L
c8
 899 4615 mt  899 3970 L
6255 4615 mt 6255 3970 L
gs 899 3970 5357 646 rc
158 -15 158 -23 157 -6 158 27 157 -5 158 -24 157 7 158 27 
157 -29 158 0 157 13 158 -8 157 -13 158 17 157 -22 158 -3 
157 -19 158 16 158 -48 157 -19 158 -37 157 -29 158 -69 157 -79 
158 -98 157 -65 158 -46 157 -3 158 -28 157 21 158 -13 157 -3 
158 10 157 -13 899 4599 35 MP stroke
gr

 582 4516 mt  -90 rotate
(5888 Hz) s
90 rotate
0 sg
3346 4903 mt 
(Level dB) s
 882 4658 mt 
( ) s
6239 4012 mt 
( ) s
4 w
DO
SO
6 w
 899 4615 mt 6255 4615 L
c9
6255 4615 mt 6255 3970 L
0 sg
 899 4615 mt  899 4561 L
 763 4760 mt 
(-20) s
1529 4615 mt 1529 4561 L
1496 4760 mt 
(0) s
2159 4615 mt 2159 4561 L
2093 4760 mt 
(20) s
2789 4615 mt 2789 4561 L
2723 4760 mt 
(40) s
3419 4615 mt 3419 4561 L
3353 4760 mt 
(60) s
4049 4615 mt 4049 4561 L
3983 4760 mt 
(80) s
4679 4615 mt 4679 4561 L
4579 4760 mt 
(100) s
5309 4615 mt 5309 4561 L
5209 4760 mt 
(120) s
5939 4615 mt 5939 4561 L
5839 4760 mt 
(140) s
c9
6255 4091 mt 6201 4091 L
6289 4135 mt 
(5) s
gs 899 3970 5357 646 rc
158 4 158 -4 157 8 158 -5 157 3 158 4 157 -7 158 -12 
157 -16 158 -1 157 5 158 0 157 7 158 12 157 15 158 22 
157 30 158 14 158 35 157 31 158 43 157 49 158 68 157 67 
158 -8 157 -213 158 -161 157 -22 158 2 157 0 158 -10 157 6 
158 8 157 -16 899 4614 35 MP stroke
gr

1 sg
0 334 1427 0 0 -334 4768 4364 4 MP
PP
-1427 0 0 334 1427 0 0 -334 4768 4364 5 MP stroke
4 w
DO
SO
6 w
0 sg
4768 4364 mt 6195 4364 L
4768 4030 mt 6195 4030 L
4768 4364 mt 4768 4030 L
6195 4364 mt 6195 4030 L
4768 4364 mt 6195 4364 L
4768 4364 mt 4768 4030 L
4768 4364 mt 6195 4364 L
4768 4030 mt 6195 4030 L
4768 4364 mt 4768 4030 L
6195 4364 mt 6195 4030 L
5196 4166 mt 
(Firing Rate \(sp/s\)) s
gs 4768 4030 1428 335 rc
c8
330 0 4833 4123 2 MP stroke
gr

c8
0 sg
5196 4313 mt 
(max SC) s
gs 4768 4030 1428 335 rc
c9
330 0 4833 4270 2 MP stroke
gr

c9

end %%Color Dict

eplot
%%EndObject

epage
end

showpage

%%Trailer
%%EOF
